xof 0303txt 0032
template Frame {
 <3d82ab46-62da-11cf-ab39-0020af71e433>
 [...]
}

template Matrix4x4 {
 <f6f23f45-7686-11cf-8f52-0040333594a3>
 array FLOAT matrix[16];
}

template FrameTransformMatrix {
 <f6f23f41-7686-11cf-8f52-0040333594a3>
 Matrix4x4 frameMatrix;
}

template Vector {
 <3d82ab5e-62da-11cf-ab39-0020af71e433>
 FLOAT x;
 FLOAT y;
 FLOAT z;
}

template MeshFace {
 <3d82ab5f-62da-11cf-ab39-0020af71e433>
 DWORD nFaceVertexIndices;
 array DWORD faceVertexIndices[nFaceVertexIndices];
}

template Mesh {
 <3d82ab44-62da-11cf-ab39-0020af71e433>
 DWORD nVertices;
 array Vector vertices[nVertices];
 DWORD nFaces;
 array MeshFace faces[nFaces];
 [...]
}

template MeshNormals {
 <f6f23f43-7686-11cf-8f52-0040333594a3>
 DWORD nNormals;
 array Vector normals[nNormals];
 DWORD nFaceNormals;
 array MeshFace faceNormals[nFaceNormals];
}

template Coords2d {
 <f6f23f44-7686-11cf-8f52-0040333594a3>
 FLOAT u;
 FLOAT v;
}

template MeshTextureCoords {
 <f6f23f40-7686-11cf-8f52-0040333594a3>
 DWORD nTextureCoords;
 array Coords2d textureCoords[nTextureCoords];
}

template ColorRGBA {
 <35ff44e0-6c7c-11cf-8f52-0040333594a3>
 FLOAT red;
 FLOAT green;
 FLOAT blue;
 FLOAT alpha;
}

template ColorRGB {
 <d3e16e81-7835-11cf-8f52-0040333594a3>
 FLOAT red;
 FLOAT green;
 FLOAT blue;
}

template Material {
 <3d82ab4d-62da-11cf-ab39-0020af71e433>
 ColorRGBA faceColor;
 FLOAT power;
 ColorRGB specularColor;
 ColorRGB emissiveColor;
 [...]
}

template MeshMaterialList {
 <f6f23f42-7686-11cf-8f52-0040333594a3>
 DWORD nMaterials;
 DWORD nFaceIndexes;
 array DWORD faceIndexes[nFaceIndexes];
 [Material <3d82ab4d-62da-11cf-ab39-0020af71e433>]
}

template TextureFilename {
 <a42790e1-7810-11cf-8f52-0040333594a3>
 STRING filename;
}


Frame Scene_Root {
 

 Frame cube {
  

  FrameTransformMatrix {
   1.000000,0.000000,0.000000,0.000000,0.000000,1.000000,0.000000,0.000000,0.000000,0.000000,1.000000,0.000000,0.000000,0.000000,0.000000,1.000000;;
  }

  Mesh cube_obj {
   108;
   -5.966049;-0.162121;-5.966049;,
   5.966049;0.162121;-5.966049;,
   5.966049;-0.162121;-5.966049;,
   -5.966049;-0.162121;-5.966049;,
   5.966049;-0.162121;5.966049;,
   -5.966049;-0.162121;5.966049;,
   -5.966049;-0.162121;-5.966049;,
   -5.966049;0.162121;5.966049;,
   -5.966049;0.162121;-5.966049;,
   5.966049;-0.162121;-5.966049;,
   5.966049;0.162121;5.966049;,
   5.966049;-0.162121;5.966049;,
   -4.924973;0.162121;-4.924973;,
   4.924973;0.162121;4.924973;,
   4.924973;0.162121;-4.924973;,
   -5.966049;-0.162121;5.966049;,
   5.966049;0.162121;5.966049;,
   -5.966049;0.162121;5.966049;,
   -5.966049;2.770561;-5.966049;,
   -4.924973;2.770561;4.924973;,
   -4.924973;2.770561;-4.924973;,
   -5.966049;0.162121;5.966049;,
   4.924973;0.162121;4.924973;,
   -4.924973;0.162121;4.924973;,
   5.966049;2.770561;5.966049;,
   4.924973;2.770561;-4.924973;,
   4.924973;2.770561;4.924973;,
   5.966049;2.770561;-5.966049;,
   -4.924973;2.770561;-4.924973;,
   4.924973;2.770561;-4.924973;,
   -5.966049;0.162121;-5.966049;,
   -5.966049;2.770561;5.966049;,
   -5.966049;2.770561;-5.966049;,
   -5.966049;0.162121;5.966049;,
   -4.924973;2.770561;4.924973;,
   -5.966049;2.770561;5.966049;,
   -4.924973;0.162121;4.924973;,
   -4.924973;2.770561;-4.924973;,
   -4.924973;2.770561;4.924973;,
   -4.924973;0.162121;-4.924973;,
   4.924973;2.770561;-4.924973;,
   -4.924973;2.770561;-4.924973;,
   4.924973;0.162121;-4.924973;,
   4.924973;2.770561;4.924973;,
   4.924973;2.770561;-4.924973;,
   4.924973;0.162121;4.924973;,
   5.966049;2.770561;5.966049;,
   4.924973;2.770561;4.924973;,
   5.966049;0.162121;5.966049;,
   5.966049;2.770561;-5.966049;,
   5.966049;2.770561;5.966049;,
   5.966049;0.162121;-5.966049;,
   -5.966049;2.770561;-5.966049;,
   5.966049;2.770561;-5.966049;,
   -5.966049;0.162121;-5.966049;,
   5.966049;0.162121;-5.966049;,
   -5.966049;-0.162121;-5.966049;,
   5.966049;-0.162121;-5.966049;,
   5.966049;-0.162121;5.966049;,
   -5.966049;-0.162121;-5.966049;,
   -5.966049;-0.162121;5.966049;,
   -5.966049;0.162121;5.966049;,
   -5.966049;-0.162121;-5.966049;,
   5.966049;0.162121;-5.966049;,
   5.966049;0.162121;5.966049;,
   5.966049;-0.162121;-5.966049;,
   -4.924973;0.162121;4.924973;,
   4.924973;0.162121;4.924973;,
   -4.924973;0.162121;-4.924973;,
   5.966049;-0.162121;5.966049;,
   5.966049;0.162121;5.966049;,
   -5.966049;-0.162121;5.966049;,
   -5.966049;2.770561;5.966049;,
   -4.924973;2.770561;4.924973;,
   -5.966049;2.770561;-5.966049;,
   5.966049;0.162121;5.966049;,
   4.924973;0.162121;4.924973;,
   -5.966049;0.162121;5.966049;,
   5.966049;2.770561;-5.966049;,
   4.924973;2.770561;-4.924973;,
   5.966049;2.770561;5.966049;,
   -5.966049;2.770561;-5.966049;,
   -4.924973;2.770561;-4.924973;,
   5.966049;2.770561;-5.966049;,
   -5.966049;0.162121;5.966049;,
   -5.966049;2.770561;5.966049;,
   -5.966049;0.162121;-5.966049;,
   -4.924973;0.162121;4.924973;,
   -4.924973;2.770561;4.924973;,
   -5.966049;0.162121;5.966049;,
   -4.924973;0.162121;-4.924973;,
   -4.924973;2.770561;-4.924973;,
   -4.924973;0.162121;4.924973;,
   4.924973;0.162121;-4.924973;,
   4.924973;2.770561;-4.924973;,
   -4.924973;0.162121;-4.924973;,
   4.924973;0.162121;4.924973;,
   4.924973;2.770561;4.924973;,
   4.924973;0.162121;-4.924973;,
   5.966049;0.162121;5.966049;,
   5.966049;2.770561;5.966049;,
   4.924973;0.162121;4.924973;,
   5.966049;0.162121;-5.966049;,
   5.966049;2.770561;-5.966049;,
   5.966049;0.162121;5.966049;,
   -5.966049;0.162121;-5.966049;,
   -5.966049;2.770561;-5.966049;,
   5.966049;0.162121;-5.966049;;
   36;
   3;0,1,2;,
   3;3,4,5;,
   3;6,7,8;,
   3;9,10,11;,
   3;12,13,14;,
   3;15,16,17;,
   3;18,19,20;,
   3;21,22,23;,
   3;24,25,26;,
   3;27,28,29;,
   3;30,31,32;,
   3;33,34,35;,
   3;36,37,38;,
   3;39,40,41;,
   3;42,43,44;,
   3;45,46,47;,
   3;48,49,50;,
   3;51,52,53;,
   3;54,55,56;,
   3;57,58,59;,
   3;60,61,62;,
   3;63,64,65;,
   3;66,67,68;,
   3;69,70,71;,
   3;72,73,74;,
   3;75,76,77;,
   3;78,79,80;,
   3;81,82,83;,
   3;84,85,86;,
   3;87,88,89;,
   3;90,91,92;,
   3;93,94,95;,
   3;96,97,98;,
   3;99,100,101;,
   3;102,103,104;,
   3;105,106,107;;

   MeshNormals {
    108;
    0.000000;0.000000;-1.000000;,
    0.000000;0.000000;-1.000000;,
    0.000000;0.000000;-1.000000;,
    0.000000;0.000000;-1.000000;,
    0.000000;-1.000000;0.000000;,
    0.000000;-1.000000;0.000000;,
    0.000000;-1.000000;0.000000;,
    0.000000;-1.000000;0.000000;,
    -1.000000;0.000000;0.000000;,
    -1.000000;0.000000;0.000000;,
    -1.000000;0.000000;0.000000;,
    -1.000000;0.000000;0.000000;,
    1.000000;0.000000;0.000000;,
    1.000000;0.000000;0.000000;,
    1.000000;0.000000;0.000000;,
    1.000000;0.000000;0.000000;,
    0.000000;1.000000;0.000000;,
    0.000000;1.000000;0.000000;,
    0.000000;1.000000;0.000000;,
    0.000000;1.000000;0.000000;,
    0.000000;0.000000;1.000000;,
    0.000000;0.000000;1.000000;,
    0.000000;0.000000;1.000000;,
    0.000000;0.000000;1.000000;,
    0.000000;1.000000;0.000000;,
    0.000000;1.000000;0.000000;,
    0.000000;1.000000;0.000000;,
    0.000000;1.000000;0.000000;,
    0.000000;1.000000;0.000000;,
    0.000000;1.000000;0.000000;,
    0.000000;1.000000;0.000000;,
    0.000000;1.000000;0.000000;,
    0.000000;1.000000;0.000000;,
    0.000000;1.000000;0.000000;,
    0.000000;1.000000;0.000000;,
    0.000000;1.000000;0.000000;,
    0.000000;1.000000;0.000000;,
    0.000000;1.000000;0.000000;,
    0.000000;1.000000;0.000000;,
    0.000000;1.000000;0.000000;,
    -1.000000;0.000000;0.000000;,
    -1.000000;0.000000;0.000000;,
    -1.000000;0.000000;0.000000;,
    -1.000000;0.000000;0.000000;,
    0.707107;0.000000;0.707107;,
    0.967538;0.000000;0.252725;,
    0.862856;0.000000;0.505449;,
    0.707107;0.000000;0.707107;,
    0.967538;0.000000;0.252725;,
    1.000000;0.000000;0.000000;,
    1.000000;0.000000;0.000000;,
    0.862856;0.000000;0.505449;,
    0.000000;0.000000;1.000000;,
    0.000000;0.000000;1.000000;,
    0.000000;0.000000;1.000000;,
    0.000000;0.000000;1.000000;,
    -1.000000;0.000000;0.000000;,
    -0.862856;0.000000;0.505449;,
    -0.967538;0.000000;0.252725;,
    -1.000000;0.000000;0.000000;,
    -0.862856;0.000000;0.505449;,
    -0.707107;0.000000;0.707107;,
    -0.707107;0.000000;0.707107;,
    -0.967538;0.000000;0.252725;,
    1.000000;0.000000;0.000000;,
    1.000000;0.000000;0.000000;,
    1.000000;0.000000;0.000000;,
    1.000000;0.000000;0.000000;,
    0.000000;0.000000;-1.000000;,
    0.000000;0.000000;-1.000000;,
    0.000000;0.000000;-1.000000;,
    0.000000;0.000000;-1.000000;,
    0.000000;0.000000;-1.000000;,
    0.000000;0.000000;-1.000000;,
    0.000000;-1.000000;0.000000;,
    0.000000;-1.000000;0.000000;,
    -1.000000;0.000000;0.000000;,
    -1.000000;0.000000;0.000000;,
    1.000000;0.000000;0.000000;,
    1.000000;0.000000;0.000000;,
    0.000000;1.000000;0.000000;,
    0.000000;1.000000;0.000000;,
    0.000000;0.000000;1.000000;,
    0.000000;0.000000;1.000000;,
    0.000000;1.000000;0.000000;,
    0.000000;1.000000;0.000000;,
    0.000000;1.000000;0.000000;,
    0.000000;1.000000;0.000000;,
    0.000000;1.000000;0.000000;,
    0.000000;1.000000;0.000000;,
    0.000000;1.000000;0.000000;,
    0.000000;1.000000;0.000000;,
    -1.000000;0.000000;0.000000;,
    -1.000000;0.000000;0.000000;,
    0.707107;0.000000;0.707107;,
    0.862856;0.000000;0.505449;,
    0.967538;0.000000;0.252725;,
    1.000000;0.000000;0.000000;,
    0.000000;0.000000;1.000000;,
    0.000000;0.000000;1.000000;,
    -1.000000;0.000000;0.000000;,
    -0.967538;0.000000;0.252725;,
    -0.862856;0.000000;0.505449;,
    -0.707107;0.000000;0.707107;,
    1.000000;0.000000;0.000000;,
    1.000000;0.000000;0.000000;,
    0.000000;0.000000;-1.000000;,
    0.000000;0.000000;-1.000000;;
    36;
    3;0,2,3;,
    3;4,6,7;,
    3;8,10,11;,
    3;12,14,15;,
    3;16,18,19;,
    3;20,22,23;,
    3;24,26,27;,
    3;28,30,31;,
    3;32,34,35;,
    3;36,38,39;,
    3;40,42,43;,
    3;44,46,47;,
    3;48,50,51;,
    3;52,54,55;,
    3;56,58,59;,
    3;60,62,63;,
    3;64,66,67;,
    3;68,70,71;,
    3;1,73,72;,
    3;5,75,74;,
    3;9,77,76;,
    3;13,79,78;,
    3;17,81,80;,
    3;21,83,82;,
    3;25,85,84;,
    3;29,87,86;,
    3;33,89,88;,
    3;37,91,90;,
    3;41,93,92;,
    3;45,95,94;,
    3;49,97,96;,
    3;53,99,98;,
    3;57,101,100;,
    3;61,103,102;,
    3;65,105,104;,
    3;69,107,106;;
   }

   MeshTextureCoords {
    108;
    -1.000000;0.000000;,
    0.000000;-0.110561;,
    0.000000;0.000000;,
    0.000000;0.000000;,
    -1.000000;-1.000000;,
    0.000000;-1.000000;,
    0.000000;0.000000;,
    -1.000000;-0.110561;,
    0.000000;-0.110561;,
    -1.000000;0.000000;,
    0.000000;-0.110561;,
    0.000000;0.000000;,
    -0.087250;-0.912750;,
    -0.912750;-0.087250;,
    -0.912750;-0.912750;,
    0.000000;0.000000;,
    -1.000000;-0.110561;,
    0.000000;-0.110561;,
    0.000000;-1.000000;,
    -0.087250;-0.087250;,
    -0.087250;-0.912750;,
    0.000000;0.000000;,
    -0.912750;-0.087250;,
    -0.087250;-0.087250;,
    -1.000000;0.000000;,
    -0.912750;-0.912750;,
    -0.912750;-0.087250;,
    -1.000000;-1.000000;,
    -0.087250;-0.912750;,
    -0.912750;-0.912750;,
    0.000000;-0.110561;,
    -1.000000;-1.000000;,
    0.000000;-1.000000;,
    0.000000;-0.110561;,
    -0.087250;-1.000000;,
    0.000000;-1.000000;,
    -0.087250;-0.110561;,
    -0.912750;-1.000000;,
    -0.087250;-1.000000;,
    -0.087250;-0.110561;,
    -0.912750;-1.000000;,
    -0.087250;-1.000000;,
    -0.087250;-0.110561;,
    -0.912750;-1.000000;,
    -0.087250;-1.000000;,
    -0.912750;-0.110561;,
    -1.000000;-1.000000;,
    -0.912750;-1.000000;,
    0.000000;-0.110561;,
    -1.000000;-1.000000;,
    0.000000;-1.000000;,
    0.000000;-0.110561;,
    -1.000000;-1.000000;,
    0.000000;-1.000000;,
    -1.000000;-0.110561;,
    0.000000;-0.110561;,
    -1.000000;0.000000;,
    -1.000000;0.000000;,
    -1.000000;-1.000000;,
    0.000000;0.000000;,
    -1.000000;0.000000;,
    -1.000000;-0.110561;,
    0.000000;0.000000;,
    -1.000000;-0.110561;,
    0.000000;-0.110561;,
    -1.000000;0.000000;,
    -0.087250;-0.087250;,
    -0.912750;-0.087250;,
    -0.087250;-0.912750;,
    -1.000000;0.000000;,
    -1.000000;-0.110561;,
    0.000000;0.000000;,
    0.000000;0.000000;,
    -0.087250;-0.087250;,
    0.000000;-1.000000;,
    -1.000000;0.000000;,
    -0.912750;-0.087250;,
    0.000000;0.000000;,
    -1.000000;-1.000000;,
    -0.912750;-0.912750;,
    -1.000000;0.000000;,
    0.000000;-1.000000;,
    -0.087250;-0.912750;,
    -1.000000;-1.000000;,
    -1.000000;-0.110561;,
    -1.000000;-1.000000;,
    0.000000;-0.110561;,
    -0.087250;-0.110561;,
    -0.087250;-1.000000;,
    0.000000;-0.110561;,
    -0.912750;-0.110561;,
    -0.912750;-1.000000;,
    -0.087250;-0.110561;,
    -0.912750;-0.110561;,
    -0.912750;-1.000000;,
    -0.087250;-0.110561;,
    -0.912750;-0.110561;,
    -0.912750;-1.000000;,
    -0.087250;-0.110561;,
    -1.000000;-0.110561;,
    -1.000000;-1.000000;,
    -0.912750;-0.110561;,
    -1.000000;-0.110561;,
    -1.000000;-1.000000;,
    0.000000;-0.110561;,
    -1.000000;-0.110561;,
    -1.000000;-1.000000;,
    0.000000;-0.110561;;
   }

   MeshMaterialList {
    1;
    36;
    0,
    0,
    0,
    0,
    0,
    0,
    0,
    0,
    0,
    0,
    0,
    0,
    0,
    0,
    0,
    0,
    0,
    0,
    0,
    0,
    0,
    0,
    0,
    0,
    0,
    0,
    0,
    0,
    0,
    0,
    0,
    0,
    0,
    0,
    0,
    0;

    Material DefaultLib_Material {
     0.851000;0.769000;0.227000;1.000000;;
     50.000000;
     1.000000;1.000000;1.000000;;
     0.000000;0.000000;0.000000;;

    }
   }
  }
 }
}