xof 0303txt 0032
template FVFData {
 <b6e70a0e-8ef9-4e83-94ad-ecc8b0c04897>
 DWORD dwFVF;
 DWORD nDWords;
 array DWORD data[nDWords];
}

template EffectInstance {
 <e331f7e4-0559-4cc2-8e99-1cec1657928f>
 STRING EffectFilename;
 [...]
}

template EffectParamFloats {
 <3014b9a0-62f5-478c-9b86-e4ac9f4e418b>
 STRING ParamName;
 DWORD nFloats;
 array FLOAT Floats[nFloats];
}

template EffectParamString {
 <1dbc4c88-94c1-46ee-9076-2c28818c9481>
 STRING ParamName;
 STRING Value;
}

template EffectParamDWord {
 <e13963bc-ae51-4c5d-b00f-cfa3a9d97ce5>
 STRING ParamName;
 DWORD Value;
}


Material PDX01_-_Default {
 1.000000;1.000000;1.000000;1.000000;;
 3.200000;
 0.000000;0.000000;0.000000;;
 0.000000;0.000000;0.000000;;

 TextureFilename {
  "..\\Texture\\coneTexX.bmp";
 }
}

Frame Torus01 {
 

 FrameTransformMatrix {
  1.000000,0.000000,0.000000,0.000000,0.000000,1.000000,0.000000,0.000000,0.000000,0.000000,1.000000,0.000000,0.683761,0.000000,0.683761,1.000000;;
 }

 Mesh  {
  77;
  -0.000000;-0.000001;39.940052;,
  -0.945843;-0.000001;39.393970;,
  -0.945843;-0.000001;38.301807;,
  -0.000000;-0.000001;37.755726;,
  0.945839;-0.000001;38.301807;,
  0.945839;-0.000001;39.393970;,
  0.000000;23.476173;32.312180;,
  -0.945843;23.155197;31.870392;,
  -0.945841;22.513237;30.986813;,
  0.000000;22.192257;30.545025;,
  0.945839;22.513237;30.986813;,
  0.945839;23.155197;31.870392;,
  0.000000;37.985252;12.342159;,
  -0.945839;37.465893;12.173409;,
  -0.945839;36.427185;11.835911;,
  0.000000;35.907829;11.667164;,
  0.945839;36.427185;11.835911;,
  0.945839;37.465889;12.173409;,
  0.000000;37.985249;-12.342152;,
  -0.945839;37.465893;-12.173405;,
  -0.945839;36.427185;-11.835907;,
  0.000000;35.907829;-11.667160;,
  0.945839;36.427185;-11.835907;,
  0.945839;37.465889;-12.173405;,
  0.000000;23.476173;-32.312180;,
  -0.945841;23.155195;-31.870390;,
  -0.945841;22.513237;-30.986813;,
  0.000000;22.192259;-30.545023;,
  0.945839;22.513237;-30.986813;,
  0.945839;23.155195;-31.870394;,
  -0.000000;-0.000001;-39.940052;,
  -0.945843;-0.000001;-39.393970;,
  -0.945843;-0.000001;-38.301807;,
  -0.000000;-0.000001;-37.755726;,
  0.945839;-0.000001;-38.301807;,
  0.945839;-0.000001;-39.393970;,
  0.000000;-23.476173;-32.312180;,
  -0.945841;-23.155191;-31.870390;,
  -0.945841;-22.513233;-30.986813;,
  0.000000;-22.192257;-30.545025;,
  0.945839;-22.513233;-30.986813;,
  0.945839;-23.155190;-31.870392;,
  0.000000;-37.985245;-12.342155;,
  -0.945839;-37.465893;-12.173405;,
  -0.945839;-36.427185;-11.835907;,
  0.000000;-35.907829;-11.667160;,
  0.945839;-36.427185;-11.835907;,
  0.945839;-37.465897;-12.173405;,
  0.000000;-37.985249;12.342155;,
  -0.945839;-37.465893;12.173409;,
  -0.945839;-36.427185;11.835911;,
  0.000000;-35.907829;11.667160;,
  0.945839;-36.427185;11.835911;,
  0.945839;-37.465897;12.173409;,
  0.000000;-23.476181;32.312176;,
  -0.945843;-23.155201;31.870384;,
  -0.945841;-22.513245;30.986809;,
  0.000000;-22.192265;30.545017;,
  0.945839;-22.513245;30.986809;,
  0.945839;-23.155201;31.870384;,
  0.000000;23.476173;32.312180;,
  -0.000000;-0.000001;39.940052;,
  0.000000;37.985252;12.342159;,
  0.000000;37.985249;-12.342152;,
  0.000000;23.476173;-32.312180;,
  -0.000000;-0.000001;-39.940052;,
  0.000000;-23.476173;-32.312180;,
  0.000000;-37.985245;-12.342155;,
  0.000000;-37.985249;12.342155;,
  0.000000;-23.476181;32.312176;,
  -0.945843;-0.000001;39.393970;,
  -0.000000;-0.000001;39.940052;,
  -0.945843;-0.000001;38.301807;,
  -0.000000;-0.000001;37.755726;,
  0.945839;-0.000001;38.301807;,
  0.945839;-0.000001;39.393970;,
  -0.000000;-0.000001;39.940052;;
  120;
  3;0,7,1;,
  3;7,0,6;,
  3;1,8,2;,
  3;8,1,7;,
  3;2,9,3;,
  3;9,2,8;,
  3;3,10,4;,
  3;10,3,9;,
  3;4,11,5;,
  3;11,4,10;,
  3;5,60,61;,
  3;60,5,11;,
  3;6,13,7;,
  3;13,6,12;,
  3;7,14,8;,
  3;14,7,13;,
  3;8,15,9;,
  3;15,8,14;,
  3;9,16,10;,
  3;16,9,15;,
  3;10,17,11;,
  3;17,10,16;,
  3;11,62,60;,
  3;62,11,17;,
  3;12,19,13;,
  3;19,12,18;,
  3;13,20,14;,
  3;20,13,19;,
  3;14,21,15;,
  3;21,14,20;,
  3;15,22,16;,
  3;22,15,21;,
  3;16,23,17;,
  3;23,16,22;,
  3;17,63,62;,
  3;63,17,23;,
  3;18,25,19;,
  3;25,18,24;,
  3;19,26,20;,
  3;26,19,25;,
  3;20,27,21;,
  3;27,20,26;,
  3;21,28,22;,
  3;28,21,27;,
  3;22,29,23;,
  3;29,22,28;,
  3;23,64,63;,
  3;64,23,29;,
  3;24,31,25;,
  3;31,24,30;,
  3;25,32,26;,
  3;32,25,31;,
  3;26,33,27;,
  3;33,26,32;,
  3;27,34,28;,
  3;34,27,33;,
  3;28,35,29;,
  3;35,28,34;,
  3;29,65,64;,
  3;65,29,35;,
  3;30,37,31;,
  3;37,30,36;,
  3;31,38,32;,
  3;38,31,37;,
  3;32,39,33;,
  3;39,32,38;,
  3;33,40,34;,
  3;40,33,39;,
  3;34,41,35;,
  3;41,34,40;,
  3;35,66,65;,
  3;66,35,41;,
  3;36,43,37;,
  3;43,36,42;,
  3;37,44,38;,
  3;44,37,43;,
  3;38,45,39;,
  3;45,38,44;,
  3;39,46,40;,
  3;46,39,45;,
  3;40,47,41;,
  3;47,40,46;,
  3;41,67,66;,
  3;67,41,47;,
  3;42,49,43;,
  3;49,42,48;,
  3;43,50,44;,
  3;50,43,49;,
  3;44,51,45;,
  3;51,44,50;,
  3;45,52,46;,
  3;52,45,51;,
  3;46,53,47;,
  3;53,46,52;,
  3;47,68,67;,
  3;68,47,53;,
  3;48,55,49;,
  3;55,48,54;,
  3;49,56,50;,
  3;56,49,55;,
  3;50,57,51;,
  3;57,50,56;,
  3;51,58,52;,
  3;58,51,57;,
  3;52,59,53;,
  3;59,52,58;,
  3;53,69,68;,
  3;69,53,59;,
  3;54,70,55;,
  3;70,54,71;,
  3;55,72,56;,
  3;72,55,70;,
  3;56,73,57;,
  3;73,56,72;,
  3;57,74,58;,
  3;74,57,73;,
  3;58,75,59;,
  3;75,58,74;,
  3;59,76,69;,
  3;76,59,75;;

  MeshNormals  {
   60;
   0.000002;0.000000;1.000000;,
   -0.870244;0.244958;0.427399;,
   -0.870245;-0.053044;0.489756;,
   -0.000000;0.587785;0.809017;,
   -0.870244;-0.330785;-0.365043;,
   -0.870244;-0.053044;-0.489756;,
   0.000001;-0.587785;-0.809017;,
   0.000000;0.000000;-1.000000;,
   0.870245;-0.244958;-0.427399;,
   0.870245;0.053044;-0.489755;,
   0.870245;0.330784;0.365042;,
   0.870245;0.053044;0.489756;,
   -0.870245;0.449393;0.201790;,
   0.000000;0.951056;0.309017;,
   -0.870245;-0.482176;-0.100895;,
   0.000000;-0.951056;-0.309017;,
   0.870245;-0.449394;-0.201790;,
   0.870246;0.482174;0.100895;,
   -0.870245;0.482176;-0.100895;,
   0.000002;0.951056;-0.309017;,
   -0.870245;-0.449394;0.201790;,
   -0.000000;-0.951056;0.309017;,
   0.870245;-0.482176;0.100895;,
   0.870245;0.449393;-0.201790;,
   -0.870245;0.330785;-0.365042;,
   0.000000;0.587785;-0.809017;,
   -0.870244;-0.244958;0.427399;,
   0.000000;-0.587785;0.809017;,
   0.870245;-0.330784;0.365042;,
   0.870244;0.244958;-0.427399;,
   -0.870244;0.053044;-0.489756;,
   0.000000;0.000000;-1.000000;,
   -0.870244;0.053044;0.489756;,
   0.000000;0.000000;1.000000;,
   0.870245;-0.053044;0.489755;,
   0.870245;-0.053044;-0.489756;,
   -0.870245;-0.244958;-0.427399;,
   0.000000;-0.587785;-0.809017;,
   -0.870244;0.330785;0.365043;,
   0.000001;0.587785;0.809017;,
   0.870244;0.244958;0.427399;,
   0.870245;-0.330784;-0.365042;,
   -0.870245;-0.449394;-0.201790;,
   -0.000001;-0.951057;-0.309017;,
   -0.870245;0.482176;0.100895;,
   0.000001;0.951056;0.309017;,
   0.870245;0.449394;0.201791;,
   0.870244;-0.482178;-0.100896;,
   -0.870245;-0.482177;0.100895;,
   -0.000002;-0.951057;0.309017;,
   -0.870245;0.449393;-0.201790;,
   0.000000;0.951057;-0.309017;,
   0.870245;0.482176;-0.100895;,
   0.870245;-0.449394;0.201790;,
   -0.870245;-0.330784;0.365042;,
   0.000001;-0.587785;0.809017;,
   -0.870245;0.244958;-0.427399;,
   -0.000000;0.587785;-0.809017;,
   0.870245;0.330784;-0.365042;,
   0.870245;-0.244957;0.427398;;
   120;
   3;0,1,2;,
   3;1,0,3;,
   3;2,4,5;,
   3;4,2,1;,
   3;5,6,7;,
   3;6,5,4;,
   3;7,8,9;,
   3;8,7,6;,
   3;9,10,11;,
   3;10,9,8;,
   3;11,3,0;,
   3;3,11,10;,
   3;3,12,1;,
   3;12,3,13;,
   3;1,14,4;,
   3;14,1,12;,
   3;4,15,6;,
   3;15,4,14;,
   3;6,16,8;,
   3;16,6,15;,
   3;8,17,10;,
   3;17,8,16;,
   3;10,13,3;,
   3;13,10,17;,
   3;13,18,12;,
   3;18,13,19;,
   3;12,20,14;,
   3;20,12,18;,
   3;14,21,15;,
   3;21,14,20;,
   3;15,22,16;,
   3;22,15,21;,
   3;16,23,17;,
   3;23,16,22;,
   3;17,19,13;,
   3;19,17,23;,
   3;19,24,18;,
   3;24,19,25;,
   3;18,26,20;,
   3;26,18,24;,
   3;20,27,21;,
   3;27,20,26;,
   3;21,28,22;,
   3;28,21,27;,
   3;22,29,23;,
   3;29,22,28;,
   3;23,25,19;,
   3;25,23,29;,
   3;25,30,24;,
   3;30,25,31;,
   3;24,32,26;,
   3;32,24,30;,
   3;26,33,27;,
   3;33,26,32;,
   3;27,34,28;,
   3;34,27,33;,
   3;28,35,29;,
   3;35,28,34;,
   3;29,31,25;,
   3;31,29,35;,
   3;31,36,30;,
   3;36,31,37;,
   3;30,38,32;,
   3;38,30,36;,
   3;32,39,33;,
   3;39,32,38;,
   3;33,40,34;,
   3;40,33,39;,
   3;34,41,35;,
   3;41,34,40;,
   3;35,37,31;,
   3;37,35,41;,
   3;37,42,36;,
   3;42,37,43;,
   3;36,44,38;,
   3;44,36,42;,
   3;38,45,39;,
   3;45,38,44;,
   3;39,46,40;,
   3;46,39,45;,
   3;40,47,41;,
   3;47,40,46;,
   3;41,43,37;,
   3;43,41,47;,
   3;43,48,42;,
   3;48,43,49;,
   3;42,50,44;,
   3;50,42,48;,
   3;44,51,45;,
   3;51,44,50;,
   3;45,52,46;,
   3;52,45,51;,
   3;46,53,47;,
   3;53,46,52;,
   3;47,49,43;,
   3;49,47,53;,
   3;49,54,48;,
   3;54,49,55;,
   3;48,56,50;,
   3;56,48,54;,
   3;50,57,51;,
   3;57,50,56;,
   3;51,58,52;,
   3;58,51,57;,
   3;52,59,53;,
   3;59,52,58;,
   3;53,55,49;,
   3;55,53,59;,
   3;55,2,54;,
   3;2,55,0;,
   3;54,5,56;,
   3;5,54,2;,
   3;56,7,57;,
   3;7,56,5;,
   3;57,9,58;,
   3;9,57,7;,
   3;58,11,59;,
   3;11,58,9;,
   3;59,0,55;,
   3;0,59,11;;
  }

  MeshMaterialList  {
   1;
   120;
   0,
   0,
   0,
   0,
   0,
   0,
   0,
   0,
   0,
   0,
   0,
   0,
   0,
   0,
   0,
   0,
   0,
   0,
   0,
   0,
   0,
   0,
   0,
   0,
   0,
   0,
   0,
   0,
   0,
   0,
   0,
   0,
   0,
   0,
   0,
   0,
   0,
   0,
   0,
   0,
   0,
   0,
   0,
   0,
   0,
   0,
   0,
   0,
   0,
   0,
   0,
   0,
   0,
   0,
   0,
   0,
   0,
   0,
   0,
   0,
   0,
   0,
   0,
   0,
   0,
   0,
   0,
   0,
   0,
   0,
   0,
   0,
   0,
   0,
   0,
   0,
   0,
   0,
   0,
   0,
   0,
   0,
   0,
   0,
   0,
   0,
   0,
   0,
   0,
   0,
   0,
   0,
   0,
   0,
   0,
   0,
   0,
   0,
   0,
   0,
   0,
   0,
   0,
   0,
   0,
   0,
   0,
   0,
   0,
   0,
   0,
   0,
   0,
   0,
   0,
   0,
   0,
   0,
   0,
   0;
   { PDX01_-_Default }
  }

  MeshTextureCoords  {
   77;
   0.000000;1.000000;,
   0.166667;1.000000;,
   0.333333;1.000000;,
   0.500000;1.000000;,
   0.666667;1.000000;,
   0.833333;1.000000;,
   0.000000;0.900000;,
   0.166667;0.900000;,
   0.333333;0.900000;,
   0.500000;0.900000;,
   0.666667;0.900000;,
   0.833333;0.900000;,
   0.000000;0.800000;,
   0.166667;0.800000;,
   0.333333;0.800000;,
   0.500000;0.800000;,
   0.666667;0.800000;,
   0.833333;0.800000;,
   0.000000;0.700000;,
   0.166667;0.700000;,
   0.333333;0.700000;,
   0.500000;0.700000;,
   0.666667;0.700000;,
   0.833333;0.700000;,
   0.000000;0.600000;,
   0.166667;0.600000;,
   0.333333;0.600000;,
   0.500000;0.600000;,
   0.666667;0.600000;,
   0.833333;0.600000;,
   0.000000;0.500000;,
   0.166667;0.500000;,
   0.333333;0.500000;,
   0.500000;0.500000;,
   0.666667;0.500000;,
   0.833333;0.500000;,
   0.000000;0.400000;,
   0.166667;0.400000;,
   0.333333;0.400000;,
   0.500000;0.400000;,
   0.666667;0.400000;,
   0.833333;0.400000;,
   0.000000;0.300000;,
   0.166667;0.300000;,
   0.333333;0.300000;,
   0.500000;0.300000;,
   0.666667;0.300000;,
   0.833333;0.300000;,
   0.000000;0.200000;,
   0.166667;0.200000;,
   0.333333;0.200000;,
   0.500000;0.200000;,
   0.666667;0.200000;,
   0.833333;0.200000;,
   0.000000;0.100000;,
   0.166667;0.100000;,
   0.333333;0.100000;,
   0.500000;0.100000;,
   0.666667;0.100000;,
   0.833333;0.100000;,
   1.000000;0.900000;,
   1.000000;1.000000;,
   1.000000;0.800000;,
   1.000000;0.700000;,
   1.000000;0.600000;,
   1.000000;0.500000;,
   1.000000;0.400000;,
   1.000000;0.300000;,
   1.000000;0.200000;,
   1.000000;0.100000;,
   0.166667;0.000000;,
   0.000000;0.000000;,
   0.333333;0.000000;,
   0.500000;0.000000;,
   0.666667;0.000000;,
   0.833333;0.000000;,
   1.000000;0.000000;;
  }
 }
}