xof 0303txt 0032
template Frame {
 <3d82ab46-62da-11cf-ab39-0020af71e433>
 [...]
}

template Matrix4x4 {
 <f6f23f45-7686-11cf-8f52-0040333594a3>
 array FLOAT matrix[16];
}

template FrameTransformMatrix {
 <f6f23f41-7686-11cf-8f52-0040333594a3>
 Matrix4x4 frameMatrix;
}

template Vector {
 <3d82ab5e-62da-11cf-ab39-0020af71e433>
 FLOAT x;
 FLOAT y;
 FLOAT z;
}

template MeshFace {
 <3d82ab5f-62da-11cf-ab39-0020af71e433>
 DWORD nFaceVertexIndices;
 array DWORD faceVertexIndices[nFaceVertexIndices];
}

template Mesh {
 <3d82ab44-62da-11cf-ab39-0020af71e433>
 DWORD nVertices;
 array Vector vertices[nVertices];
 DWORD nFaces;
 array MeshFace faces[nFaces];
 [...]
}

template MeshNormals {
 <f6f23f43-7686-11cf-8f52-0040333594a3>
 DWORD nNormals;
 array Vector normals[nNormals];
 DWORD nFaceNormals;
 array MeshFace faceNormals[nFaceNormals];
}

template Coords2d {
 <f6f23f44-7686-11cf-8f52-0040333594a3>
 FLOAT u;
 FLOAT v;
}

template MeshTextureCoords {
 <f6f23f40-7686-11cf-8f52-0040333594a3>
 DWORD nTextureCoords;
 array Coords2d textureCoords[nTextureCoords];
}

template ColorRGBA {
 <35ff44e0-6c7c-11cf-8f52-0040333594a3>
 FLOAT red;
 FLOAT green;
 FLOAT blue;
 FLOAT alpha;
}

template ColorRGB {
 <d3e16e81-7835-11cf-8f52-0040333594a3>
 FLOAT red;
 FLOAT green;
 FLOAT blue;
}

template Material {
 <3d82ab4d-62da-11cf-ab39-0020af71e433>
 ColorRGBA faceColor;
 FLOAT power;
 ColorRGB specularColor;
 ColorRGB emissiveColor;
 [...]
}

template MeshMaterialList {
 <f6f23f42-7686-11cf-8f52-0040333594a3>
 DWORD nMaterials;
 DWORD nFaceIndexes;
 array DWORD faceIndexes[nFaceIndexes];
 [Material <3d82ab4d-62da-11cf-ab39-0020af71e433>]
}

template TextureFilename {
 <a42790e1-7810-11cf-8f52-0040333594a3>
 STRING filename;
}


Frame Scene_Root {
 

 Frame cylinder {
  

  FrameTransformMatrix {
   1.000000,0.000000,0.000000,0.000000,0.000000,1.000000,0.000000,0.000000,0.000000,0.000000,1.000000,0.000000,0.000000,2.000000,0.000000,1.000000;;
  }

  Mesh cylinder_obj {
   176;
   -0.212132;-2.000000;0.212132;,
   -0.300000;-2.000000;0.000000;,
   0.000000;-2.000000;0.000000;,
   -0.300000;-2.000000;0.000000;,
   -0.212132;-2.000000;0.212132;,
   -0.424264;-2.000000;0.424264;,
   -0.600000;-2.000000;0.000000;,
   -0.600000;-2.000000;0.000000;,
   -0.424264;-2.000000;0.424264;,
   -0.424264;0.000000;0.424264;,
   -0.600000;0.000000;0.000000;,
   -0.600000;0.000000;0.000000;,
   -0.424264;0.000000;0.424264;,
   -0.424264;2.000000;0.424264;,
   -0.600000;2.000000;0.000000;,
   -0.600000;2.000000;0.000000;,
   -0.424264;2.000000;0.424264;,
   -0.212132;2.000000;0.212132;,
   -0.300000;2.000000;0.000000;,
   -0.300000;2.000000;0.000000;,
   -0.212132;2.000000;0.212132;,
   0.000000;2.000000;0.000000;,
   0.000000;-2.000000;0.300000;,
   -0.212132;-2.000000;0.212132;,
   0.000000;-2.000000;0.000000;,
   -0.212132;-2.000000;0.212132;,
   0.000000;-2.000000;0.300000;,
   0.000000;-2.000000;0.600000;,
   -0.424264;-2.000000;0.424264;,
   -0.424264;-2.000000;0.424264;,
   0.000000;-2.000000;0.600000;,
   0.000000;0.000000;0.600000;,
   -0.424264;0.000000;0.424264;,
   -0.424264;0.000000;0.424264;,
   0.000000;0.000000;0.600000;,
   0.000000;2.000000;0.600000;,
   -0.424264;2.000000;0.424264;,
   -0.424264;2.000000;0.424264;,
   0.000000;2.000000;0.600000;,
   0.000000;2.000000;0.300000;,
   -0.212132;2.000000;0.212132;,
   -0.212132;2.000000;0.212132;,
   0.000000;2.000000;0.300000;,
   0.000000;2.000000;0.000000;,
   0.212132;-2.000000;0.212132;,
   0.000000;-2.000000;0.300000;,
   0.000000;-2.000000;0.000000;,
   0.000000;-2.000000;0.300000;,
   0.212132;-2.000000;0.212132;,
   0.424264;-2.000000;0.424264;,
   0.000000;-2.000000;0.600000;,
   0.000000;-2.000000;0.600000;,
   0.424264;-2.000000;0.424264;,
   0.424264;0.000000;0.424264;,
   0.000000;0.000000;0.600000;,
   0.000000;0.000000;0.600000;,
   0.424264;0.000000;0.424264;,
   0.424264;2.000000;0.424264;,
   0.000000;2.000000;0.600000;,
   0.000000;2.000000;0.600000;,
   0.424264;2.000000;0.424264;,
   0.212132;2.000000;0.212132;,
   0.000000;2.000000;0.300000;,
   0.000000;2.000000;0.300000;,
   0.212132;2.000000;0.212132;,
   0.000000;2.000000;0.000000;,
   0.300000;-2.000000;0.000000;,
   0.212132;-2.000000;0.212132;,
   0.000000;-2.000000;0.000000;,
   0.212132;-2.000000;0.212132;,
   0.300000;-2.000000;0.000000;,
   0.600000;-2.000000;0.000000;,
   0.424264;-2.000000;0.424264;,
   0.424264;-2.000000;0.424264;,
   0.600000;-2.000000;0.000000;,
   0.600000;0.000000;0.000000;,
   0.424264;0.000000;0.424264;,
   0.424264;0.000000;0.424264;,
   0.600000;0.000000;0.000000;,
   0.600000;2.000000;0.000000;,
   0.424264;2.000000;0.424264;,
   0.424264;2.000000;0.424264;,
   0.600000;2.000000;0.000000;,
   0.300000;2.000000;0.000000;,
   0.212132;2.000000;0.212132;,
   0.212132;2.000000;0.212132;,
   0.300000;2.000000;0.000000;,
   0.000000;2.000000;0.000000;,
   0.212132;-2.000000;-0.212132;,
   0.300000;-2.000000;0.000000;,
   0.000000;-2.000000;0.000000;,
   0.300000;-2.000000;0.000000;,
   0.212132;-2.000000;-0.212132;,
   0.424264;-2.000000;-0.424264;,
   0.600000;-2.000000;0.000000;,
   0.600000;-2.000000;0.000000;,
   0.424264;-2.000000;-0.424264;,
   0.424264;0.000000;-0.424264;,
   0.600000;0.000000;0.000000;,
   0.600000;0.000000;0.000000;,
   0.424264;0.000000;-0.424264;,
   0.424264;2.000000;-0.424264;,
   0.600000;2.000000;0.000000;,
   0.600000;2.000000;0.000000;,
   0.424264;2.000000;-0.424264;,
   0.212132;2.000000;-0.212132;,
   0.300000;2.000000;0.000000;,
   0.300000;2.000000;0.000000;,
   0.212132;2.000000;-0.212132;,
   0.000000;2.000000;0.000000;,
   0.000000;-2.000000;-0.300000;,
   0.212132;-2.000000;-0.212132;,
   0.000000;-2.000000;0.000000;,
   0.212132;-2.000000;-0.212132;,
   0.000000;-2.000000;-0.300000;,
   0.000000;-2.000000;-0.600000;,
   0.424264;-2.000000;-0.424264;,
   0.424264;-2.000000;-0.424264;,
   0.000000;-2.000000;-0.600000;,
   0.000000;0.000000;-0.600000;,
   0.424264;0.000000;-0.424264;,
   0.424264;0.000000;-0.424264;,
   0.000000;0.000000;-0.600000;,
   0.000000;2.000000;-0.600000;,
   0.424264;2.000000;-0.424264;,
   0.424264;2.000000;-0.424264;,
   0.000000;2.000000;-0.600000;,
   0.000000;2.000000;-0.300000;,
   0.212132;2.000000;-0.212132;,
   0.212132;2.000000;-0.212132;,
   0.000000;2.000000;-0.300000;,
   0.000000;2.000000;0.000000;,
   -0.212132;-2.000000;-0.212132;,
   0.000000;-2.000000;-0.300000;,
   0.000000;-2.000000;0.000000;,
   0.000000;-2.000000;-0.300000;,
   -0.212132;-2.000000;-0.212132;,
   -0.424264;-2.000000;-0.424264;,
   0.000000;-2.000000;-0.600000;,
   0.000000;-2.000000;-0.600000;,
   -0.424264;-2.000000;-0.424264;,
   -0.424264;0.000000;-0.424264;,
   0.000000;0.000000;-0.600000;,
   0.000000;0.000000;-0.600000;,
   -0.424264;0.000000;-0.424264;,
   -0.424264;2.000000;-0.424264;,
   0.000000;2.000000;-0.600000;,
   0.000000;2.000000;-0.600000;,
   -0.424264;2.000000;-0.424264;,
   -0.212132;2.000000;-0.212132;,
   0.000000;2.000000;-0.300000;,
   0.000000;2.000000;-0.300000;,
   -0.212132;2.000000;-0.212132;,
   0.000000;2.000000;0.000000;,
   -0.300000;-2.000000;0.000000;,
   -0.212132;-2.000000;-0.212132;,
   0.000000;-2.000000;0.000000;,
   -0.212132;-2.000000;-0.212132;,
   -0.300000;-2.000000;0.000000;,
   -0.600000;-2.000000;0.000000;,
   -0.424264;-2.000000;-0.424264;,
   -0.424264;-2.000000;-0.424264;,
   -0.600000;-2.000000;0.000000;,
   -0.600000;0.000000;0.000000;,
   -0.424264;0.000000;-0.424264;,
   -0.424264;0.000000;-0.424264;,
   -0.600000;0.000000;0.000000;,
   -0.600000;2.000000;0.000000;,
   -0.424264;2.000000;-0.424264;,
   -0.424264;2.000000;-0.424264;,
   -0.600000;2.000000;0.000000;,
   -0.300000;2.000000;0.000000;,
   -0.212132;2.000000;-0.212132;,
   -0.212132;2.000000;-0.212132;,
   -0.300000;2.000000;0.000000;,
   0.000000;2.000000;0.000000;;
   48;
   3;0,1,2;,
   4;3,4,5,6;,
   4;7,8,9,10;,
   4;11,12,13,14;,
   4;15,16,17,18;,
   3;19,20,21;,
   3;22,23,24;,
   4;25,26,27,28;,
   4;29,30,31,32;,
   4;33,34,35,36;,
   4;37,38,39,40;,
   3;41,42,43;,
   3;44,45,46;,
   4;47,48,49,50;,
   4;51,52,53,54;,
   4;55,56,57,58;,
   4;59,60,61,62;,
   3;63,64,65;,
   3;66,67,68;,
   4;69,70,71,72;,
   4;73,74,75,76;,
   4;77,78,79,80;,
   4;81,82,83,84;,
   3;85,86,87;,
   3;88,89,90;,
   4;91,92,93,94;,
   4;95,96,97,98;,
   4;99,100,101,102;,
   4;103,104,105,106;,
   3;107,108,109;,
   3;110,111,112;,
   4;113,114,115,116;,
   4;117,118,119,120;,
   4;121,122,123,124;,
   4;125,126,127,128;,
   3;129,130,131;,
   3;132,133,134;,
   4;135,136,137,138;,
   4;139,140,141,142;,
   4;143,144,145,146;,
   4;147,148,149,150;,
   3;151,152,153;,
   3;154,155,156;,
   4;157,158,159,160;,
   4;161,162,163,164;,
   4;165,166,167,168;,
   4;169,170,171,172;,
   3;173,174,175;;

   MeshNormals {
    176;
    0.000000;-1.000000;0.000000;,
    0.000000;-1.000000;0.000000;,
    0.000000;-1.000000;0.000000;,
    0.000000;-1.000000;0.000000;,
    0.000000;-1.000000;0.000000;,
    0.000000;-1.000000;0.000000;,
    0.000000;-1.000000;0.000000;,
    -1.000000;0.000000;0.000000;,
    -0.707107;0.000000;0.707107;,
    -0.707107;0.000000;0.707107;,
    -1.000000;0.000000;0.000000;,
    -1.000000;0.000000;0.000000;,
    -0.707107;0.000000;0.707107;,
    -0.707107;0.000000;0.707107;,
    -1.000000;0.000000;0.000000;,
    0.000000;1.000000;0.000000;,
    0.000000;1.000000;0.000000;,
    0.000000;1.000000;0.000000;,
    0.000000;1.000000;0.000000;,
    0.000000;1.000000;0.000000;,
    0.000000;1.000000;0.000000;,
    0.000000;1.000000;0.000000;,
    0.000000;-1.000000;0.000000;,
    0.000000;-1.000000;0.000000;,
    0.000000;-1.000000;0.000000;,
    0.000000;-1.000000;0.000000;,
    0.000000;-1.000000;0.000000;,
    0.000000;-1.000000;0.000000;,
    0.000000;-1.000000;0.000000;,
    -0.707107;0.000000;0.707107;,
    0.000000;0.000000;1.000000;,
    0.000000;0.000000;1.000000;,
    -0.707107;0.000000;0.707107;,
    -0.707107;0.000000;0.707107;,
    0.000000;0.000000;1.000000;,
    0.000000;0.000000;1.000000;,
    -0.707107;0.000000;0.707107;,
    0.000000;1.000000;0.000000;,
    0.000000;1.000000;0.000000;,
    0.000000;1.000000;0.000000;,
    0.000000;1.000000;0.000000;,
    0.000000;1.000000;0.000000;,
    0.000000;1.000000;0.000000;,
    0.000000;1.000000;0.000000;,
    0.000000;-1.000000;0.000000;,
    0.000000;-1.000000;0.000000;,
    0.000000;-1.000000;0.000000;,
    0.000000;-1.000000;0.000000;,
    0.000000;-1.000000;0.000000;,
    0.000000;-1.000000;0.000000;,
    0.000000;-1.000000;0.000000;,
    0.000000;0.000000;1.000000;,
    0.707107;0.000000;0.707107;,
    0.707107;0.000000;0.707107;,
    0.000000;0.000000;1.000000;,
    0.000000;0.000000;1.000000;,
    0.707107;0.000000;0.707107;,
    0.707107;0.000000;0.707107;,
    0.000000;0.000000;1.000000;,
    0.000000;1.000000;0.000000;,
    0.000000;1.000000;0.000000;,
    0.000000;1.000000;0.000000;,
    0.000000;1.000000;0.000000;,
    0.000000;1.000000;0.000000;,
    0.000000;1.000000;0.000000;,
    0.000000;1.000000;0.000000;,
    0.000000;-1.000000;0.000000;,
    0.000000;-1.000000;0.000000;,
    0.000000;-1.000000;0.000000;,
    0.000000;-1.000000;0.000000;,
    0.000000;-1.000000;0.000000;,
    0.000000;-1.000000;0.000000;,
    0.000000;-1.000000;0.000000;,
    0.707107;0.000000;0.707107;,
    1.000000;0.000000;0.000000;,
    1.000000;0.000000;0.000000;,
    0.707107;0.000000;0.707107;,
    0.707107;0.000000;0.707107;,
    1.000000;0.000000;0.000000;,
    1.000000;0.000000;0.000000;,
    0.707107;0.000000;0.707107;,
    0.000000;1.000000;0.000000;,
    0.000000;1.000000;0.000000;,
    0.000000;1.000000;0.000000;,
    0.000000;1.000000;0.000000;,
    0.000000;1.000000;0.000000;,
    0.000000;1.000000;0.000000;,
    0.000000;1.000000;0.000000;,
    0.000000;-1.000000;0.000000;,
    0.000000;-1.000000;0.000000;,
    0.000000;-1.000000;0.000000;,
    0.000000;-1.000000;0.000000;,
    0.000000;-1.000000;0.000000;,
    0.000000;-1.000000;0.000000;,
    0.000000;-1.000000;0.000000;,
    1.000000;0.000000;0.000000;,
    0.707107;0.000000;-0.707107;,
    0.707107;0.000000;-0.707107;,
    1.000000;0.000000;0.000000;,
    1.000000;0.000000;0.000000;,
    0.707107;0.000000;-0.707107;,
    0.707107;0.000000;-0.707107;,
    1.000000;0.000000;0.000000;,
    0.000000;1.000000;0.000000;,
    0.000000;1.000000;0.000000;,
    0.000000;1.000000;0.000000;,
    0.000000;1.000000;0.000000;,
    0.000000;1.000000;0.000000;,
    0.000000;1.000000;0.000000;,
    0.000000;1.000000;0.000000;,
    0.000000;-1.000000;0.000000;,
    0.000000;-1.000000;0.000000;,
    0.000000;-1.000000;0.000000;,
    0.000000;-1.000000;0.000000;,
    0.000000;-1.000000;0.000000;,
    0.000000;-1.000000;0.000000;,
    0.000000;-1.000000;0.000000;,
    0.707107;0.000000;-0.707107;,
    0.000000;0.000000;-1.000000;,
    0.000000;0.000000;-1.000000;,
    0.707107;0.000000;-0.707107;,
    0.707107;0.000000;-0.707107;,
    0.000000;0.000000;-1.000000;,
    0.000000;0.000000;-1.000000;,
    0.707107;0.000000;-0.707107;,
    0.000000;1.000000;0.000000;,
    0.000000;1.000000;0.000000;,
    0.000000;1.000000;0.000000;,
    0.000000;1.000000;0.000000;,
    0.000000;1.000000;0.000000;,
    0.000000;1.000000;0.000000;,
    0.000000;1.000000;0.000000;,
    0.000000;-1.000000;0.000000;,
    0.000000;-1.000000;0.000000;,
    0.000000;-1.000000;0.000000;,
    0.000000;-1.000000;0.000000;,
    0.000000;-1.000000;0.000000;,
    0.000000;-1.000000;0.000000;,
    0.000000;-1.000000;0.000000;,
    0.000000;0.000000;-1.000000;,
    -0.707107;0.000000;-0.707107;,
    -0.707107;0.000000;-0.707107;,
    0.000000;0.000000;-1.000000;,
    0.000000;0.000000;-1.000000;,
    -0.707107;0.000000;-0.707107;,
    -0.707107;0.000000;-0.707107;,
    0.000000;0.000000;-1.000000;,
    0.000000;1.000000;0.000000;,
    0.000000;1.000000;0.000000;,
    0.000000;1.000000;0.000000;,
    0.000000;1.000000;0.000000;,
    0.000000;1.000000;0.000000;,
    0.000000;1.000000;0.000000;,
    0.000000;1.000000;0.000000;,
    0.000000;-1.000000;0.000000;,
    0.000000;-1.000000;0.000000;,
    0.000000;-1.000000;0.000000;,
    0.000000;-1.000000;0.000000;,
    0.000000;-1.000000;0.000000;,
    0.000000;-1.000000;0.000000;,
    0.000000;-1.000000;0.000000;,
    -0.707107;0.000000;-0.707107;,
    -1.000000;0.000000;0.000000;,
    -1.000000;0.000000;0.000000;,
    -0.707107;0.000000;-0.707107;,
    -0.707107;0.000000;-0.707107;,
    -1.000000;0.000000;0.000000;,
    -1.000000;0.000000;0.000000;,
    -0.707107;0.000000;-0.707107;,
    0.000000;1.000000;0.000000;,
    0.000000;1.000000;0.000000;,
    0.000000;1.000000;0.000000;,
    0.000000;1.000000;0.000000;,
    0.000000;1.000000;0.000000;,
    0.000000;1.000000;0.000000;,
    0.000000;1.000000;0.000000;;
    48;
    3;0,1,2;,
    4;3,4,5,6;,
    4;7,8,9,10;,
    4;11,12,13,14;,
    4;15,16,17,18;,
    3;19,20,21;,
    3;22,23,24;,
    4;25,26,27,28;,
    4;29,30,31,32;,
    4;33,34,35,36;,
    4;37,38,39,40;,
    3;41,42,43;,
    3;44,45,46;,
    4;47,48,49,50;,
    4;51,52,53,54;,
    4;55,56,57,58;,
    4;59,60,61,62;,
    3;63,64,65;,
    3;66,67,68;,
    4;69,70,71,72;,
    4;73,74,75,76;,
    4;77,78,79,80;,
    4;81,82,83,84;,
    3;85,86,87;,
    3;88,89,90;,
    4;91,92,93,94;,
    4;95,96,97,98;,
    4;99,100,101,102;,
    4;103,104,105,106;,
    3;107,108,109;,
    3;110,111,112;,
    4;113,114,115,116;,
    4;117,118,119,120;,
    4;121,122,123,124;,
    4;125,126,127,128;,
    3;129,130,131;,
    3;132,133,134;,
    4;135,136,137,138;,
    4;139,140,141,142;,
    4;143,144,145,146;,
    4;147,148,149,150;,
    3;151,152,153;,
    3;154,155,156;,
    4;157,158,159,160;,
    4;161,162,163,164;,
    4;165,166,167,168;,
    4;169,170,171,172;,
    3;173,174,175;;
   }

   MeshTextureCoords {
    176;
    -0.375000;0.000000;,
    -0.250000;0.000000;,
    -0.750000;0.000000;,
    -0.250000;0.000000;,
    -0.375000;0.000000;,
    -0.375000;0.000000;,
    -0.250000;0.000000;,
    -0.250000;0.000000;,
    -0.375000;0.000000;,
    -0.375000;-0.500000;,
    -0.250000;-0.500000;,
    -0.250000;-0.500000;,
    -0.375000;-0.500000;,
    -0.375000;-1.000000;,
    -0.250000;-1.000000;,
    -0.250000;-1.000000;,
    -0.375000;-1.000000;,
    -0.375000;-1.000000;,
    -0.250000;-1.000000;,
    -0.250000;-1.000000;,
    -0.375000;-1.000000;,
    -0.750000;-1.000000;,
    -0.500000;0.000000;,
    -0.375000;0.000000;,
    -0.750000;0.000000;,
    -0.375000;0.000000;,
    -0.500000;0.000000;,
    -0.500000;0.000000;,
    -0.375000;0.000000;,
    -0.375000;0.000000;,
    -0.500000;0.000000;,
    -0.500000;-0.500000;,
    -0.375000;-0.500000;,
    -0.375000;-0.500000;,
    -0.500000;-0.500000;,
    -0.500000;-1.000000;,
    -0.375000;-1.000000;,
    -0.375000;-1.000000;,
    -0.500000;-1.000000;,
    -0.500000;-1.000000;,
    -0.375000;-1.000000;,
    -0.375000;-1.000000;,
    -0.500000;-1.000000;,
    -0.750000;-1.000000;,
    -0.625000;0.000000;,
    -0.500000;0.000000;,
    -0.750000;0.000000;,
    -0.500000;0.000000;,
    -0.625000;0.000000;,
    -0.625000;0.000000;,
    -0.500000;0.000000;,
    -0.500000;0.000000;,
    -0.625000;0.000000;,
    -0.625000;-0.500000;,
    -0.500000;-0.500000;,
    -0.500000;-0.500000;,
    -0.625000;-0.500000;,
    -0.625000;-1.000000;,
    -0.500000;-1.000000;,
    -0.500000;-1.000000;,
    -0.625000;-1.000000;,
    -0.625000;-1.000000;,
    -0.500000;-1.000000;,
    -0.500000;-1.000000;,
    -0.625000;-1.000000;,
    -0.750000;-1.000000;,
    -0.750000;0.000000;,
    -0.625000;0.000000;,
    -0.750000;0.000000;,
    -0.625000;0.000000;,
    -0.750000;0.000000;,
    -0.750000;0.000000;,
    -0.625000;0.000000;,
    -0.625000;0.000000;,
    -0.750000;0.000000;,
    -0.750000;-0.500000;,
    -0.625000;-0.500000;,
    -0.625000;-0.500000;,
    -0.750000;-0.500000;,
    -0.750000;-1.000000;,
    -0.625000;-1.000000;,
    -0.625000;-1.000000;,
    -0.750000;-1.000000;,
    -0.750000;-1.000000;,
    -0.625000;-1.000000;,
    -0.625000;-1.000000;,
    -0.750000;-1.000000;,
    -0.750000;-1.000000;,
    -0.875000;0.000000;,
    -0.750000;0.000000;,
    -0.750000;0.000000;,
    -0.750000;0.000000;,
    -0.875000;0.000000;,
    -0.875000;0.000000;,
    -0.750000;0.000000;,
    -0.750000;0.000000;,
    -0.875000;0.000000;,
    -0.875000;-0.500000;,
    -0.750000;-0.500000;,
    -0.750000;-0.500000;,
    -0.875000;-0.500000;,
    -0.875000;-1.000000;,
    -0.750000;-1.000000;,
    -0.750000;-1.000000;,
    -0.875000;-1.000000;,
    -0.875000;-1.000000;,
    -0.750000;-1.000000;,
    -0.750000;-1.000000;,
    -0.875000;-1.000000;,
    -0.750000;-1.000000;,
    -1.000000;0.000000;,
    -0.875000;0.000000;,
    -0.750000;0.000000;,
    -0.875000;0.000000;,
    -1.000000;0.000000;,
    -1.000000;0.000000;,
    -0.875000;0.000000;,
    -0.875000;0.000000;,
    -1.000000;0.000000;,
    -1.000000;-0.500000;,
    -0.875000;-0.500000;,
    -0.875000;-0.500000;,
    -1.000000;-0.500000;,
    -1.000000;-1.000000;,
    -0.875000;-1.000000;,
    -0.875000;-1.000000;,
    -1.000000;-1.000000;,
    -1.000000;-1.000000;,
    -0.875000;-1.000000;,
    -0.875000;-1.000000;,
    -1.000000;-1.000000;,
    -0.750000;-1.000000;,
    -1.125000;0.000000;,
    -1.000000;0.000000;,
    -0.750000;0.000000;,
    0.000000;0.000000;,
    -0.125000;0.000000;,
    -0.125000;0.000000;,
    0.000000;0.000000;,
    0.000000;0.000000;,
    -0.125000;0.000000;,
    -0.125000;-0.500000;,
    0.000000;-0.500000;,
    0.000000;-0.500000;,
    -0.125000;-0.500000;,
    -0.125000;-1.000000;,
    0.000000;-1.000000;,
    0.000000;-1.000000;,
    -0.125000;-1.000000;,
    -0.125000;-1.000000;,
    0.000000;-1.000000;,
    -1.000000;-1.000000;,
    -1.125000;-1.000000;,
    -0.750000;-1.000000;,
    -0.250000;0.000000;,
    -0.125000;0.000000;,
    0.250000;0.000000;,
    -0.125000;0.000000;,
    -0.250000;0.000000;,
    -0.250000;0.000000;,
    -0.125000;0.000000;,
    -0.125000;0.000000;,
    -0.250000;0.000000;,
    -0.250000;-0.500000;,
    -0.125000;-0.500000;,
    -0.125000;-0.500000;,
    -0.250000;-0.500000;,
    -0.250000;-1.000000;,
    -0.125000;-1.000000;,
    -0.125000;-1.000000;,
    -0.250000;-1.000000;,
    -0.250000;-1.000000;,
    -0.125000;-1.000000;,
    -0.125000;-1.000000;,
    -0.250000;-1.000000;,
    0.250000;-1.000000;;
   }

   MeshMaterialList {
    1;
    48;
    0,
    0,
    0,
    0,
    0,
    0,
    0,
    0,
    0,
    0,
    0,
    0,
    0,
    0,
    0,
    0,
    0,
    0,
    0,
    0,
    0,
    0,
    0,
    0,
    0,
    0,
    0,
    0,
    0,
    0,
    0,
    0,
    0,
    0,
    0,
    0,
    0,
    0,
    0,
    0,
    0,
    0,
    0,
    0,
    0,
    0,
    0,
    0;

    Material DefaultLib_Material1 {
     1.000000;1.000000;1.000000;1.000000;;
     50.000000;
     1.000000;1.000000;1.000000;;
     0.000000;0.000000;0.000000;;

     TextureFilename {
      "editor_grid.tga";
     }
    }
   }
  }
 }

 Frame cone {
  

  FrameTransformMatrix {
   1.000000,0.000000,0.000000,0.000000,0.000000,1.000000,0.000000,0.000000,0.000000,0.000000,1.000000,0.000000,0.000000,4.000000,0.000000,1.000000;;
  }

  Mesh cone_obj {
   112;
   -0.353553;-0.333333;0.353553;,
   -0.500000;-0.333333;0.000000;,
   0.000000;-0.333333;0.000000;,
   -0.500000;-0.333333;0.000000;,
   -0.353553;-0.333333;0.353553;,
   -0.707107;-0.333333;0.707107;,
   -1.000000;-0.333333;0.000000;,
   -1.000000;-0.333333;0.000000;,
   -0.707107;-0.333333;0.707107;,
   -0.353553;0.166667;0.353553;,
   -0.500000;0.166667;0.000000;,
   -0.500000;0.166667;0.000000;,
   -0.353553;0.166667;0.353553;,
   0.000000;0.666667;0.000000;,
   0.000000;-0.333333;0.500000;,
   -0.353553;-0.333333;0.353553;,
   0.000000;-0.333333;0.000000;,
   -0.353553;-0.333333;0.353553;,
   0.000000;-0.333333;0.500000;,
   0.000000;-0.333333;1.000000;,
   -0.707107;-0.333333;0.707107;,
   -0.707107;-0.333333;0.707107;,
   0.000000;-0.333333;1.000000;,
   0.000000;0.166667;0.500000;,
   -0.353553;0.166667;0.353553;,
   -0.353553;0.166667;0.353553;,
   0.000000;0.166667;0.500000;,
   0.000000;0.666667;0.000000;,
   0.353553;-0.333333;0.353553;,
   0.000000;-0.333333;0.500000;,
   0.000000;-0.333333;0.000000;,
   0.000000;-0.333333;0.500000;,
   0.353553;-0.333333;0.353553;,
   0.707107;-0.333333;0.707107;,
   0.000000;-0.333333;1.000000;,
   0.000000;-0.333333;1.000000;,
   0.707107;-0.333333;0.707107;,
   0.353553;0.166667;0.353553;,
   0.000000;0.166667;0.500000;,
   0.000000;0.166667;0.500000;,
   0.353553;0.166667;0.353553;,
   0.000000;0.666667;0.000000;,
   0.500000;-0.333333;0.000000;,
   0.353553;-0.333333;0.353553;,
   0.000000;-0.333333;0.000000;,
   0.353553;-0.333333;0.353553;,
   0.500000;-0.333333;0.000000;,
   1.000000;-0.333333;0.000000;,
   0.707107;-0.333333;0.707107;,
   0.707107;-0.333333;0.707107;,
   1.000000;-0.333333;0.000000;,
   0.500000;0.166667;0.000000;,
   0.353553;0.166667;0.353553;,
   0.353553;0.166667;0.353553;,
   0.500000;0.166667;0.000000;,
   0.000000;0.666667;0.000000;,
   0.353553;-0.333333;-0.353553;,
   0.500000;-0.333333;0.000000;,
   0.000000;-0.333333;0.000000;,
   0.500000;-0.333333;0.000000;,
   0.353553;-0.333333;-0.353553;,
   0.707107;-0.333333;-0.707107;,
   1.000000;-0.333333;0.000000;,
   1.000000;-0.333333;0.000000;,
   0.707107;-0.333333;-0.707107;,
   0.353553;0.166667;-0.353553;,
   0.500000;0.166667;0.000000;,
   0.500000;0.166667;0.000000;,
   0.353553;0.166667;-0.353553;,
   0.000000;0.666667;0.000000;,
   0.000000;-0.333333;-0.500000;,
   0.353553;-0.333333;-0.353553;,
   0.000000;-0.333333;0.000000;,
   0.353553;-0.333333;-0.353553;,
   0.000000;-0.333333;-0.500000;,
   0.000000;-0.333333;-1.000000;,
   0.707107;-0.333333;-0.707107;,
   0.707107;-0.333333;-0.707107;,
   0.000000;-0.333333;-1.000000;,
   0.000000;0.166667;-0.500000;,
   0.353553;0.166667;-0.353553;,
   0.353553;0.166667;-0.353553;,
   0.000000;0.166667;-0.500000;,
   0.000000;0.666667;0.000000;,
   -0.353553;-0.333333;-0.353553;,
   0.000000;-0.333333;-0.500000;,
   0.000000;-0.333333;0.000000;,
   0.000000;-0.333333;-0.500000;,
   -0.353553;-0.333333;-0.353553;,
   -0.707107;-0.333333;-0.707107;,
   0.000000;-0.333333;-1.000000;,
   0.000000;-0.333333;-1.000000;,
   -0.707107;-0.333333;-0.707107;,
   -0.353553;0.166667;-0.353553;,
   0.000000;0.166667;-0.500000;,
   0.000000;0.166667;-0.500000;,
   -0.353553;0.166667;-0.353553;,
   0.000000;0.666667;0.000000;,
   -0.500000;-0.333333;0.000000;,
   -0.353553;-0.333333;-0.353553;,
   0.000000;-0.333333;0.000000;,
   -0.353553;-0.333333;-0.353553;,
   -0.500000;-0.333333;0.000000;,
   -1.000000;-0.333333;0.000000;,
   -0.707107;-0.333333;-0.707107;,
   -0.707107;-0.333333;-0.707107;,
   -1.000000;-0.333333;0.000000;,
   -0.500000;0.166667;0.000000;,
   -0.353553;0.166667;-0.353553;,
   -0.353553;0.166667;-0.353553;,
   -0.500000;0.166667;0.000000;,
   0.000000;0.666667;0.000000;;
   32;
   3;0,1,2;,
   4;3,4,5,6;,
   4;7,8,9,10;,
   3;11,12,13;,
   3;14,15,16;,
   4;17,18,19,20;,
   4;21,22,23,24;,
   3;25,26,27;,
   3;28,29,30;,
   4;31,32,33,34;,
   4;35,36,37,38;,
   3;39,40,41;,
   3;42,43,44;,
   4;45,46,47,48;,
   4;49,50,51,52;,
   3;53,54,55;,
   3;56,57,58;,
   4;59,60,61,62;,
   4;63,64,65,66;,
   3;67,68,69;,
   3;70,71,72;,
   4;73,74,75,76;,
   4;77,78,79,80;,
   3;81,82,83;,
   3;84,85,86;,
   4;87,88,89,90;,
   4;91,92,93,94;,
   3;95,96,97;,
   3;98,99,100;,
   4;101,102,103,104;,
   4;105,106,107,108;,
   3;109,110,111;;

   MeshNormals {
    112;
    0.000000;-1.000000;0.000000;,
    0.000000;-1.000000;0.000000;,
    0.000000;-1.000000;0.000000;,
    0.000000;-1.000000;0.000000;,
    0.000000;-1.000000;0.000000;,
    0.000000;-1.000000;0.000000;,
    0.000000;-1.000000;0.000000;,
    -0.707107;0.707107;0.000000;,
    -0.500000;0.707107;0.500000;,
    -0.500000;0.707107;0.500000;,
    -0.707107;0.707107;0.000000;,
    -0.707107;0.707107;0.000000;,
    -0.500000;0.707107;0.500000;,
    0.000000;1.000000;0.000000;,
    0.000000;-1.000000;0.000000;,
    0.000000;-1.000000;0.000000;,
    0.000000;-1.000000;0.000000;,
    0.000000;-1.000000;0.000000;,
    0.000000;-1.000000;0.000000;,
    0.000000;-1.000000;0.000000;,
    0.000000;-1.000000;0.000000;,
    -0.500000;0.707107;0.500000;,
    0.000000;0.707107;0.707107;,
    0.000000;0.707107;0.707107;,
    -0.500000;0.707107;0.500000;,
    -0.500000;0.707107;0.500000;,
    0.000000;0.707107;0.707107;,
    0.000000;1.000000;0.000000;,
    0.000000;-1.000000;0.000000;,
    0.000000;-1.000000;0.000000;,
    0.000000;-1.000000;0.000000;,
    0.000000;-1.000000;0.000000;,
    0.000000;-1.000000;0.000000;,
    0.000000;-1.000000;0.000000;,
    0.000000;-1.000000;0.000000;,
    0.000000;0.707107;0.707107;,
    0.500000;0.707107;0.500000;,
    0.500000;0.707107;0.500000;,
    0.000000;0.707107;0.707107;,
    0.000000;0.707107;0.707107;,
    0.500000;0.707107;0.500000;,
    0.000000;1.000000;0.000000;,
    0.000000;-1.000000;0.000000;,
    0.000000;-1.000000;0.000000;,
    0.000000;-1.000000;0.000000;,
    0.000000;-1.000000;0.000000;,
    0.000000;-1.000000;0.000000;,
    0.000000;-1.000000;0.000000;,
    0.000000;-1.000000;0.000000;,
    0.500000;0.707107;0.500000;,
    0.707107;0.707107;0.000000;,
    0.707107;0.707107;0.000000;,
    0.500000;0.707107;0.500000;,
    0.500000;0.707107;0.500000;,
    0.707107;0.707107;0.000000;,
    0.000000;1.000000;0.000000;,
    0.000000;-1.000000;0.000000;,
    0.000000;-1.000000;0.000000;,
    0.000000;-1.000000;0.000000;,
    0.000000;-1.000000;0.000000;,
    0.000000;-1.000000;0.000000;,
    0.000000;-1.000000;0.000000;,
    0.000000;-1.000000;0.000000;,
    0.707107;0.707107;0.000000;,
    0.500000;0.707107;-0.500000;,
    0.500000;0.707107;-0.500000;,
    0.707107;0.707107;0.000000;,
    0.707107;0.707107;0.000000;,
    0.500000;0.707107;-0.500000;,
    0.000000;1.000000;0.000000;,
    0.000000;-1.000000;0.000000;,
    0.000000;-1.000000;0.000000;,
    0.000000;-1.000000;0.000000;,
    0.000000;-1.000000;0.000000;,
    0.000000;-1.000000;0.000000;,
    0.000000;-1.000000;0.000000;,
    0.000000;-1.000000;0.000000;,
    0.500000;0.707107;-0.500000;,
    0.000000;0.707107;-0.707107;,
    0.000000;0.707107;-0.707107;,
    0.500000;0.707107;-0.500000;,
    0.500000;0.707107;-0.500000;,
    0.000000;0.707107;-0.707107;,
    0.000000;1.000000;0.000000;,
    0.000000;-1.000000;0.000000;,
    0.000000;-1.000000;0.000000;,
    0.000000;-1.000000;0.000000;,
    0.000000;-1.000000;0.000000;,
    0.000000;-1.000000;0.000000;,
    0.000000;-1.000000;0.000000;,
    0.000000;-1.000000;0.000000;,
    0.000000;0.707107;-0.707107;,
    -0.500000;0.707107;-0.500000;,
    -0.500000;0.707107;-0.500000;,
    0.000000;0.707107;-0.707107;,
    0.000000;0.707107;-0.707107;,
    -0.500000;0.707107;-0.500000;,
    0.000000;1.000000;0.000000;,
    0.000000;-1.000000;0.000000;,
    0.000000;-1.000000;0.000000;,
    0.000000;-1.000000;0.000000;,
    0.000000;-1.000000;0.000000;,
    0.000000;-1.000000;0.000000;,
    0.000000;-1.000000;0.000000;,
    0.000000;-1.000000;0.000000;,
    -0.500000;0.707107;-0.500000;,
    -0.707107;0.707107;0.000000;,
    -0.707107;0.707107;0.000000;,
    -0.500000;0.707107;-0.500000;,
    -0.500000;0.707107;-0.500000;,
    -0.707107;0.707107;0.000000;,
    0.000000;1.000000;0.000000;;
    32;
    3;0,1,2;,
    4;3,4,5,6;,
    4;7,8,9,10;,
    3;11,12,13;,
    3;14,15,16;,
    4;17,18,19,20;,
    4;21,22,23,24;,
    3;25,26,27;,
    3;28,29,30;,
    4;31,32,33,34;,
    4;35,36,37,38;,
    3;39,40,41;,
    3;42,43,44;,
    4;45,46,47,48;,
    4;49,50,51,52;,
    3;53,54,55;,
    3;56,57,58;,
    4;59,60,61,62;,
    4;63,64,65,66;,
    3;67,68,69;,
    3;70,71,72;,
    4;73,74,75,76;,
    4;77,78,79,80;,
    3;81,82,83;,
    3;84,85,86;,
    4;87,88,89,90;,
    4;91,92,93,94;,
    3;95,96,97;,
    3;98,99,100;,
    4;101,102,103,104;,
    4;105,106,107,108;,
    3;109,110,111;;
   }

   MeshTextureCoords {
    112;
    -0.375000;0.000000;,
    -0.250000;0.000000;,
    0.000000;0.000000;,
    -0.250000;0.000000;,
    -0.375000;0.000000;,
    -0.375000;0.000000;,
    -0.250000;0.000000;,
    -0.250000;0.000000;,
    -0.375000;0.000000;,
    -0.375000;-0.500000;,
    -0.250000;-0.500000;,
    -0.250000;-0.500000;,
    -0.375000;-0.500000;,
    0.000000;-1.000000;,
    -0.500000;0.000000;,
    -0.375000;0.000000;,
    0.000000;0.000000;,
    -0.375000;0.000000;,
    -0.500000;0.000000;,
    -0.500000;0.000000;,
    -0.375000;0.000000;,
    -0.375000;0.000000;,
    -0.500000;0.000000;,
    -0.500000;-0.500000;,
    -0.375000;-0.500000;,
    -0.375000;-0.500000;,
    -0.500000;-0.500000;,
    0.000000;-1.000000;,
    -0.625000;0.000000;,
    -0.500000;0.000000;,
    -1.000000;0.000000;,
    -0.500000;0.000000;,
    -0.625000;0.000000;,
    -0.625000;0.000000;,
    -0.500000;0.000000;,
    -0.500000;0.000000;,
    -0.625000;0.000000;,
    -0.625000;-0.500000;,
    -0.500000;-0.500000;,
    -0.500000;-0.500000;,
    -0.625000;-0.500000;,
    -1.000000;-1.000000;,
    -0.750000;0.000000;,
    -0.625000;0.000000;,
    -1.000000;0.000000;,
    -0.625000;0.000000;,
    -0.750000;0.000000;,
    -0.750000;0.000000;,
    -0.625000;0.000000;,
    -0.625000;0.000000;,
    -0.750000;0.000000;,
    -0.750000;-0.500000;,
    -0.625000;-0.500000;,
    -0.625000;-0.500000;,
    -0.750000;-0.500000;,
    -1.000000;-1.000000;,
    -0.875000;0.000000;,
    -0.750000;0.000000;,
    -1.000000;0.000000;,
    -0.750000;0.000000;,
    -0.875000;0.000000;,
    -0.875000;0.000000;,
    -0.750000;0.000000;,
    -0.750000;0.000000;,
    -0.875000;0.000000;,
    -0.875000;-0.500000;,
    -0.750000;-0.500000;,
    -0.750000;-0.500000;,
    -0.875000;-0.500000;,
    -1.000000;-1.000000;,
    -1.000000;0.000000;,
    -0.875000;0.000000;,
    -1.000000;0.000000;,
    -0.875000;0.000000;,
    -1.000000;0.000000;,
    -1.000000;0.000000;,
    -0.875000;0.000000;,
    -0.875000;0.000000;,
    -1.000000;0.000000;,
    -1.000000;-0.500000;,
    -0.875000;-0.500000;,
    -0.875000;-0.500000;,
    -1.000000;-0.500000;,
    -1.000000;-1.000000;,
    -0.125000;0.000000;,
    0.000000;0.000000;,
    0.000000;0.000000;,
    0.000000;0.000000;,
    -0.125000;0.000000;,
    -0.125000;0.000000;,
    0.000000;0.000000;,
    0.000000;0.000000;,
    -0.125000;0.000000;,
    -0.125000;-0.500000;,
    0.000000;-0.500000;,
    0.000000;-0.500000;,
    -0.125000;-0.500000;,
    0.000000;-1.000000;,
    -0.250000;0.000000;,
    -0.125000;0.000000;,
    0.000000;0.000000;,
    -0.125000;0.000000;,
    -0.250000;0.000000;,
    -0.250000;0.000000;,
    -0.125000;0.000000;,
    -0.125000;0.000000;,
    -0.250000;0.000000;,
    -0.250000;-0.500000;,
    -0.125000;-0.500000;,
    -0.125000;-0.500000;,
    -0.250000;-0.500000;,
    0.000000;-1.000000;;
   }

   MeshMaterialList {
    1;
    32;
    0,
    0,
    0,
    0,
    0,
    0,
    0,
    0,
    0,
    0,
    0,
    0,
    0,
    0,
    0,
    0,
    0,
    0,
    0,
    0,
    0,
    0,
    0,
    0,
    0,
    0,
    0,
    0,
    0,
    0,
    0,
    0;

    Material DefaultLib_Material {
     1.000000;1.000000;1.000000;1.000000;;
     50.000000;
     1.000000;1.000000;1.000000;;
     0.000000;0.000000;0.000000;;

     TextureFilename {
      "editor_grid.tga";
     }
    }
   }
  }
 }
}