xof 0303txt 0032
template Frame {
 <3d82ab46-62da-11cf-ab39-0020af71e433>
 [...]
}

template Matrix4x4 {
 <f6f23f45-7686-11cf-8f52-0040333594a3>
 array FLOAT matrix[16];
}

template FrameTransformMatrix {
 <f6f23f41-7686-11cf-8f52-0040333594a3>
 Matrix4x4 frameMatrix;
}

template Vector {
 <3d82ab5e-62da-11cf-ab39-0020af71e433>
 FLOAT x;
 FLOAT y;
 FLOAT z;
}

template MeshFace {
 <3d82ab5f-62da-11cf-ab39-0020af71e433>
 DWORD nFaceVertexIndices;
 array DWORD faceVertexIndices[nFaceVertexIndices];
}

template Mesh {
 <3d82ab44-62da-11cf-ab39-0020af71e433>
 DWORD nVertices;
 array Vector vertices[nVertices];
 DWORD nFaces;
 array MeshFace faces[nFaces];
 [...]
}

template MeshNormals {
 <f6f23f43-7686-11cf-8f52-0040333594a3>
 DWORD nNormals;
 array Vector normals[nNormals];
 DWORD nFaceNormals;
 array MeshFace faceNormals[nFaceNormals];
}

template Coords2d {
 <f6f23f44-7686-11cf-8f52-0040333594a3>
 FLOAT u;
 FLOAT v;
}

template MeshTextureCoords {
 <f6f23f40-7686-11cf-8f52-0040333594a3>
 DWORD nTextureCoords;
 array Coords2d textureCoords[nTextureCoords];
}

template ColorRGBA {
 <35ff44e0-6c7c-11cf-8f52-0040333594a3>
 FLOAT red;
 FLOAT green;
 FLOAT blue;
 FLOAT alpha;
}

template ColorRGB {
 <d3e16e81-7835-11cf-8f52-0040333594a3>
 FLOAT red;
 FLOAT green;
 FLOAT blue;
}

template Material {
 <3d82ab4d-62da-11cf-ab39-0020af71e433>
 ColorRGBA faceColor;
 FLOAT power;
 ColorRGB specularColor;
 ColorRGB emissiveColor;
 [...]
}

template MeshMaterialList {
 <f6f23f42-7686-11cf-8f52-0040333594a3>
 DWORD nMaterials;
 DWORD nFaceIndexes;
 array DWORD faceIndexes[nFaceIndexes];
 [Material <3d82ab4d-62da-11cf-ab39-0020af71e433>]
}

template TextureFilename {
 <a42790e1-7810-11cf-8f52-0040333594a3>
 STRING filename;
}


Frame Scene_Root {
 

 Frame grid {
  

  FrameTransformMatrix {
   1.000000,0.000000,0.000000,0.000000,0.000000,1.000000,0.000000,0.000000,0.000000,0.000000,1.000000,0.000000,0.000000,0.000000,0.000000,1.000000;;
  }

  Mesh grid_obj {
   256;
   -8.000000;0.000000;-8.000000;,
   -8.000000;0.000000;-6.000000;,
   -6.000000;0.000000;-6.000000;,
   -6.000000;0.000000;-8.000000;,
   -8.000000;0.000000;-6.000000;,
   -8.000000;0.000000;-4.000000;,
   -6.000000;0.000000;-4.000000;,
   -6.000000;0.000000;-6.000000;,
   -8.000000;0.000000;-4.000000;,
   -8.000000;0.000000;-2.000000;,
   -6.000000;0.000000;-2.000000;,
   -6.000000;0.000000;-4.000000;,
   -8.000000;0.000000;-2.000000;,
   -8.000000;0.000000;0.000000;,
   -6.000000;0.000000;0.000000;,
   -6.000000;0.000000;-2.000000;,
   -8.000000;0.000000;0.000000;,
   -8.000000;0.000000;2.000000;,
   -6.000000;0.000000;2.000000;,
   -6.000000;0.000000;0.000000;,
   -8.000000;0.000000;2.000000;,
   -8.000000;0.000000;4.000000;,
   -6.000000;0.000000;4.000000;,
   -6.000000;0.000000;2.000000;,
   -8.000000;0.000000;4.000000;,
   -8.000000;0.000000;6.000000;,
   -6.000000;0.000000;6.000000;,
   -6.000000;0.000000;4.000000;,
   -8.000000;0.000000;6.000000;,
   -8.000000;0.000000;8.000000;,
   -6.000000;0.000000;8.000000;,
   -6.000000;0.000000;6.000000;,
   -6.000000;0.000000;-8.000000;,
   -6.000000;0.000000;-6.000000;,
   -4.000000;0.000000;-6.000000;,
   -4.000000;0.000000;-8.000000;,
   -6.000000;0.000000;-6.000000;,
   -6.000000;0.000000;-4.000000;,
   -4.000000;0.000000;-4.000000;,
   -4.000000;0.000000;-6.000000;,
   -6.000000;0.000000;-4.000000;,
   -6.000000;0.000000;-2.000000;,
   -4.000000;0.000000;-2.000000;,
   -4.000000;0.000000;-4.000000;,
   -6.000000;0.000000;-2.000000;,
   -6.000000;0.000000;0.000000;,
   -4.000000;0.000000;0.000000;,
   -4.000000;0.000000;-2.000000;,
   -6.000000;0.000000;0.000000;,
   -6.000000;0.000000;2.000000;,
   -4.000000;0.000000;2.000000;,
   -4.000000;0.000000;0.000000;,
   -6.000000;0.000000;2.000000;,
   -6.000000;0.000000;4.000000;,
   -4.000000;0.000000;4.000000;,
   -4.000000;0.000000;2.000000;,
   -6.000000;0.000000;4.000000;,
   -6.000000;0.000000;6.000000;,
   -4.000000;0.000000;6.000000;,
   -4.000000;0.000000;4.000000;,
   -6.000000;0.000000;6.000000;,
   -6.000000;0.000000;8.000000;,
   -4.000000;0.000000;8.000000;,
   -4.000000;0.000000;6.000000;,
   -4.000000;0.000000;-8.000000;,
   -4.000000;0.000000;-6.000000;,
   -2.000000;0.000000;-6.000000;,
   -2.000000;0.000000;-8.000000;,
   -4.000000;0.000000;-6.000000;,
   -4.000000;0.000000;-4.000000;,
   -2.000000;0.000000;-4.000000;,
   -2.000000;0.000000;-6.000000;,
   -4.000000;0.000000;-4.000000;,
   -4.000000;0.000000;-2.000000;,
   -2.000000;0.000000;-2.000000;,
   -2.000000;0.000000;-4.000000;,
   -4.000000;0.000000;-2.000000;,
   -4.000000;0.000000;0.000000;,
   -2.000000;0.000000;0.000000;,
   -2.000000;0.000000;-2.000000;,
   -4.000000;0.000000;0.000000;,
   -4.000000;0.000000;2.000000;,
   -2.000000;0.000000;2.000000;,
   -2.000000;0.000000;0.000000;,
   -4.000000;0.000000;2.000000;,
   -4.000000;0.000000;4.000000;,
   -2.000000;0.000000;4.000000;,
   -2.000000;0.000000;2.000000;,
   -4.000000;0.000000;4.000000;,
   -4.000000;0.000000;6.000000;,
   -2.000000;0.000000;6.000000;,
   -2.000000;0.000000;4.000000;,
   -4.000000;0.000000;6.000000;,
   -4.000000;0.000000;8.000000;,
   -2.000000;0.000000;8.000000;,
   -2.000000;0.000000;6.000000;,
   -2.000000;0.000000;-8.000000;,
   -2.000000;0.000000;-6.000000;,
   0.000000;0.000000;-6.000000;,
   0.000000;0.000000;-8.000000;,
   -2.000000;0.000000;-6.000000;,
   -2.000000;0.000000;-4.000000;,
   0.000000;0.000000;-4.000000;,
   0.000000;0.000000;-6.000000;,
   -2.000000;0.000000;-4.000000;,
   -2.000000;0.000000;-2.000000;,
   0.000000;0.000000;-2.000000;,
   0.000000;0.000000;-4.000000;,
   -2.000000;0.000000;-2.000000;,
   -2.000000;0.000000;0.000000;,
   0.000000;0.000000;0.000000;,
   0.000000;0.000000;-2.000000;,
   -2.000000;0.000000;0.000000;,
   -2.000000;0.000000;2.000000;,
   0.000000;0.000000;2.000000;,
   0.000000;0.000000;0.000000;,
   -2.000000;0.000000;2.000000;,
   -2.000000;0.000000;4.000000;,
   0.000000;0.000000;4.000000;,
   0.000000;0.000000;2.000000;,
   -2.000000;0.000000;4.000000;,
   -2.000000;0.000000;6.000000;,
   0.000000;0.000000;6.000000;,
   0.000000;0.000000;4.000000;,
   -2.000000;0.000000;6.000000;,
   -2.000000;0.000000;8.000000;,
   0.000000;0.000000;8.000000;,
   0.000000;0.000000;6.000000;,
   0.000000;0.000000;-8.000000;,
   0.000000;0.000000;-6.000000;,
   2.000000;0.000000;-6.000000;,
   2.000000;0.000000;-8.000000;,
   0.000000;0.000000;-6.000000;,
   0.000000;0.000000;-4.000000;,
   2.000000;0.000000;-4.000000;,
   2.000000;0.000000;-6.000000;,
   0.000000;0.000000;-4.000000;,
   0.000000;0.000000;-2.000000;,
   2.000000;0.000000;-2.000000;,
   2.000000;0.000000;-4.000000;,
   0.000000;0.000000;-2.000000;,
   0.000000;0.000000;0.000000;,
   2.000000;0.000000;0.000000;,
   2.000000;0.000000;-2.000000;,
   0.000000;0.000000;0.000000;,
   0.000000;0.000000;2.000000;,
   2.000000;0.000000;2.000000;,
   2.000000;0.000000;0.000000;,
   0.000000;0.000000;2.000000;,
   0.000000;0.000000;4.000000;,
   2.000000;0.000000;4.000000;,
   2.000000;0.000000;2.000000;,
   0.000000;0.000000;4.000000;,
   0.000000;0.000000;6.000000;,
   2.000000;0.000000;6.000000;,
   2.000000;0.000000;4.000000;,
   0.000000;0.000000;6.000000;,
   0.000000;0.000000;8.000000;,
   2.000000;0.000000;8.000000;,
   2.000000;0.000000;6.000000;,
   2.000000;0.000000;-8.000000;,
   2.000000;0.000000;-6.000000;,
   4.000000;0.000000;-6.000000;,
   4.000000;0.000000;-8.000000;,
   2.000000;0.000000;-6.000000;,
   2.000000;0.000000;-4.000000;,
   4.000000;0.000000;-4.000000;,
   4.000000;0.000000;-6.000000;,
   2.000000;0.000000;-4.000000;,
   2.000000;0.000000;-2.000000;,
   4.000000;0.000000;-2.000000;,
   4.000000;0.000000;-4.000000;,
   2.000000;0.000000;-2.000000;,
   2.000000;0.000000;0.000000;,
   4.000000;0.000000;0.000000;,
   4.000000;0.000000;-2.000000;,
   2.000000;0.000000;0.000000;,
   2.000000;0.000000;2.000000;,
   4.000000;0.000000;2.000000;,
   4.000000;0.000000;0.000000;,
   2.000000;0.000000;2.000000;,
   2.000000;0.000000;4.000000;,
   4.000000;0.000000;4.000000;,
   4.000000;0.000000;2.000000;,
   2.000000;0.000000;4.000000;,
   2.000000;0.000000;6.000000;,
   4.000000;0.000000;6.000000;,
   4.000000;0.000000;4.000000;,
   2.000000;0.000000;6.000000;,
   2.000000;0.000000;8.000000;,
   4.000000;0.000000;8.000000;,
   4.000000;0.000000;6.000000;,
   4.000000;0.000000;-8.000000;,
   4.000000;0.000000;-6.000000;,
   6.000000;0.000000;-6.000000;,
   6.000000;0.000000;-8.000000;,
   4.000000;0.000000;-6.000000;,
   4.000000;0.000000;-4.000000;,
   6.000000;0.000000;-4.000000;,
   6.000000;0.000000;-6.000000;,
   4.000000;0.000000;-4.000000;,
   4.000000;0.000000;-2.000000;,
   6.000000;0.000000;-2.000000;,
   6.000000;0.000000;-4.000000;,
   4.000000;0.000000;-2.000000;,
   4.000000;0.000000;0.000000;,
   6.000000;0.000000;0.000000;,
   6.000000;0.000000;-2.000000;,
   4.000000;0.000000;0.000000;,
   4.000000;0.000000;2.000000;,
   6.000000;0.000000;2.000000;,
   6.000000;0.000000;0.000000;,
   4.000000;0.000000;2.000000;,
   4.000000;0.000000;4.000000;,
   6.000000;0.000000;4.000000;,
   6.000000;0.000000;2.000000;,
   4.000000;0.000000;4.000000;,
   4.000000;0.000000;6.000000;,
   6.000000;0.000000;6.000000;,
   6.000000;0.000000;4.000000;,
   4.000000;0.000000;6.000000;,
   4.000000;0.000000;8.000000;,
   6.000000;0.000000;8.000000;,
   6.000000;0.000000;6.000000;,
   6.000000;0.000000;-8.000000;,
   6.000000;0.000000;-6.000000;,
   8.000000;0.000000;-6.000000;,
   8.000000;0.000000;-8.000000;,
   6.000000;0.000000;-6.000000;,
   6.000000;0.000000;-4.000000;,
   8.000000;0.000000;-4.000000;,
   8.000000;0.000000;-6.000000;,
   6.000000;0.000000;-4.000000;,
   6.000000;0.000000;-2.000000;,
   8.000000;0.000000;-2.000000;,
   8.000000;0.000000;-4.000000;,
   6.000000;0.000000;-2.000000;,
   6.000000;0.000000;0.000000;,
   8.000000;0.000000;0.000000;,
   8.000000;0.000000;-2.000000;,
   6.000000;0.000000;0.000000;,
   6.000000;0.000000;2.000000;,
   8.000000;0.000000;2.000000;,
   8.000000;0.000000;0.000000;,
   6.000000;0.000000;2.000000;,
   6.000000;0.000000;4.000000;,
   8.000000;0.000000;4.000000;,
   8.000000;0.000000;2.000000;,
   6.000000;0.000000;4.000000;,
   6.000000;0.000000;6.000000;,
   8.000000;0.000000;6.000000;,
   8.000000;0.000000;4.000000;,
   6.000000;0.000000;6.000000;,
   6.000000;0.000000;8.000000;,
   8.000000;0.000000;8.000000;,
   8.000000;0.000000;6.000000;;
   64;
   4;0,1,2,3;,
   4;4,5,6,7;,
   4;8,9,10,11;,
   4;12,13,14,15;,
   4;16,17,18,19;,
   4;20,21,22,23;,
   4;24,25,26,27;,
   4;28,29,30,31;,
   4;32,33,34,35;,
   4;36,37,38,39;,
   4;40,41,42,43;,
   4;44,45,46,47;,
   4;48,49,50,51;,
   4;52,53,54,55;,
   4;56,57,58,59;,
   4;60,61,62,63;,
   4;64,65,66,67;,
   4;68,69,70,71;,
   4;72,73,74,75;,
   4;76,77,78,79;,
   4;80,81,82,83;,
   4;84,85,86,87;,
   4;88,89,90,91;,
   4;92,93,94,95;,
   4;96,97,98,99;,
   4;100,101,102,103;,
   4;104,105,106,107;,
   4;108,109,110,111;,
   4;112,113,114,115;,
   4;116,117,118,119;,
   4;120,121,122,123;,
   4;124,125,126,127;,
   4;128,129,130,131;,
   4;132,133,134,135;,
   4;136,137,138,139;,
   4;140,141,142,143;,
   4;144,145,146,147;,
   4;148,149,150,151;,
   4;152,153,154,155;,
   4;156,157,158,159;,
   4;160,161,162,163;,
   4;164,165,166,167;,
   4;168,169,170,171;,
   4;172,173,174,175;,
   4;176,177,178,179;,
   4;180,181,182,183;,
   4;184,185,186,187;,
   4;188,189,190,191;,
   4;192,193,194,195;,
   4;196,197,198,199;,
   4;200,201,202,203;,
   4;204,205,206,207;,
   4;208,209,210,211;,
   4;212,213,214,215;,
   4;216,217,218,219;,
   4;220,221,222,223;,
   4;224,225,226,227;,
   4;228,229,230,231;,
   4;232,233,234,235;,
   4;236,237,238,239;,
   4;240,241,242,243;,
   4;244,245,246,247;,
   4;248,249,250,251;,
   4;252,253,254,255;;

   MeshNormals {
    256;
    0.000000;1.000000;0.000000;,
    0.000000;1.000000;0.000000;,
    0.000000;1.000000;0.000000;,
    0.000000;1.000000;0.000000;,
    0.000000;1.000000;0.000000;,
    0.000000;1.000000;0.000000;,
    0.000000;1.000000;0.000000;,
    0.000000;1.000000;0.000000;,
    0.000000;1.000000;0.000000;,
    0.000000;1.000000;0.000000;,
    0.000000;1.000000;0.000000;,
    0.000000;1.000000;0.000000;,
    0.000000;1.000000;0.000000;,
    0.000000;1.000000;0.000000;,
    0.000000;1.000000;0.000000;,
    0.000000;1.000000;0.000000;,
    0.000000;1.000000;0.000000;,
    0.000000;1.000000;0.000000;,
    0.000000;1.000000;0.000000;,
    0.000000;1.000000;0.000000;,
    0.000000;1.000000;0.000000;,
    0.000000;1.000000;0.000000;,
    0.000000;1.000000;0.000000;,
    0.000000;1.000000;0.000000;,
    0.000000;1.000000;0.000000;,
    0.000000;1.000000;0.000000;,
    0.000000;1.000000;0.000000;,
    0.000000;1.000000;0.000000;,
    0.000000;1.000000;0.000000;,
    0.000000;1.000000;0.000000;,
    0.000000;1.000000;0.000000;,
    0.000000;1.000000;0.000000;,
    0.000000;1.000000;0.000000;,
    0.000000;1.000000;0.000000;,
    0.000000;1.000000;0.000000;,
    0.000000;1.000000;0.000000;,
    0.000000;1.000000;0.000000;,
    0.000000;1.000000;0.000000;,
    0.000000;1.000000;0.000000;,
    0.000000;1.000000;0.000000;,
    0.000000;1.000000;0.000000;,
    0.000000;1.000000;0.000000;,
    0.000000;1.000000;0.000000;,
    0.000000;1.000000;0.000000;,
    0.000000;1.000000;0.000000;,
    0.000000;1.000000;0.000000;,
    0.000000;1.000000;0.000000;,
    0.000000;1.000000;0.000000;,
    0.000000;1.000000;0.000000;,
    0.000000;1.000000;0.000000;,
    0.000000;1.000000;0.000000;,
    0.000000;1.000000;0.000000;,
    0.000000;1.000000;0.000000;,
    0.000000;1.000000;0.000000;,
    0.000000;1.000000;0.000000;,
    0.000000;1.000000;0.000000;,
    0.000000;1.000000;0.000000;,
    0.000000;1.000000;0.000000;,
    0.000000;1.000000;0.000000;,
    0.000000;1.000000;0.000000;,
    0.000000;1.000000;0.000000;,
    0.000000;1.000000;0.000000;,
    0.000000;1.000000;0.000000;,
    0.000000;1.000000;0.000000;,
    0.000000;1.000000;0.000000;,
    0.000000;1.000000;0.000000;,
    0.000000;1.000000;0.000000;,
    0.000000;1.000000;0.000000;,
    0.000000;1.000000;0.000000;,
    0.000000;1.000000;0.000000;,
    0.000000;1.000000;0.000000;,
    0.000000;1.000000;0.000000;,
    0.000000;1.000000;0.000000;,
    0.000000;1.000000;0.000000;,
    0.000000;1.000000;0.000000;,
    0.000000;1.000000;0.000000;,
    0.000000;1.000000;0.000000;,
    0.000000;1.000000;0.000000;,
    0.000000;1.000000;0.000000;,
    0.000000;1.000000;0.000000;,
    0.000000;1.000000;0.000000;,
    0.000000;1.000000;0.000000;,
    0.000000;1.000000;0.000000;,
    0.000000;1.000000;0.000000;,
    0.000000;1.000000;0.000000;,
    0.000000;1.000000;0.000000;,
    0.000000;1.000000;0.000000;,
    0.000000;1.000000;0.000000;,
    0.000000;1.000000;0.000000;,
    0.000000;1.000000;0.000000;,
    0.000000;1.000000;0.000000;,
    0.000000;1.000000;0.000000;,
    0.000000;1.000000;0.000000;,
    0.000000;1.000000;0.000000;,
    0.000000;1.000000;0.000000;,
    0.000000;1.000000;0.000000;,
    0.000000;1.000000;0.000000;,
    0.000000;1.000000;0.000000;,
    0.000000;1.000000;0.000000;,
    0.000000;1.000000;0.000000;,
    0.000000;1.000000;0.000000;,
    0.000000;1.000000;0.000000;,
    0.000000;1.000000;0.000000;,
    0.000000;1.000000;0.000000;,
    0.000000;1.000000;0.000000;,
    0.000000;1.000000;0.000000;,
    0.000000;1.000000;0.000000;,
    0.000000;1.000000;0.000000;,
    0.000000;1.000000;0.000000;,
    0.000000;1.000000;0.000000;,
    0.000000;1.000000;0.000000;,
    0.000000;1.000000;0.000000;,
    0.000000;1.000000;0.000000;,
    0.000000;1.000000;0.000000;,
    0.000000;1.000000;0.000000;,
    0.000000;1.000000;0.000000;,
    0.000000;1.000000;0.000000;,
    0.000000;1.000000;0.000000;,
    0.000000;1.000000;0.000000;,
    0.000000;1.000000;0.000000;,
    0.000000;1.000000;0.000000;,
    0.000000;1.000000;0.000000;,
    0.000000;1.000000;0.000000;,
    0.000000;1.000000;0.000000;,
    0.000000;1.000000;0.000000;,
    0.000000;1.000000;0.000000;,
    0.000000;1.000000;0.000000;,
    0.000000;1.000000;0.000000;,
    0.000000;1.000000;0.000000;,
    0.000000;1.000000;0.000000;,
    0.000000;1.000000;0.000000;,
    0.000000;1.000000;0.000000;,
    0.000000;1.000000;0.000000;,
    0.000000;1.000000;0.000000;,
    0.000000;1.000000;0.000000;,
    0.000000;1.000000;0.000000;,
    0.000000;1.000000;0.000000;,
    0.000000;1.000000;0.000000;,
    0.000000;1.000000;0.000000;,
    0.000000;1.000000;0.000000;,
    0.000000;1.000000;0.000000;,
    0.000000;1.000000;0.000000;,
    0.000000;1.000000;0.000000;,
    0.000000;1.000000;0.000000;,
    0.000000;1.000000;0.000000;,
    0.000000;1.000000;0.000000;,
    0.000000;1.000000;0.000000;,
    0.000000;1.000000;0.000000;,
    0.000000;1.000000;0.000000;,
    0.000000;1.000000;0.000000;,
    0.000000;1.000000;0.000000;,
    0.000000;1.000000;0.000000;,
    0.000000;1.000000;0.000000;,
    0.000000;1.000000;0.000000;,
    0.000000;1.000000;0.000000;,
    0.000000;1.000000;0.000000;,
    0.000000;1.000000;0.000000;,
    0.000000;1.000000;0.000000;,
    0.000000;1.000000;0.000000;,
    0.000000;1.000000;0.000000;,
    0.000000;1.000000;0.000000;,
    0.000000;1.000000;0.000000;,
    0.000000;1.000000;0.000000;,
    0.000000;1.000000;0.000000;,
    0.000000;1.000000;0.000000;,
    0.000000;1.000000;0.000000;,
    0.000000;1.000000;0.000000;,
    0.000000;1.000000;0.000000;,
    0.000000;1.000000;0.000000;,
    0.000000;1.000000;0.000000;,
    0.000000;1.000000;0.000000;,
    0.000000;1.000000;0.000000;,
    0.000000;1.000000;0.000000;,
    0.000000;1.000000;0.000000;,
    0.000000;1.000000;0.000000;,
    0.000000;1.000000;0.000000;,
    0.000000;1.000000;0.000000;,
    0.000000;1.000000;0.000000;,
    0.000000;1.000000;0.000000;,
    0.000000;1.000000;0.000000;,
    0.000000;1.000000;0.000000;,
    0.000000;1.000000;0.000000;,
    0.000000;1.000000;0.000000;,
    0.000000;1.000000;0.000000;,
    0.000000;1.000000;0.000000;,
    0.000000;1.000000;0.000000;,
    0.000000;1.000000;0.000000;,
    0.000000;1.000000;0.000000;,
    0.000000;1.000000;0.000000;,
    0.000000;1.000000;0.000000;,
    0.000000;1.000000;0.000000;,
    0.000000;1.000000;0.000000;,
    0.000000;1.000000;0.000000;,
    0.000000;1.000000;0.000000;,
    0.000000;1.000000;0.000000;,
    0.000000;1.000000;0.000000;,
    0.000000;1.000000;0.000000;,
    0.000000;1.000000;0.000000;,
    0.000000;1.000000;0.000000;,
    0.000000;1.000000;0.000000;,
    0.000000;1.000000;0.000000;,
    0.000000;1.000000;0.000000;,
    0.000000;1.000000;0.000000;,
    0.000000;1.000000;0.000000;,
    0.000000;1.000000;0.000000;,
    0.000000;1.000000;0.000000;,
    0.000000;1.000000;0.000000;,
    0.000000;1.000000;0.000000;,
    0.000000;1.000000;0.000000;,
    0.000000;1.000000;0.000000;,
    0.000000;1.000000;0.000000;,
    0.000000;1.000000;0.000000;,
    0.000000;1.000000;0.000000;,
    0.000000;1.000000;0.000000;,
    0.000000;1.000000;0.000000;,
    0.000000;1.000000;0.000000;,
    0.000000;1.000000;0.000000;,
    0.000000;1.000000;0.000000;,
    0.000000;1.000000;0.000000;,
    0.000000;1.000000;0.000000;,
    0.000000;1.000000;0.000000;,
    0.000000;1.000000;0.000000;,
    0.000000;1.000000;0.000000;,
    0.000000;1.000000;0.000000;,
    0.000000;1.000000;0.000000;,
    0.000000;1.000000;0.000000;,
    0.000000;1.000000;0.000000;,
    0.000000;1.000000;0.000000;,
    0.000000;1.000000;0.000000;,
    0.000000;1.000000;0.000000;,
    0.000000;1.000000;0.000000;,
    0.000000;1.000000;0.000000;,
    0.000000;1.000000;0.000000;,
    0.000000;1.000000;0.000000;,
    0.000000;1.000000;0.000000;,
    0.000000;1.000000;0.000000;,
    0.000000;1.000000;0.000000;,
    0.000000;1.000000;0.000000;,
    0.000000;1.000000;0.000000;,
    0.000000;1.000000;0.000000;,
    0.000000;1.000000;0.000000;,
    0.000000;1.000000;0.000000;,
    0.000000;1.000000;0.000000;,
    0.000000;1.000000;0.000000;,
    0.000000;1.000000;0.000000;,
    0.000000;1.000000;0.000000;,
    0.000000;1.000000;0.000000;,
    0.000000;1.000000;0.000000;,
    0.000000;1.000000;0.000000;,
    0.000000;1.000000;0.000000;,
    0.000000;1.000000;0.000000;,
    0.000000;1.000000;0.000000;,
    0.000000;1.000000;0.000000;,
    0.000000;1.000000;0.000000;,
    0.000000;1.000000;0.000000;,
    0.000000;1.000000;0.000000;;
    64;
    4;0,1,2,3;,
    4;4,5,6,7;,
    4;8,9,10,11;,
    4;12,13,14,15;,
    4;16,17,18,19;,
    4;20,21,22,23;,
    4;24,25,26,27;,
    4;28,29,30,31;,
    4;32,33,34,35;,
    4;36,37,38,39;,
    4;40,41,42,43;,
    4;44,45,46,47;,
    4;48,49,50,51;,
    4;52,53,54,55;,
    4;56,57,58,59;,
    4;60,61,62,63;,
    4;64,65,66,67;,
    4;68,69,70,71;,
    4;72,73,74,75;,
    4;76,77,78,79;,
    4;80,81,82,83;,
    4;84,85,86,87;,
    4;88,89,90,91;,
    4;92,93,94,95;,
    4;96,97,98,99;,
    4;100,101,102,103;,
    4;104,105,106,107;,
    4;108,109,110,111;,
    4;112,113,114,115;,
    4;116,117,118,119;,
    4;120,121,122,123;,
    4;124,125,126,127;,
    4;128,129,130,131;,
    4;132,133,134,135;,
    4;136,137,138,139;,
    4;140,141,142,143;,
    4;144,145,146,147;,
    4;148,149,150,151;,
    4;152,153,154,155;,
    4;156,157,158,159;,
    4;160,161,162,163;,
    4;164,165,166,167;,
    4;168,169,170,171;,
    4;172,173,174,175;,
    4;176,177,178,179;,
    4;180,181,182,183;,
    4;184,185,186,187;,
    4;188,189,190,191;,
    4;192,193,194,195;,
    4;196,197,198,199;,
    4;200,201,202,203;,
    4;204,205,206,207;,
    4;208,209,210,211;,
    4;212,213,214,215;,
    4;216,217,218,219;,
    4;220,221,222,223;,
    4;224,225,226,227;,
    4;228,229,230,231;,
    4;232,233,234,235;,
    4;236,237,238,239;,
    4;240,241,242,243;,
    4;244,245,246,247;,
    4;248,249,250,251;,
    4;252,253,254,255;;
   }

   MeshTextureCoords {
    256;
    0.000000;-1.000000;,
    0.000000;-0.875000;,
    -0.125000;-0.875000;,
    -0.125000;-1.000000;,
    0.000000;-0.875000;,
    0.000000;-0.750000;,
    -0.125000;-0.750000;,
    -0.125000;-0.875000;,
    0.000000;-0.750000;,
    0.000000;-0.625000;,
    -0.125000;-0.625000;,
    -0.125000;-0.750000;,
    0.000000;-0.625000;,
    0.000000;-0.500000;,
    -0.125000;-0.500000;,
    -0.125000;-0.625000;,
    0.000000;-0.500000;,
    0.000000;-0.375000;,
    -0.125000;-0.375000;,
    -0.125000;-0.500000;,
    0.000000;-0.375000;,
    0.000000;-0.250000;,
    -0.125000;-0.250000;,
    -0.125000;-0.375000;,
    0.000000;-0.250000;,
    0.000000;-0.125000;,
    -0.125000;-0.125000;,
    -0.125000;-0.250000;,
    0.000000;-0.125000;,
    0.000000;0.000000;,
    -0.125000;0.000000;,
    -0.125000;-0.125000;,
    -0.125000;-1.000000;,
    -0.125000;-0.875000;,
    -0.250000;-0.875000;,
    -0.250000;-1.000000;,
    -0.125000;-0.875000;,
    -0.125000;-0.750000;,
    -0.250000;-0.750000;,
    -0.250000;-0.875000;,
    -0.125000;-0.750000;,
    -0.125000;-0.625000;,
    -0.250000;-0.625000;,
    -0.250000;-0.750000;,
    -0.125000;-0.625000;,
    -0.125000;-0.500000;,
    -0.250000;-0.500000;,
    -0.250000;-0.625000;,
    -0.125000;-0.500000;,
    -0.125000;-0.375000;,
    -0.250000;-0.375000;,
    -0.250000;-0.500000;,
    -0.125000;-0.375000;,
    -0.125000;-0.250000;,
    -0.250000;-0.250000;,
    -0.250000;-0.375000;,
    -0.125000;-0.250000;,
    -0.125000;-0.125000;,
    -0.250000;-0.125000;,
    -0.250000;-0.250000;,
    -0.125000;-0.125000;,
    -0.125000;0.000000;,
    -0.250000;0.000000;,
    -0.250000;-0.125000;,
    -0.250000;-1.000000;,
    -0.250000;-0.875000;,
    -0.375000;-0.875000;,
    -0.375000;-1.000000;,
    -0.250000;-0.875000;,
    -0.250000;-0.750000;,
    -0.375000;-0.750000;,
    -0.375000;-0.875000;,
    -0.250000;-0.750000;,
    -0.250000;-0.625000;,
    -0.375000;-0.625000;,
    -0.375000;-0.750000;,
    -0.250000;-0.625000;,
    -0.250000;-0.500000;,
    -0.375000;-0.500000;,
    -0.375000;-0.625000;,
    -0.250000;-0.500000;,
    -0.250000;-0.375000;,
    -0.375000;-0.375000;,
    -0.375000;-0.500000;,
    -0.250000;-0.375000;,
    -0.250000;-0.250000;,
    -0.375000;-0.250000;,
    -0.375000;-0.375000;,
    -0.250000;-0.250000;,
    -0.250000;-0.125000;,
    -0.375000;-0.125000;,
    -0.375000;-0.250000;,
    -0.250000;-0.125000;,
    -0.250000;0.000000;,
    -0.375000;0.000000;,
    -0.375000;-0.125000;,
    -0.375000;-1.000000;,
    -0.375000;-0.875000;,
    -0.500000;-0.875000;,
    -0.500000;-1.000000;,
    -0.375000;-0.875000;,
    -0.375000;-0.750000;,
    -0.500000;-0.750000;,
    -0.500000;-0.875000;,
    -0.375000;-0.750000;,
    -0.375000;-0.625000;,
    -0.500000;-0.625000;,
    -0.500000;-0.750000;,
    -0.375000;-0.625000;,
    -0.375000;-0.500000;,
    -0.500000;-0.500000;,
    -0.500000;-0.625000;,
    -0.375000;-0.500000;,
    -0.375000;-0.375000;,
    -0.500000;-0.375000;,
    -0.500000;-0.500000;,
    -0.375000;-0.375000;,
    -0.375000;-0.250000;,
    -0.500000;-0.250000;,
    -0.500000;-0.375000;,
    -0.375000;-0.250000;,
    -0.375000;-0.125000;,
    -0.500000;-0.125000;,
    -0.500000;-0.250000;,
    -0.375000;-0.125000;,
    -0.375000;0.000000;,
    -0.500000;0.000000;,
    -0.500000;-0.125000;,
    -0.500000;-1.000000;,
    -0.500000;-0.875000;,
    -0.625000;-0.875000;,
    -0.625000;-1.000000;,
    -0.500000;-0.875000;,
    -0.500000;-0.750000;,
    -0.625000;-0.750000;,
    -0.625000;-0.875000;,
    -0.500000;-0.750000;,
    -0.500000;-0.625000;,
    -0.625000;-0.625000;,
    -0.625000;-0.750000;,
    -0.500000;-0.625000;,
    -0.500000;-0.500000;,
    -0.625000;-0.500000;,
    -0.625000;-0.625000;,
    -0.500000;-0.500000;,
    -0.500000;-0.375000;,
    -0.625000;-0.375000;,
    -0.625000;-0.500000;,
    -0.500000;-0.375000;,
    -0.500000;-0.250000;,
    -0.625000;-0.250000;,
    -0.625000;-0.375000;,
    -0.500000;-0.250000;,
    -0.500000;-0.125000;,
    -0.625000;-0.125000;,
    -0.625000;-0.250000;,
    -0.500000;-0.125000;,
    -0.500000;0.000000;,
    -0.625000;0.000000;,
    -0.625000;-0.125000;,
    -0.625000;-1.000000;,
    -0.625000;-0.875000;,
    -0.750000;-0.875000;,
    -0.750000;-1.000000;,
    -0.625000;-0.875000;,
    -0.625000;-0.750000;,
    -0.750000;-0.750000;,
    -0.750000;-0.875000;,
    -0.625000;-0.750000;,
    -0.625000;-0.625000;,
    -0.750000;-0.625000;,
    -0.750000;-0.750000;,
    -0.625000;-0.625000;,
    -0.625000;-0.500000;,
    -0.750000;-0.500000;,
    -0.750000;-0.625000;,
    -0.625000;-0.500000;,
    -0.625000;-0.375000;,
    -0.750000;-0.375000;,
    -0.750000;-0.500000;,
    -0.625000;-0.375000;,
    -0.625000;-0.250000;,
    -0.750000;-0.250000;,
    -0.750000;-0.375000;,
    -0.625000;-0.250000;,
    -0.625000;-0.125000;,
    -0.750000;-0.125000;,
    -0.750000;-0.250000;,
    -0.625000;-0.125000;,
    -0.625000;0.000000;,
    -0.750000;0.000000;,
    -0.750000;-0.125000;,
    -0.750000;-1.000000;,
    -0.750000;-0.875000;,
    -0.875000;-0.875000;,
    -0.875000;-1.000000;,
    -0.750000;-0.875000;,
    -0.750000;-0.750000;,
    -0.875000;-0.750000;,
    -0.875000;-0.875000;,
    -0.750000;-0.750000;,
    -0.750000;-0.625000;,
    -0.875000;-0.625000;,
    -0.875000;-0.750000;,
    -0.750000;-0.625000;,
    -0.750000;-0.500000;,
    -0.875000;-0.500000;,
    -0.875000;-0.625000;,
    -0.750000;-0.500000;,
    -0.750000;-0.375000;,
    -0.875000;-0.375000;,
    -0.875000;-0.500000;,
    -0.750000;-0.375000;,
    -0.750000;-0.250000;,
    -0.875000;-0.250000;,
    -0.875000;-0.375000;,
    -0.750000;-0.250000;,
    -0.750000;-0.125000;,
    -0.875000;-0.125000;,
    -0.875000;-0.250000;,
    -0.750000;-0.125000;,
    -0.750000;0.000000;,
    -0.875000;0.000000;,
    -0.875000;-0.125000;,
    -0.875000;-1.000000;,
    -0.875000;-0.875000;,
    -1.000000;-0.875000;,
    -1.000000;-1.000000;,
    -0.875000;-0.875000;,
    -0.875000;-0.750000;,
    -1.000000;-0.750000;,
    -1.000000;-0.875000;,
    -0.875000;-0.750000;,
    -0.875000;-0.625000;,
    -1.000000;-0.625000;,
    -1.000000;-0.750000;,
    -0.875000;-0.625000;,
    -0.875000;-0.500000;,
    -1.000000;-0.500000;,
    -1.000000;-0.625000;,
    -0.875000;-0.500000;,
    -0.875000;-0.375000;,
    -1.000000;-0.375000;,
    -1.000000;-0.500000;,
    -0.875000;-0.375000;,
    -0.875000;-0.250000;,
    -1.000000;-0.250000;,
    -1.000000;-0.375000;,
    -0.875000;-0.250000;,
    -0.875000;-0.125000;,
    -1.000000;-0.125000;,
    -1.000000;-0.250000;,
    -0.875000;-0.125000;,
    -0.875000;0.000000;,
    -1.000000;0.000000;,
    -1.000000;-0.125000;;
   }

   MeshMaterialList {
    1;
    64;
    0,
    0,
    0,
    0,
    0,
    0,
    0,
    0,
    0,
    0,
    0,
    0,
    0,
    0,
    0,
    0,
    0,
    0,
    0,
    0,
    0,
    0,
    0,
    0,
    0,
    0,
    0,
    0,
    0,
    0,
    0,
    0,
    0,
    0,
    0,
    0,
    0,
    0,
    0,
    0,
    0,
    0,
    0,
    0,
    0,
    0,
    0,
    0,
    0,
    0,
    0,
    0,
    0,
    0,
    0,
    0,
    0,
    0,
    0,
    0,
    0,
    0,
    0,
    0;

    Material DefaultLib_Material {
     1.000000;1.000000;1.000000;1.000000;;
     50.000000;
     1.000000;1.000000;1.000000;;
     0.000000;0.000000;0.000000;;

    }
   }
  }
 }
}