xof 0303txt 0032
template Frame {
 <3d82ab46-62da-11cf-ab39-0020af71e433>
 [...]
}

template Matrix4x4 {
 <f6f23f45-7686-11cf-8f52-0040333594a3>
 array FLOAT matrix[16];
}

template FrameTransformMatrix {
 <f6f23f41-7686-11cf-8f52-0040333594a3>
 Matrix4x4 frameMatrix;
}

template Vector {
 <3d82ab5e-62da-11cf-ab39-0020af71e433>
 FLOAT x;
 FLOAT y;
 FLOAT z;
}

template MeshFace {
 <3d82ab5f-62da-11cf-ab39-0020af71e433>
 DWORD nFaceVertexIndices;
 array DWORD faceVertexIndices[nFaceVertexIndices];
}

template Mesh {
 <3d82ab44-62da-11cf-ab39-0020af71e433>
 DWORD nVertices;
 array Vector vertices[nVertices];
 DWORD nFaces;
 array MeshFace faces[nFaces];
 [...]
}

template MeshNormals {
 <f6f23f43-7686-11cf-8f52-0040333594a3>
 DWORD nNormals;
 array Vector normals[nNormals];
 DWORD nFaceNormals;
 array MeshFace faceNormals[nFaceNormals];
}

template Coords2d {
 <f6f23f44-7686-11cf-8f52-0040333594a3>
 FLOAT u;
 FLOAT v;
}

template MeshTextureCoords {
 <f6f23f40-7686-11cf-8f52-0040333594a3>
 DWORD nTextureCoords;
 array Coords2d textureCoords[nTextureCoords];
}

template ColorRGBA {
 <35ff44e0-6c7c-11cf-8f52-0040333594a3>
 FLOAT red;
 FLOAT green;
 FLOAT blue;
 FLOAT alpha;
}

template ColorRGB {
 <d3e16e81-7835-11cf-8f52-0040333594a3>
 FLOAT red;
 FLOAT green;
 FLOAT blue;
}

template Material {
 <3d82ab4d-62da-11cf-ab39-0020af71e433>
 ColorRGBA faceColor;
 FLOAT power;
 ColorRGB specularColor;
 ColorRGB emissiveColor;
 [...]
}

template MeshMaterialList {
 <f6f23f42-7686-11cf-8f52-0040333594a3>
 DWORD nMaterials;
 DWORD nFaceIndexes;
 array DWORD faceIndexes[nFaceIndexes];
 [Material <3d82ab4d-62da-11cf-ab39-0020af71e433>]
}


Frame Scene_Root {
 

 Frame pillar {
  

  FrameTransformMatrix {
   1.000000,0.000000,0.000000,0.000000,0.000000,1.000000,0.000000,0.000000,0.000000,0.000000,1.000000,0.000000,0.000000,0.000000,0.000000,1.000000;;
  }

  Mesh pillar_obj {
   36;
   -1.000000;-17.907118;-1.000000;,
   1.000000;17.907118;-1.000000;,
   1.000000;-17.907118;-1.000000;,
   -1.000000;-17.907118;-1.000000;,
   1.000000;-17.907118;1.000000;,
   -1.000000;-17.907118;1.000000;,
   -1.000000;-17.907118;-1.000000;,
   -1.000000;17.907118;1.000000;,
   -1.000000;17.907118;-1.000000;,
   1.000000;-17.907118;-1.000000;,
   1.000000;17.907118;1.000000;,
   1.000000;-17.907118;1.000000;,
   -1.000000;17.907118;-1.000000;,
   1.000000;17.907118;1.000000;,
   1.000000;17.907118;-1.000000;,
   -1.000000;-17.907118;1.000000;,
   1.000000;17.907118;1.000000;,
   -1.000000;17.907118;1.000000;,
   -1.000000;17.907118;-1.000000;,
   1.000000;17.907118;-1.000000;,
   -1.000000;-17.907118;-1.000000;,
   1.000000;-17.907118;-1.000000;,
   1.000000;-17.907118;1.000000;,
   -1.000000;-17.907118;-1.000000;,
   -1.000000;-17.907118;1.000000;,
   -1.000000;17.907118;1.000000;,
   -1.000000;-17.907118;-1.000000;,
   1.000000;17.907118;-1.000000;,
   1.000000;17.907118;1.000000;,
   1.000000;-17.907118;-1.000000;,
   -1.000000;17.907118;1.000000;,
   1.000000;17.907118;1.000000;,
   -1.000000;17.907118;-1.000000;,
   1.000000;-17.907118;1.000000;,
   1.000000;17.907118;1.000000;,
   -1.000000;-17.907118;1.000000;;
   12;
   3;0,1,2;,
   3;3,4,5;,
   3;6,7,8;,
   3;9,10,11;,
   3;12,13,14;,
   3;15,16,17;,
   3;18,19,20;,
   3;21,22,23;,
   3;24,25,26;,
   3;27,28,29;,
   3;30,31,32;,
   3;33,34,35;;

   MeshNormals {
    36;
    0.000000;0.000000;-1.000000;,
    0.000000;0.000000;-1.000000;,
    0.000000;0.000000;-1.000000;,
    0.000000;0.000000;-1.000000;,
    0.000000;-1.000000;0.000000;,
    0.000000;-1.000000;0.000000;,
    0.000000;-1.000000;0.000000;,
    0.000000;-1.000000;0.000000;,
    -1.000000;0.000000;0.000000;,
    -1.000000;0.000000;0.000000;,
    -1.000000;0.000000;0.000000;,
    -1.000000;0.000000;0.000000;,
    1.000000;0.000000;0.000000;,
    1.000000;0.000000;0.000000;,
    1.000000;0.000000;0.000000;,
    1.000000;0.000000;0.000000;,
    0.000000;1.000000;0.000000;,
    0.000000;1.000000;0.000000;,
    0.000000;1.000000;0.000000;,
    0.000000;1.000000;0.000000;,
    0.000000;0.000000;1.000000;,
    0.000000;0.000000;1.000000;,
    0.000000;0.000000;1.000000;,
    0.000000;0.000000;1.000000;,
    0.000000;0.000000;-1.000000;,
    0.000000;0.000000;-1.000000;,
    0.000000;-1.000000;0.000000;,
    0.000000;-1.000000;0.000000;,
    -1.000000;0.000000;0.000000;,
    -1.000000;0.000000;0.000000;,
    1.000000;0.000000;0.000000;,
    1.000000;0.000000;0.000000;,
    0.000000;1.000000;0.000000;,
    0.000000;1.000000;0.000000;,
    0.000000;0.000000;1.000000;,
    0.000000;0.000000;1.000000;;
    12;
    3;0,2,3;,
    3;4,6,7;,
    3;8,10,11;,
    3;12,14,15;,
    3;16,18,19;,
    3;20,22,23;,
    3;1,25,24;,
    3;5,27,26;,
    3;9,29,28;,
    3;13,31,30;,
    3;17,33,32;,
    3;21,35,34;;
   }

   MeshTextureCoords {
    36;
    0.000000;0.000000;,
    0.000000;0.000000;,
    0.000000;0.000000;,
    0.000000;0.000000;,
    0.000000;0.000000;,
    0.000000;0.000000;,
    0.000000;0.000000;,
    0.000000;0.000000;,
    0.000000;0.000000;,
    0.000000;0.000000;,
    0.000000;0.000000;,
    0.000000;0.000000;,
    0.000000;0.000000;,
    0.000000;0.000000;,
    0.000000;0.000000;,
    0.000000;0.000000;,
    0.000000;0.000000;,
    0.000000;0.000000;,
    0.000000;0.000000;,
    0.000000;0.000000;,
    0.000000;0.000000;,
    0.000000;0.000000;,
    0.000000;0.000000;,
    0.000000;0.000000;,
    0.000000;0.000000;,
    0.000000;0.000000;,
    0.000000;0.000000;,
    0.000000;0.000000;,
    0.000000;0.000000;,
    0.000000;0.000000;,
    0.000000;0.000000;,
    0.000000;0.000000;,
    0.000000;0.000000;,
    0.000000;0.000000;,
    0.000000;0.000000;,
    0.000000;0.000000;;
   }

   MeshMaterialList {
    1;
    12;
    0,
    0,
    0,
    0,
    0,
    0,
    0,
    0,
    0,
    0,
    0,
    0;

    Material DefaultLib_Material3 {
     0.094000;0.698000;0.243000;1.000000;;
     50.000000;
     1.000000;1.000000;1.000000;;
     0.000000;0.000000;0.000000;;
    }
   }
  }
 }
}