xof 0303txt 0032
template Frame {
 <3d82ab46-62da-11cf-ab39-0020af71e433>
 [...]
}

template Matrix4x4 {
 <f6f23f45-7686-11cf-8f52-0040333594a3>
 array FLOAT matrix[16];
}

template FrameTransformMatrix {
 <f6f23f41-7686-11cf-8f52-0040333594a3>
 Matrix4x4 frameMatrix;
}

template Vector {
 <3d82ab5e-62da-11cf-ab39-0020af71e433>
 FLOAT x;
 FLOAT y;
 FLOAT z;
}

template MeshFace {
 <3d82ab5f-62da-11cf-ab39-0020af71e433>
 DWORD nFaceVertexIndices;
 array DWORD faceVertexIndices[nFaceVertexIndices];
}

template Mesh {
 <3d82ab44-62da-11cf-ab39-0020af71e433>
 DWORD nVertices;
 array Vector vertices[nVertices];
 DWORD nFaces;
 array MeshFace faces[nFaces];
 [...]
}

template MeshNormals {
 <f6f23f43-7686-11cf-8f52-0040333594a3>
 DWORD nNormals;
 array Vector normals[nNormals];
 DWORD nFaceNormals;
 array MeshFace faceNormals[nFaceNormals];
}

template Coords2d {
 <f6f23f44-7686-11cf-8f52-0040333594a3>
 FLOAT u;
 FLOAT v;
}

template MeshTextureCoords {
 <f6f23f40-7686-11cf-8f52-0040333594a3>
 DWORD nTextureCoords;
 array Coords2d textureCoords[nTextureCoords];
}

template ColorRGBA {
 <35ff44e0-6c7c-11cf-8f52-0040333594a3>
 FLOAT red;
 FLOAT green;
 FLOAT blue;
 FLOAT alpha;
}

template ColorRGB {
 <d3e16e81-7835-11cf-8f52-0040333594a3>
 FLOAT red;
 FLOAT green;
 FLOAT blue;
}

template Material {
 <3d82ab4d-62da-11cf-ab39-0020af71e433>
 ColorRGBA faceColor;
 FLOAT power;
 ColorRGB specularColor;
 ColorRGB emissiveColor;
 [...]
}

template MeshMaterialList {
 <f6f23f42-7686-11cf-8f52-0040333594a3>
 DWORD nMaterials;
 DWORD nFaceIndexes;
 array DWORD faceIndexes[nFaceIndexes];
 [Material <3d82ab4d-62da-11cf-ab39-0020af71e433>]
}

template TextureFilename {
 <a42790e1-7810-11cf-8f52-0040333594a3>
 STRING filename;
}


Frame Scene_Root {
 

 Frame polymsh {
  

  FrameTransformMatrix {
   1.000000,0.000000,0.000000,0.000000,0.000000,1.000000,0.000000,0.000000,0.000000,0.000000,1.000000,0.000000,0.000000,0.000000,0.000000,1.000000;;
  }

  Mesh polymsh_obj {
   274;
   4.000000;4.000000;-1.796027;,
   4.000000;2.246928;-1.746815;,
   4.000000;1.000000;-4.000000;,
   4.000000;4.000000;-7.000000;,
   4.000000;-1.463290;-1.142211;,
   4.000000;-4.000000;0.355244;,
   4.000000;-4.000000;-2.164519;,
   4.000000;-3.546979;-2.155061;,
   -4.000000;-4.000000;7.000000;,
   4.000000;-4.000000;7.000000;,
   4.000000;4.000000;7.000000;,
   -4.000000;4.000000;7.000000;,
   -4.000000;-4.000000;-7.000000;,
   4.000000;-4.000000;-7.000000;,
   4.000000;-4.000000;-3.576584;,
   4.000000;-4.000000;-2.164519;,
   4.000000;-4.000000;0.355244;,
   4.000000;-4.000000;7.000000;,
   -4.000000;-4.000000;7.000000;,
   -4.000000;1.000000;4.000000;,
   -4.000000;-1.000000;4.000000;,
   -4.000000;-4.000000;7.000000;,
   -4.000000;4.000000;7.000000;,
   4.000000;0.081174;2.622893;,
   4.000000;-0.427808;2.609745;,
   4.000000;-0.027353;-1.116543;,
   4.000000;1.000000;-0.479031;,
   4.000000;4.000000;7.000000;,
   4.000000;4.000000;-1.796027;,
   4.000000;4.000000;-7.000000;,
   -4.000000;4.000000;-7.000000;,
   -4.000000;4.000000;7.000000;,
   -4.000000;4.000000;-7.000000;,
   4.000000;4.000000;-7.000000;,
   4.000000;1.246839;-7.000000;,
   4.000000;-0.238859;-7.000000;,
   4.000000;-4.000000;-7.000000;,
   -4.000000;-4.000000;-7.000000;,
   4.000000;-1.000000;4.000000;,
   4.000000;0.081174;4.000000;,
   4.000000;4.000000;7.000000;,
   4.000000;-4.000000;7.000000;,
   4.000000;1.000000;-0.479031;,
   4.000000;2.246928;-1.746815;,
   4.000000;4.000000;-1.796027;,
   4.000000;4.000000;7.000000;,
   4.000000;0.081174;4.000000;,
   4.000000;0.081174;2.622893;,
   4.000000;1.000000;-4.000000;,
   4.000000;0.913745;-4.409065;,
   4.000000;1.246839;-7.000000;,
   4.000000;4.000000;-7.000000;,
   4.000000;-1.000000;-4.000000;,
   4.000000;-1.819577;-3.183385;,
   4.000000;-4.000000;-3.576584;,
   4.000000;-4.000000;-7.000000;,
   -4.000000;-1.000000;4.000000;,
   -4.000000;-1.000000;1.822995;,
   -4.000000;-4.000000;-7.000000;,
   -4.000000;-4.000000;7.000000;,
   -4.000000;-1.000000;1.822995;,
   -4.000000;1.000000;1.822995;,
   -4.000000;4.000000;-7.000000;,
   -4.000000;-4.000000;-7.000000;,
   -4.000000;1.000000;1.822995;,
   -4.000000;1.000000;4.000000;,
   -4.000000;4.000000;7.000000;,
   -4.000000;4.000000;-7.000000;,
   4.000000;-3.546979;-2.155061;,
   4.000000;-4.000000;-2.164519;,
   4.000000;-4.000000;-3.576584;,
   4.000000;-1.819577;-3.183385;,
   4.000000;-1.516850;-2.341335;,
   4.000000;-0.238859;-7.000000;,
   4.000000;-0.048355;-4.587380;,
   4.000000;-1.000000;-4.000000;,
   4.000000;-4.000000;-7.000000;,
   4.000000;-0.048355;-4.587380;,
   4.000000;-0.238859;-7.000000;,
   4.000000;1.246839;-7.000000;,
   4.000000;0.913745;-4.409065;,
   4.000000;0.352600;-4.300922;,
   4.000000;-4.000000;0.355244;,
   4.000000;-1.463290;-1.142211;,
   4.000000;-1.000000;-0.479031;,
   4.000000;-1.000000;2.594964;,
   4.000000;-1.000000;4.000000;,
   4.000000;-4.000000;7.000000;,
   4.000000;-0.027353;-1.116543;,
   4.000000;-0.427808;2.609745;,
   4.000000;-1.000000;2.594964;,
   4.000000;-1.000000;-0.479031;,
   -3.780152;3.886631;6.749331;,
   3.776435;3.886631;6.749331;,
   3.776435;-3.767271;6.749331;,
   -3.780152;-3.767271;6.749331;,
   -3.780152;-3.767271;6.749331;,
   3.776435;-3.767271;6.749331;,
   3.776435;-3.767271;-0.334511;,
   3.776435;-3.767271;-2.181562;,
   3.776435;-3.767271;-4.102593;,
   3.776435;-3.767271;-6.778708;,
   -3.780152;-3.767271;-6.778708;,
   -3.780152;3.886631;6.749331;,
   -3.780152;-3.767271;6.749331;,
   -3.780152;-1.000000;4.000000;,
   -3.780152;1.000000;4.000000;,
   3.776435;1.000000;-0.479031;,
   3.776435;-0.028418;-1.116543;,
   3.776435;-0.401388;2.610428;,
   3.776435;0.081174;2.622893;,
   -3.780152;3.886631;6.749331;,
   -3.780152;3.886631;-6.778708;,
   3.776435;3.886631;-6.778708;,
   3.776435;3.886631;-1.648355;,
   3.776435;3.886631;6.749331;,
   -3.780152;-3.767271;-6.778708;,
   3.776435;-3.767271;-6.778708;,
   3.776435;-0.335000;-6.778708;,
   3.776435;0.127807;-6.778708;,
   3.776435;0.840687;-6.778708;,
   3.776435;3.886631;-6.778708;,
   -3.780152;3.886631;-6.778708;,
   3.776435;-3.767271;6.749331;,
   3.776435;3.886631;6.749331;,
   3.776435;0.081174;4.000000;,
   3.776435;-1.000000;4.000000;,
   3.776435;0.081174;2.622893;,
   3.776435;0.081174;4.000000;,
   3.776435;3.886631;6.749331;,
   3.776435;3.886631;-1.648355;,
   3.776435;2.246928;-1.746815;,
   3.776435;1.000000;-0.479031;,
   3.776435;3.886631;-6.778708;,
   3.776435;0.840687;-6.778708;,
   3.776435;0.913745;-4.409065;,
   3.776435;1.000000;-4.000000;,
   3.776435;-3.767271;-6.778708;,
   3.776435;-3.767271;-4.102593;,
   3.776435;-1.819577;-3.183385;,
   3.776435;-1.000000;-4.000000;,
   -3.780152;-3.767271;6.749331;,
   -3.780152;-3.767271;-6.778708;,
   -3.780152;-1.000000;1.822995;,
   -3.780152;-1.000000;4.000000;,
   -3.780152;-3.767271;-6.778708;,
   -3.780152;3.886631;-6.778708;,
   -3.780152;1.000000;1.822995;,
   -3.780152;-1.000000;1.822995;,
   -3.780152;3.886631;-6.778708;,
   -3.780152;3.886631;6.749331;,
   -3.780152;1.000000;4.000000;,
   -3.780152;1.000000;1.822995;,
   3.776435;2.246928;-1.746815;,
   3.776435;3.886631;-1.648355;,
   3.776435;3.886631;-6.778708;,
   3.776435;1.000000;-4.000000;,
   3.776435;0.352600;-4.300922;,
   3.776435;0.127807;-6.778708;,
   3.776435;-0.335000;-6.778708;,
   3.776435;-0.048355;-4.587380;,
   3.776435;-0.048355;-4.587380;,
   3.776435;-0.335000;-6.778708;,
   3.776435;-3.767271;-6.778708;,
   3.776435;-1.000000;-4.000000;,
   3.776435;0.913745;-4.409065;,
   3.776435;0.840687;-6.778708;,
   3.776435;0.127807;-6.778708;,
   3.776435;0.352600;-4.300922;,
   3.776435;-3.546979;-2.155061;,
   3.776435;-3.767271;-2.181562;,
   3.776435;-3.767271;-0.334511;,
   3.776435;-1.463290;-1.142211;,
   3.776435;-1.819577;-3.183385;,
   3.776435;-3.767271;-4.102593;,
   3.776435;-3.767271;-2.181562;,
   3.776435;-3.546979;-2.155061;,
   3.776435;-1.516850;-2.341335;,
   3.776435;-1.463290;-1.142211;,
   3.776435;-3.767271;-0.334511;,
   3.776435;-3.767271;6.749331;,
   3.776435;-1.000000;4.000000;,
   3.776435;-1.000000;2.594964;,
   3.776435;-1.000000;-0.479031;,
   3.776435;-0.401388;2.610428;,
   3.776435;-0.028418;-1.116543;,
   3.776435;-1.000000;-0.479031;,
   3.776435;-1.000000;2.594964;,
   3.776435;-1.000000;-4.000000;,
   3.776435;-1.819577;-3.183385;,
   4.000000;-1.819577;-3.183385;,
   4.000000;-1.000000;-4.000000;,
   3.776435;-1.819577;-3.183385;,
   3.776435;-1.516850;-2.341335;,
   4.000000;-1.516850;-2.341335;,
   4.000000;-1.819577;-3.183385;,
   3.776435;-0.048355;-4.587380;,
   3.776435;-1.000000;-4.000000;,
   4.000000;-1.000000;-4.000000;,
   4.000000;-0.048355;-4.587380;,
   3.776435;-0.048355;-4.587380;,
   4.000000;-0.048355;-4.587380;,
   4.000000;0.352600;-4.300922;,
   3.776435;0.352600;-4.300922;,
   3.776435;0.913745;-4.409065;,
   3.776435;0.352600;-4.300922;,
   4.000000;0.352600;-4.300922;,
   4.000000;0.913745;-4.409065;,
   3.776435;0.913745;-4.409065;,
   4.000000;0.913745;-4.409065;,
   4.000000;1.000000;-4.000000;,
   3.776435;1.000000;-4.000000;,
   3.776435;1.000000;-4.000000;,
   4.000000;1.000000;-4.000000;,
   4.000000;2.246928;-1.746815;,
   3.776435;2.246928;-1.746815;,
   4.000000;1.000000;-0.479031;,
   3.776435;1.000000;-0.479031;,
   3.776435;2.246928;-1.746815;,
   4.000000;2.246928;-1.746815;,
   4.000000;1.000000;-0.479031;,
   4.000000;-0.027353;-1.116543;,
   3.776435;-0.028418;-1.116543;,
   3.776435;1.000000;-0.479031;,
   4.000000;-1.000000;-0.479031;,
   4.000000;-1.463290;-1.142211;,
   3.776435;-1.463290;-1.142211;,
   3.776435;-1.000000;-0.479031;,
   4.000000;-1.463290;-1.142211;,
   4.000000;-3.546979;-2.155061;,
   3.776435;-3.546979;-2.155061;,
   3.776435;-1.463290;-1.142211;,
   3.776435;-3.546979;-2.155061;,
   4.000000;-3.546979;-2.155061;,
   4.000000;-1.516850;-2.341335;,
   3.776435;-1.516850;-2.341335;,
   3.776435;0.081174;2.622893;,
   3.776435;-0.401388;2.610428;,
   3.776435;-1.000000;2.594964;,
   4.000000;-1.000000;2.594964;,
   4.000000;-0.427808;2.609745;,
   4.000000;0.081174;2.622893;,
   4.000000;0.081174;4.000000;,
   4.000000;-1.000000;4.000000;,
   3.776435;-1.000000;4.000000;,
   3.776435;0.081174;4.000000;,
   3.776435;-1.000000;4.000000;,
   4.000000;-1.000000;4.000000;,
   4.000000;-1.000000;2.594964;,
   3.776435;-1.000000;2.594964;,
   4.000000;0.081174;2.622893;,
   4.000000;0.081174;4.000000;,
   3.776435;0.081174;4.000000;,
   3.776435;0.081174;2.622893;,
   -4.000000;-1.000000;4.000000;,
   -3.780152;-1.000000;4.000000;,
   -3.780152;-1.000000;1.822995;,
   -4.000000;-1.000000;1.822995;,
   -4.000000;1.000000;4.000000;,
   -3.780152;1.000000;4.000000;,
   -3.780152;-1.000000;4.000000;,
   -4.000000;-1.000000;4.000000;,
   -4.000000;1.000000;4.000000;,
   -4.000000;1.000000;1.822995;,
   -3.780152;1.000000;1.822995;,
   -3.780152;1.000000;4.000000;,
   -4.000000;1.000000;1.822995;,
   -4.000000;-1.000000;1.822995;,
   -3.780152;-1.000000;1.822995;,
   -3.780152;1.000000;1.822995;,
   3.776435;-0.028418;-1.116543;,
   4.000000;-0.027353;-1.116543;,
   4.000000;-1.000000;-0.479031;,
   3.776435;-1.000000;-0.479031;;
   62;
   4;0,1,2,3;,
   4;4,5,6,7;,
   4;8,9,10,11;,
   7;12,13,14,15,16,17,18;,
   4;19,20,21,22;,
   4;23,24,25,26;,
   5;27,28,29,30,31;,
   6;32,33,34,35,36,37;,
   4;38,39,40,41;,
   6;42,43,44,45,46,47;,
   4;48,49,50,51;,
   4;52,53,54,55;,
   4;56,57,58,59;,
   4;60,61,62,63;,
   4;64,65,66,67;,
   5;68,69,70,71,72;,
   4;73,74,75,76;,
   5;77,78,79,80,81;,
   6;82,83,84,85,86,87;,
   4;88,89,90,91;,
   4;92,93,94,95;,
   7;96,97,98,99,100,101,102;,
   4;103,104,105,106;,
   4;107,108,109,110;,
   5;111,112,113,114,115;,
   7;116,117,118,119,120,121,122;,
   4;123,124,125,126;,
   6;127,128,129,130,131,132;,
   4;133,134,135,136;,
   4;137,138,139,140;,
   4;141,142,143,144;,
   4;145,146,147,148;,
   4;149,150,151,152;,
   4;153,154,155,156;,
   4;157,158,159,160;,
   4;161,162,163,164;,
   4;165,166,167,168;,
   4;169,170,171,172;,
   5;173,174,175,176,177;,
   6;178,179,180,181,182,183;,
   4;184,185,186,187;,
   4;188,189,190,191;,
   4;192,193,194,195;,
   4;196,197,198,199;,
   4;200,201,202,203;,
   4;204,205,206,207;,
   4;208,209,210,211;,
   4;212,213,214,215;,
   4;216,217,218,219;,
   4;220,221,222,223;,
   4;224,225,226,227;,
   4;228,229,230,231;,
   4;232,233,234,235;,
   6;236,237,238,239,240,241;,
   4;242,243,244,245;,
   4;246,247,248,249;,
   4;250,251,252,253;,
   4;254,255,256,257;,
   4;258,259,260,261;,
   4;262,263,264,265;,
   4;266,267,268,269;,
   4;270,271,272,273;;

   MeshNormals {
    274;
    0.000000;0.000000;-1.000000;,
    0.000000;0.000000;-1.000000;,
    0.000000;0.000000;-1.000000;,
    0.000000;0.000000;-1.000000;,
    0.000000;1.000000;0.000000;,
    0.000000;1.000000;0.000000;,
    0.000000;1.000000;0.000000;,
    0.000000;1.000000;0.000000;,
    1.000000;0.000000;0.000000;,
    1.000000;0.000000;0.000000;,
    1.000000;0.000000;0.000000;,
    1.000000;0.000000;0.000000;,
    -1.000000;0.000000;0.000000;,
    -1.000000;0.000000;0.000000;,
    -1.000000;0.000000;0.000000;,
    -1.000000;0.000000;0.000000;,
    0.000000;-1.000000;0.000000;,
    0.000000;-1.000000;0.000000;,
    0.000000;-1.000000;0.000000;,
    0.000000;-1.000000;0.000000;,
    0.000000;0.000000;1.000000;,
    0.000000;0.000000;1.000000;,
    0.000000;0.000000;1.000000;,
    0.000000;0.000000;1.000000;,
    -1.000000;0.000000;0.000000;,
    -1.000000;0.000000;0.000000;,
    -1.000000;0.000000;0.000000;,
    -1.000000;0.000000;0.000000;,
    -1.000000;0.000000;0.000000;,
    -1.000000;0.000000;0.000000;,
    -1.000000;0.000000;0.000000;,
    -1.000000;0.000000;0.000000;,
    -1.000000;0.000000;0.000000;,
    -1.000000;0.000000;0.000000;,
    -1.000000;0.000000;0.000000;,
    -1.000000;0.000000;0.000000;,
    -1.000000;0.000000;0.000000;,
    -1.000000;0.000000;0.000000;,
    -1.000000;0.000000;0.000000;,
    -1.000000;0.000000;0.000000;,
    -1.000000;0.000000;0.000000;,
    -1.000000;0.000000;0.000000;,
    -1.000000;0.000000;0.000000;,
    -1.000000;0.000000;0.000000;,
    1.000000;0.000000;0.000000;,
    1.000000;0.000000;0.000000;,
    1.000000;0.000000;0.000000;,
    1.000000;0.000000;0.000000;,
    1.000000;0.000000;0.000000;,
    1.000000;0.000000;0.000000;,
    1.000000;0.000000;0.000000;,
    1.000000;0.000000;0.000000;,
    1.000000;0.000000;0.000000;,
    1.000000;0.000000;0.000000;,
    1.000000;0.000000;0.000000;,
    1.000000;0.000000;0.000000;,
    -1.000000;0.000000;0.000000;,
    -1.000000;0.000000;0.000000;,
    0.000000;-1.000000;0.000000;,
    -1.000000;0.000000;0.000000;,
    1.000000;0.000000;0.000000;,
    1.000000;0.000000;0.000000;,
    0.000000;1.000000;0.000000;,
    1.000000;0.000000;0.000000;,
    1.000000;0.000000;0.000000;,
    1.000000;0.000000;0.000000;,
    1.000000;0.000000;0.000000;,
    0.000000;-1.000000;0.000000;,
    -1.000000;0.000000;0.000000;,
    -1.000000;0.000000;0.000000;,
    -1.000000;0.000000;0.000000;,
    -1.000000;0.000000;0.000000;,
    -1.000000;0.000000;0.000000;,
    -1.000000;0.000000;0.000000;,
    -1.000000;0.000000;0.000000;,
    -1.000000;0.000000;0.000000;,
    0.000000;0.000000;1.000000;,
    0.000000;0.000000;1.000000;,
    0.000000;0.000000;1.000000;,
    0.000000;0.000000;1.000000;,
    0.000000;-1.000000;0.000000;,
    0.000000;-1.000000;0.000000;,
    0.000000;-1.000000;0.000000;,
    0.000000;-1.000000;0.000000;,
    -1.000000;0.000000;0.000000;,
    -1.000000;0.000000;0.000000;,
    -1.000000;0.000000;0.000000;,
    -1.000000;0.000000;0.000000;,
    1.000000;0.000000;0.000000;,
    1.000000;0.000000;0.000000;,
    1.000000;0.000000;0.000000;,
    1.000000;0.000000;0.000000;,
    0.000000;1.000000;0.000000;,
    0.000000;1.000000;0.000000;,
    0.000000;1.000000;0.000000;,
    0.000000;1.000000;0.000000;,
    0.000000;0.000000;-1.000000;,
    0.000000;0.000000;-1.000000;,
    0.000000;0.000000;-1.000000;,
    0.000000;0.000000;-1.000000;,
    1.000000;0.000000;0.000000;,
    1.000000;0.000000;0.000000;,
    1.000000;0.000000;0.000000;,
    1.000000;0.000000;0.000000;,
    1.000000;0.000000;0.000000;,
    1.000000;0.000000;0.000000;,
    1.000000;0.000000;0.000000;,
    1.000000;0.000000;0.000000;,
    1.000000;0.000000;0.000000;,
    1.000000;0.000000;0.000000;,
    1.000000;0.000000;0.000000;,
    1.000000;0.000000;0.000000;,
    1.000000;0.000000;0.000000;,
    1.000000;0.000000;0.000000;,
    1.000000;0.000000;0.000000;,
    1.000000;0.000000;0.000000;,
    1.000000;0.000000;0.000000;,
    1.000000;0.000000;0.000000;,
    1.000000;0.000000;0.000000;,
    1.000000;0.000000;0.000000;,
    -1.000000;0.000000;0.000000;,
    -1.000000;0.000000;0.000000;,
    -1.000000;0.000000;0.000000;,
    -1.000000;0.000000;0.000000;,
    -1.000000;0.000000;0.000000;,
    -1.000000;0.000000;0.000000;,
    -1.000000;0.000000;0.000000;,
    -1.000000;0.000000;0.000000;,
    -1.000000;0.000000;0.000000;,
    -1.000000;0.000000;0.000000;,
    -1.000000;0.000000;0.000000;,
    -1.000000;0.000000;0.000000;,
    -1.000000;0.000000;0.000000;,
    -1.000000;0.000000;0.000000;,
    0.000000;0.000000;1.000000;,
    -1.000000;0.000000;0.000000;,
    -1.000000;0.000000;0.000000;,
    -1.000000;0.000000;0.000000;,
    0.000000;0.000000;1.000000;,
    -1.000000;0.000000;0.000000;,
    -1.000000;0.000000;0.000000;,
    -1.000000;0.000000;0.000000;,
    0.000000;0.000000;1.000000;,
    -1.000000;0.000000;0.000000;,
    1.000000;0.000000;0.000000;,
    1.000000;0.000000;0.000000;,
    1.000000;0.000000;0.000000;,
    1.000000;0.000000;0.000000;,
    1.000000;0.000000;0.000000;,
    1.000000;0.000000;0.000000;,
    1.000000;0.000000;0.000000;,
    1.000000;0.000000;0.000000;,
    0.000000;0.619644;0.784883;,
    0.000000;0.705826;0.708386;,
    0.000000;0.705826;0.708386;,
    0.000000;0.619644;0.784883;,
    0.000000;0.941034;-0.338313;,
    0.000000;0.941034;-0.338313;,
    0.000000;0.941034;-0.338313;,
    0.000000;0.941034;-0.338313;,
    0.000000;0.525233;0.850958;,
    0.000000;0.619644;0.784883;,
    0.000000;0.619644;0.784883;,
    0.000000;0.525233;0.850958;,
    0.000000;-0.213331;0.976980;,
    0.000000;-0.213331;0.976980;,
    0.000000;-0.581320;0.813675;,
    0.000000;-0.581320;0.813675;,
    0.000000;0.189235;0.981932;,
    0.000000;-0.213331;0.976980;,
    0.000000;-0.213331;0.976980;,
    0.000000;0.189235;0.981932;,
    0.000000;-0.937077;0.349123;,
    0.000000;-0.937077;0.349123;,
    0.000000;-0.978484;0.206323;,
    0.000000;-0.978484;0.206323;,
    0.000000;-0.874954;0.484206;,
    0.000000;-0.874954;0.484206;,
    0.000000;-0.937077;0.349123;,
    0.000000;-0.937077;0.349123;,
    0.000000;-0.712947;-0.701218;,
    0.000000;-0.712947;-0.701218;,
    0.000000;-0.712947;-0.701218;,
    0.000000;-0.712947;-0.701218;,
    -0.001255;0.527073;-0.849819;,
    0.001306;-0.548393;-0.836220;,
    0.001306;-0.548393;-0.836220;,
    -0.001255;0.527073;-0.849819;,
    0.000000;0.819775;-0.572686;,
    0.000000;0.649355;-0.760486;,
    0.000000;0.649355;-0.760486;,
    0.000000;0.819775;-0.572686;,
    0.000000;0.649355;-0.760486;,
    0.000000;0.437174;-0.899377;,
    0.000000;0.437174;-0.899377;,
    0.000000;0.649355;-0.760486;,
    0.000000;0.091371;0.995817;,
    0.000000;0.091371;0.995817;,
    0.000000;0.091371;0.995817;,
    0.000000;0.091371;0.995817;,
    0.000000;-0.025824;0.999667;,
    0.000000;-0.025824;0.999667;,
    0.000000;-0.025824;0.999667;,
    0.000000;-0.025824;0.999667;,
    0.000000;0.000000;-1.000000;,
    0.000000;0.000000;-1.000000;,
    0.000000;0.000000;-1.000000;,
    0.000000;0.000000;-1.000000;,
    0.000000;1.000000;0.000000;,
    0.000000;1.000000;0.000000;,
    0.000000;1.000000;0.000000;,
    0.000000;1.000000;0.000000;,
    0.000000;-1.000000;0.000000;,
    0.000000;-1.000000;0.000000;,
    0.000000;-1.000000;0.000000;,
    0.000000;-1.000000;0.000000;,
    1.000000;0.000000;0.000000;,
    1.000000;0.000000;0.000000;,
    1.000000;0.000000;0.000000;,
    0.000000;-1.000000;0.000000;,
    -1.000000;0.000000;0.000000;,
    -1.000000;0.000000;0.000000;,
    -1.000000;0.000000;0.000000;,
    0.000000;1.000000;0.000000;,
    -1.000000;0.000000;0.000000;,
    -1.000000;0.000000;0.000000;,
    -1.000000;0.000000;0.000000;,
    0.000000;1.000000;0.000000;,
    -1.000000;0.000000;0.000000;,
    -1.000000;0.000000;0.000000;,
    -1.000000;0.000000;0.000000;,
    0.000000;1.000000;0.000000;,
    0.000000;1.000000;0.000000;,
    0.000000;1.000000;0.000000;,
    0.000000;1.000000;0.000000;,
    0.000000;1.000000;0.000000;,
    0.000000;0.000000;-1.000000;,
    0.000000;0.000000;-1.000000;,
    0.000000;0.000000;-1.000000;,
    0.000000;0.000000;-1.000000;,
    0.000000;-1.000000;0.000000;,
    0.000000;-1.000000;0.000000;,
    0.000000;-1.000000;0.000000;,
    0.000000;-1.000000;0.000000;,
    0.000000;0.000000;1.000000;,
    0.000000;0.000000;1.000000;,
    0.000000;0.000000;1.000000;,
    0.000000;0.000000;1.000000;,
    1.000000;0.000000;0.000000;,
    0.000000;0.000000;-1.000000;,
    1.000000;0.000000;0.000000;,
    1.000000;0.000000;0.000000;,
    1.000000;0.000000;0.000000;,
    0.000000;0.000000;-1.000000;,
    1.000000;0.000000;0.000000;,
    1.000000;0.000000;0.000000;,
    0.000000;-1.000000;0.000000;,
    1.000000;0.000000;0.000000;,
    1.000000;0.000000;0.000000;,
    1.000000;0.000000;0.000000;,
    -1.000000;0.000000;0.000000;,
    -0.001255;0.527073;-0.849819;,
    1.000000;0.000000;0.000000;,
    -0.001255;0.527073;-0.849819;,
    0.001306;-0.548393;-0.836220;,
    0.001306;-0.548393;-0.836220;,
    0.000000;-0.025824;0.999667;,
    1.000000;0.000000;0.000000;,
    1.000000;0.000000;0.000000;,
    1.000000;0.000000;0.000000;,
    0.000000;-0.025824;0.999667;,
    -1.000000;0.000000;0.000000;,
    -1.000000;0.000000;0.000000;,
    -1.000000;0.000000;0.000000;;
    62;
    4;61,60,117,105;,
    4;65,64,218,147;,
    4;76,77,78,79;,
    7;83,82,256,219,67,81,80;,
    4;84,85,86,87;,
    4;91,267,262,116;,
    5;95,62,94,93,92;,
    6;99,98,249,253,97,96;,
    4;103,102,101,100;,
    6;144,106,63,104,107,88;,
    4;145,151,248,108;,
    4;115,111,257,112;,
    4;123,122,121,120;,
    4;127,126,125,124;,
    4;131,130,129,128;,
    5;217,216,258,259,110;,
    4;252,148,146,109;,
    5;254,255,250,251,150;,
    6;66,149,118,89,114,113;,
    4;268,269,90,119;,
    4;0,1,2,3;,
    7;4,5,231,223,227,6,7;,
    4;11,10,9,8;,
    4;40,260,271,15;,
    5;16,17,18,58,19;,
    7;20,21,138,134,142,22,23;,
    4;24,25,26,27;,
    6;12,31,28,59,30,68;,
    4;32,143,75,69;,
    4;36,226,35,39;,
    4;44,45,46,47;,
    4;48,49,50,51;,
    4;52,53,54,55;,
    4;57,56,29,41;,
    4;133,132,139,72;,
    4;137,136,33,70;,
    4;141,140,135,74;,
    4;221,220,230,73;,
    5;225,224,222,71,34;,
    6;229,228,37,38,13,42;,
    4;272,273,43,14;,
    4;155,154,153,152;,
    4;159,158,157,156;,
    4;163,162,161,160;,
    4;167,166,165,164;,
    4;171,170,169,168;,
    4;175,174,173,172;,
    4;179,178,177,176;,
    4;183,182,181,180;,
    4;187,263,261,184;,
    4;191,190,189,188;,
    4;195,194,193,192;,
    4;199,198,197,196;,
    6;203,270,202,201,266,200;,
    4;207,206,205,204;,
    4;211,210,209,208;,
    4;215,214,213,212;,
    4;235,234,233,232;,
    4;239,238,237,236;,
    4;243,242,241,240;,
    4;247,246,245,244;,
    4;264,265,186,185;;
   }

   MeshTextureCoords {
    274;
    0.000000;0.000000;,
    0.000000;0.000000;,
    0.000000;0.000000;,
    0.000000;0.000000;,
    0.000000;0.000000;,
    0.000000;0.000000;,
    0.000000;0.000000;,
    0.000000;0.000000;,
    0.000000;0.000000;,
    0.000000;0.000000;,
    0.000000;0.000000;,
    0.000000;0.000000;,
    0.000000;0.000000;,
    0.000000;0.000000;,
    0.000000;0.000000;,
    0.000000;0.000000;,
    0.000000;0.000000;,
    0.000000;0.000000;,
    0.000000;0.000000;,
    0.000000;0.000000;,
    0.000000;0.000000;,
    0.000000;0.000000;,
    0.000000;0.000000;,
    0.000000;0.000000;,
    0.000000;0.000000;,
    0.000000;0.000000;,
    0.000000;0.000000;,
    0.000000;0.000000;,
    0.000000;0.000000;,
    0.000000;0.000000;,
    0.000000;0.000000;,
    0.000000;0.000000;,
    0.000000;0.000000;,
    0.000000;0.000000;,
    0.000000;0.000000;,
    0.000000;0.000000;,
    0.000000;0.000000;,
    0.000000;0.000000;,
    0.000000;0.000000;,
    0.000000;0.000000;,
    0.000000;0.000000;,
    0.000000;0.000000;,
    0.000000;0.000000;,
    0.000000;0.000000;,
    0.000000;0.000000;,
    0.000000;0.000000;,
    0.000000;0.000000;,
    0.000000;0.000000;,
    0.000000;0.000000;,
    0.000000;0.000000;,
    0.000000;0.000000;,
    0.000000;0.000000;,
    0.000000;0.000000;,
    0.000000;0.000000;,
    0.000000;0.000000;,
    0.000000;0.000000;,
    0.000000;0.000000;,
    0.000000;0.000000;,
    0.000000;0.000000;,
    0.000000;0.000000;,
    0.000000;0.000000;,
    0.000000;0.000000;,
    0.000000;0.000000;,
    0.000000;0.000000;,
    0.000000;0.000000;,
    0.000000;0.000000;,
    0.000000;0.000000;,
    0.000000;0.000000;,
    0.000000;0.000000;,
    0.000000;0.000000;,
    0.000000;0.000000;,
    0.000000;0.000000;,
    0.000000;0.000000;,
    0.000000;0.000000;,
    0.000000;0.000000;,
    0.000000;0.000000;,
    0.000000;0.000000;,
    0.000000;0.000000;,
    0.000000;0.000000;,
    0.000000;0.000000;,
    0.000000;0.000000;,
    0.000000;0.000000;,
    0.000000;0.000000;,
    0.000000;0.000000;,
    0.000000;0.000000;,
    0.000000;0.000000;,
    0.000000;0.000000;,
    0.000000;0.000000;,
    0.000000;0.000000;,
    0.000000;0.000000;,
    0.000000;0.000000;,
    0.000000;0.000000;,
    0.000000;0.000000;,
    0.000000;0.000000;,
    0.000000;0.000000;,
    0.000000;0.000000;,
    0.000000;0.000000;,
    0.000000;0.000000;,
    0.000000;0.000000;,
    0.000000;0.000000;,
    0.000000;0.000000;,
    0.000000;0.000000;,
    0.000000;0.000000;,
    0.000000;0.000000;,
    0.000000;0.000000;,
    0.000000;0.000000;,
    0.000000;0.000000;,
    0.000000;0.000000;,
    0.000000;0.000000;,
    0.000000;0.000000;,
    0.000000;0.000000;,
    0.000000;0.000000;,
    0.000000;0.000000;,
    0.000000;0.000000;,
    0.000000;0.000000;,
    0.000000;0.000000;,
    0.000000;0.000000;,
    0.000000;0.000000;,
    0.000000;0.000000;,
    0.000000;0.000000;,
    0.000000;0.000000;,
    0.000000;0.000000;,
    0.000000;0.000000;,
    0.000000;0.000000;,
    0.000000;0.000000;,
    0.000000;0.000000;,
    0.000000;0.000000;,
    0.000000;0.000000;,
    0.000000;0.000000;,
    0.000000;0.000000;,
    0.000000;0.000000;,
    0.000000;0.000000;,
    0.000000;0.000000;,
    0.000000;0.000000;,
    0.000000;0.000000;,
    0.000000;0.000000;,
    0.000000;0.000000;,
    0.000000;0.000000;,
    0.000000;0.000000;,
    0.000000;0.000000;,
    0.000000;0.000000;,
    0.000000;0.000000;,
    0.000000;0.000000;,
    0.000000;0.000000;,
    0.000000;0.000000;,
    0.000000;0.000000;,
    0.000000;0.000000;,
    0.000000;0.000000;,
    0.000000;0.000000;,
    0.000000;0.000000;,
    0.000000;0.000000;,
    0.000000;0.000000;,
    0.000000;0.000000;,
    0.000000;0.000000;,
    0.000000;0.000000;,
    0.000000;0.000000;,
    0.000000;0.000000;,
    0.000000;0.000000;,
    0.000000;0.000000;,
    0.000000;0.000000;,
    0.000000;0.000000;,
    0.000000;0.000000;,
    0.000000;0.000000;,
    0.000000;0.000000;,
    0.000000;0.000000;,
    0.000000;0.000000;,
    0.000000;0.000000;,
    0.000000;0.000000;,
    0.000000;0.000000;,
    0.000000;0.000000;,
    0.000000;0.000000;,
    0.000000;0.000000;,
    0.000000;0.000000;,
    0.000000;0.000000;,
    0.000000;0.000000;,
    0.000000;0.000000;,
    0.000000;0.000000;,
    0.000000;0.000000;,
    0.000000;0.000000;,
    0.000000;0.000000;,
    0.000000;0.000000;,
    0.000000;0.000000;,
    0.000000;0.000000;,
    0.000000;0.000000;,
    0.000000;0.000000;,
    0.000000;0.000000;,
    0.000000;0.000000;,
    0.000000;0.000000;,
    -0.972054;-0.214286;,
    -0.972054;-0.272615;,
    -1.000000;-0.272615;,
    -1.000000;-0.214286;,
    -0.972054;-0.272615;,
    -0.972054;-0.332762;,
    -1.000000;-0.332762;,
    -1.000000;-0.272615;,
    -0.972054;-0.172330;,
    -0.972054;-0.214286;,
    -1.000000;-0.214286;,
    -1.000000;-0.172330;,
    -0.972054;-0.827670;,
    -1.000000;-0.827670;,
    -1.000000;-0.807209;,
    -0.972054;-0.807209;,
    -0.027946;-0.614218;,
    -0.027946;-0.544075;,
    0.000000;-0.544075;,
    0.000000;-0.614218;,
    -0.972054;-0.814933;,
    -1.000000;-0.814933;,
    -1.000000;-0.785714;,
    -0.972054;-0.785714;,
    -0.972054;-0.785714;,
    -1.000000;-0.785714;,
    -1.000000;-0.624772;,
    -0.972054;-0.624772;,
    -1.000000;-0.534216;,
    -0.972054;-0.534216;,
    -0.972054;-0.624772;,
    -1.000000;-0.624772;,
    -1.000000;-0.465784;,
    -1.000000;-0.420247;,
    -0.972054;-0.420247;,
    -0.972054;-0.465784;,
    -1.000000;-0.465784;,
    -1.000000;-0.418414;,
    -0.972054;-0.418414;,
    -0.972054;-0.465784;,
    -1.000000;-0.317089;,
    -1.000000;-0.056628;,
    -0.972054;-0.056628;,
    -0.972054;-0.317089;,
    -0.027946;-0.056628;,
    0.000000;-0.056628;,
    0.000000;-0.310394;,
    -0.027946;-0.310394;,
    -0.027946;-0.510147;,
    -0.027946;-0.449826;,
    -0.027946;-0.375000;,
    0.000000;-0.375000;,
    0.000000;-0.446524;,
    0.000000;-0.510147;,
    -1.000000;-0.510147;,
    -1.000000;-0.375000;,
    -0.972054;-0.375000;,
    -0.972054;-0.510147;,
    -0.972054;-0.785714;,
    -1.000000;-0.785714;,
    -1.000000;-0.685355;,
    -0.972054;-0.685355;,
    -1.000000;-0.312651;,
    -1.000000;-0.214286;,
    -0.972054;-0.214286;,
    -0.972054;-0.312651;,
    0.000000;-0.785714;,
    -0.027481;-0.785714;,
    -0.027481;-0.630214;,
    0.000000;-0.630214;,
    0.000000;-0.625000;,
    -0.027481;-0.625000;,
    -0.027481;-0.375000;,
    0.000000;-0.375000;,
    0.000000;-0.214286;,
    0.000000;-0.369786;,
    -0.027481;-0.369786;,
    -0.027481;-0.214286;,
    -1.000000;-0.625000;,
    -1.000000;-0.375000;,
    -0.972519;-0.375000;,
    -0.972519;-0.625000;,
    -0.972054;-0.579753;,
    -1.000000;-0.579753;,
    -1.000000;-0.534216;,
    -0.972054;-0.534216;;
   }

   MeshMaterialList {
    3;
    62;
    0,
    0,
    0,
    0,
    0,
    0,
    0,
    0,
    0,
    0,
    0,
    0,
    0,
    0,
    0,
    0,
    0,
    0,
    0,
    0,
    1,
    1,
    1,
    1,
    1,
    1,
    1,
    1,
    1,
    1,
    1,
    1,
    1,
    1,
    1,
    1,
    1,
    1,
    1,
    1,
    1,
    2,
    2,
    2,
    2,
    2,
    2,
    2,
    2,
    2,
    2,
    2,
    2,
    2,
    2,
    2,
    2,
    2,
    2,
    2,
    2,
    2;

    Material polymshPolygon {
     0.698000;0.000000;0.000000;1.000000;;
     50.000000;
     1.000000;1.000000;1.000000;;
     0.000000;0.000000;0.000000;;
    }

    Material polymshPolygon1 {
     1.000000;1.000000;1.000000;1.000000;;
     50.000000;
     1.000000;1.000000;1.000000;;
     0.000000;0.000000;0.000000;;
    }

    Material DefaultLib_Material2 {
     0.700000;0.700000;0.700000;1.000000;;
     50.000000;
     1.000000;1.000000;1.000000;;
     0.000000;0.000000;0.000000;;

    }
   }
  }
 }
}