xof 0303txt 0032
template Frame {
 <3d82ab46-62da-11cf-ab39-0020af71e433>
 [...]
}

template Matrix4x4 {
 <f6f23f45-7686-11cf-8f52-0040333594a3>
 array FLOAT matrix[16];
}

template FrameTransformMatrix {
 <f6f23f41-7686-11cf-8f52-0040333594a3>
 Matrix4x4 frameMatrix;
}

template Vector {
 <3d82ab5e-62da-11cf-ab39-0020af71e433>
 FLOAT x;
 FLOAT y;
 FLOAT z;
}

template MeshFace {
 <3d82ab5f-62da-11cf-ab39-0020af71e433>
 DWORD nFaceVertexIndices;
 array DWORD faceVertexIndices[nFaceVertexIndices];
}

template Mesh {
 <3d82ab44-62da-11cf-ab39-0020af71e433>
 DWORD nVertices;
 array Vector vertices[nVertices];
 DWORD nFaces;
 array MeshFace faces[nFaces];
 [...]
}

template MeshNormals {
 <f6f23f43-7686-11cf-8f52-0040333594a3>
 DWORD nNormals;
 array Vector normals[nNormals];
 DWORD nFaceNormals;
 array MeshFace faceNormals[nFaceNormals];
}

template Coords2d {
 <f6f23f44-7686-11cf-8f52-0040333594a3>
 FLOAT u;
 FLOAT v;
}

template MeshTextureCoords {
 <f6f23f40-7686-11cf-8f52-0040333594a3>
 DWORD nTextureCoords;
 array Coords2d textureCoords[nTextureCoords];
}

template ColorRGBA {
 <35ff44e0-6c7c-11cf-8f52-0040333594a3>
 FLOAT red;
 FLOAT green;
 FLOAT blue;
 FLOAT alpha;
}

template ColorRGB {
 <d3e16e81-7835-11cf-8f52-0040333594a3>
 FLOAT red;
 FLOAT green;
 FLOAT blue;
}

template Material {
 <3d82ab4d-62da-11cf-ab39-0020af71e433>
 ColorRGBA faceColor;
 FLOAT power;
 ColorRGB specularColor;
 ColorRGB emissiveColor;
 [...]
}

template MeshMaterialList {
 <f6f23f42-7686-11cf-8f52-0040333594a3>
 DWORD nMaterials;
 DWORD nFaceIndexes;
 array DWORD faceIndexes[nFaceIndexes];
 [Material <3d82ab4d-62da-11cf-ab39-0020af71e433>]
}


Frame Scene_Root {
 

 Frame sphere {
  

  FrameTransformMatrix {
   1.000000,0.000000,0.000000,0.000000,0.000000,1.000000,0.000000,0.000000,0.000000,0.000000,1.000000,0.000000,0.000000,0.000000,0.000000,1.000000;;
  }

  Mesh sphere_obj {
   240;
   -0.270598;-0.923880;0.270598;,
   -0.382683;-0.923880;0.000000;,
   0.000000;-1.000000;0.000000;,
   -0.382683;-0.923880;0.000000;,
   -0.270598;-0.923880;0.270598;,
   -0.500000;-0.707107;0.500000;,
   -0.707107;-0.707107;0.000000;,
   -0.707107;-0.707107;0.000000;,
   -0.500000;-0.707107;0.500000;,
   -0.653282;-0.382683;0.653282;,
   -0.923880;-0.382683;0.000000;,
   -0.923880;-0.382683;0.000000;,
   -0.653282;-0.382683;0.653282;,
   -0.707107;0.000000;0.707107;,
   -1.000000;0.000000;0.000000;,
   -1.000000;0.000000;0.000000;,
   -0.707107;0.000000;0.707107;,
   -0.653282;0.382683;0.653282;,
   -0.923880;0.382683;0.000000;,
   -0.923880;0.382683;0.000000;,
   -0.653282;0.382683;0.653282;,
   -0.500000;0.707107;0.500000;,
   -0.707107;0.707107;0.000000;,
   -0.707107;0.707107;0.000000;,
   -0.500000;0.707107;0.500000;,
   -0.270598;0.923880;0.270598;,
   -0.382683;0.923880;0.000000;,
   -0.382683;0.923880;0.000000;,
   -0.270598;0.923880;0.270598;,
   0.000000;1.000000;0.000000;,
   0.000000;-0.923880;0.382683;,
   -0.270598;-0.923880;0.270598;,
   0.000000;-1.000000;0.000000;,
   -0.270598;-0.923880;0.270598;,
   0.000000;-0.923880;0.382683;,
   0.000000;-0.707107;0.707107;,
   -0.500000;-0.707107;0.500000;,
   -0.500000;-0.707107;0.500000;,
   0.000000;-0.707107;0.707107;,
   0.000000;-0.382683;0.923880;,
   -0.653282;-0.382683;0.653282;,
   -0.653282;-0.382683;0.653282;,
   0.000000;-0.382683;0.923880;,
   0.000000;0.000000;1.000000;,
   -0.707107;0.000000;0.707107;,
   -0.707107;0.000000;0.707107;,
   0.000000;0.000000;1.000000;,
   0.000000;0.382683;0.923880;,
   -0.653282;0.382683;0.653282;,
   -0.653282;0.382683;0.653282;,
   0.000000;0.382683;0.923880;,
   0.000000;0.707107;0.707107;,
   -0.500000;0.707107;0.500000;,
   -0.500000;0.707107;0.500000;,
   0.000000;0.707107;0.707107;,
   0.000000;0.923880;0.382683;,
   -0.270598;0.923880;0.270598;,
   -0.270598;0.923880;0.270598;,
   0.000000;0.923880;0.382683;,
   0.000000;1.000000;0.000000;,
   0.270598;-0.923880;0.270598;,
   0.000000;-0.923880;0.382683;,
   0.000000;-1.000000;0.000000;,
   0.000000;-0.923880;0.382683;,
   0.270598;-0.923880;0.270598;,
   0.500000;-0.707107;0.500000;,
   0.000000;-0.707107;0.707107;,
   0.000000;-0.707107;0.707107;,
   0.500000;-0.707107;0.500000;,
   0.653282;-0.382683;0.653282;,
   0.000000;-0.382683;0.923880;,
   0.000000;-0.382683;0.923880;,
   0.653282;-0.382683;0.653282;,
   0.707107;0.000000;0.707107;,
   0.000000;0.000000;1.000000;,
   0.000000;0.000000;1.000000;,
   0.707107;0.000000;0.707107;,
   0.653282;0.382683;0.653282;,
   0.000000;0.382683;0.923880;,
   0.000000;0.382683;0.923880;,
   0.653282;0.382683;0.653282;,
   0.500000;0.707107;0.500000;,
   0.000000;0.707107;0.707107;,
   0.000000;0.707107;0.707107;,
   0.500000;0.707107;0.500000;,
   0.270598;0.923880;0.270598;,
   0.000000;0.923880;0.382683;,
   0.000000;0.923880;0.382683;,
   0.270598;0.923880;0.270598;,
   0.000000;1.000000;0.000000;,
   0.382683;-0.923880;0.000000;,
   0.270598;-0.923880;0.270598;,
   0.000000;-1.000000;0.000000;,
   0.270598;-0.923880;0.270598;,
   0.382683;-0.923880;0.000000;,
   0.707107;-0.707107;0.000000;,
   0.500000;-0.707107;0.500000;,
   0.500000;-0.707107;0.500000;,
   0.707107;-0.707107;0.000000;,
   0.923880;-0.382683;0.000000;,
   0.653282;-0.382683;0.653282;,
   0.653282;-0.382683;0.653282;,
   0.923880;-0.382683;0.000000;,
   1.000000;0.000000;0.000000;,
   0.707107;0.000000;0.707107;,
   0.707107;0.000000;0.707107;,
   1.000000;0.000000;0.000000;,
   0.923880;0.382683;0.000000;,
   0.653282;0.382683;0.653282;,
   0.653282;0.382683;0.653282;,
   0.923880;0.382683;0.000000;,
   0.707107;0.707107;0.000000;,
   0.500000;0.707107;0.500000;,
   0.500000;0.707107;0.500000;,
   0.707107;0.707107;0.000000;,
   0.382683;0.923880;0.000000;,
   0.270598;0.923880;0.270598;,
   0.270598;0.923880;0.270598;,
   0.382683;0.923880;0.000000;,
   0.000000;1.000000;0.000000;,
   0.270598;-0.923880;-0.270598;,
   0.382683;-0.923880;0.000000;,
   0.000000;-1.000000;0.000000;,
   0.382683;-0.923880;0.000000;,
   0.270598;-0.923880;-0.270598;,
   0.500000;-0.707107;-0.500000;,
   0.707107;-0.707107;0.000000;,
   0.707107;-0.707107;0.000000;,
   0.500000;-0.707107;-0.500000;,
   0.653282;-0.382683;-0.653282;,
   0.923880;-0.382683;0.000000;,
   0.923880;-0.382683;0.000000;,
   0.653282;-0.382683;-0.653282;,
   0.707107;0.000000;-0.707107;,
   1.000000;0.000000;0.000000;,
   1.000000;0.000000;0.000000;,
   0.707107;0.000000;-0.707107;,
   0.653282;0.382683;-0.653282;,
   0.923880;0.382683;0.000000;,
   0.923880;0.382683;0.000000;,
   0.653282;0.382683;-0.653282;,
   0.500000;0.707107;-0.500000;,
   0.707107;0.707107;0.000000;,
   0.707107;0.707107;0.000000;,
   0.500000;0.707107;-0.500000;,
   0.270598;0.923880;-0.270598;,
   0.382683;0.923880;0.000000;,
   0.382683;0.923880;0.000000;,
   0.270598;0.923880;-0.270598;,
   0.000000;1.000000;0.000000;,
   0.000000;-0.923880;-0.382683;,
   0.270598;-0.923880;-0.270598;,
   0.000000;-1.000000;0.000000;,
   0.270598;-0.923880;-0.270598;,
   0.000000;-0.923880;-0.382683;,
   0.000000;-0.707107;-0.707107;,
   0.500000;-0.707107;-0.500000;,
   0.500000;-0.707107;-0.500000;,
   0.000000;-0.707107;-0.707107;,
   0.000000;-0.382683;-0.923880;,
   0.653282;-0.382683;-0.653282;,
   0.653282;-0.382683;-0.653282;,
   0.000000;-0.382683;-0.923880;,
   0.000000;0.000000;-1.000000;,
   0.707107;0.000000;-0.707107;,
   0.707107;0.000000;-0.707107;,
   0.000000;0.000000;-1.000000;,
   0.000000;0.382683;-0.923880;,
   0.653282;0.382683;-0.653282;,
   0.653282;0.382683;-0.653282;,
   0.000000;0.382683;-0.923880;,
   0.000000;0.707107;-0.707107;,
   0.500000;0.707107;-0.500000;,
   0.500000;0.707107;-0.500000;,
   0.000000;0.707107;-0.707107;,
   0.000000;0.923880;-0.382683;,
   0.270598;0.923880;-0.270598;,
   0.270598;0.923880;-0.270598;,
   0.000000;0.923880;-0.382683;,
   0.000000;1.000000;0.000000;,
   -0.270598;-0.923880;-0.270598;,
   0.000000;-0.923880;-0.382683;,
   0.000000;-1.000000;0.000000;,
   0.000000;-0.923880;-0.382683;,
   -0.270598;-0.923880;-0.270598;,
   -0.500000;-0.707107;-0.500000;,
   0.000000;-0.707107;-0.707107;,
   0.000000;-0.707107;-0.707107;,
   -0.500000;-0.707107;-0.500000;,
   -0.653282;-0.382683;-0.653282;,
   0.000000;-0.382683;-0.923880;,
   0.000000;-0.382683;-0.923880;,
   -0.653282;-0.382683;-0.653282;,
   -0.707107;0.000000;-0.707107;,
   0.000000;0.000000;-1.000000;,
   0.000000;0.000000;-1.000000;,
   -0.707107;0.000000;-0.707107;,
   -0.653282;0.382683;-0.653282;,
   0.000000;0.382683;-0.923880;,
   0.000000;0.382683;-0.923880;,
   -0.653282;0.382683;-0.653282;,
   -0.500000;0.707107;-0.500000;,
   0.000000;0.707107;-0.707107;,
   0.000000;0.707107;-0.707107;,
   -0.500000;0.707107;-0.500000;,
   -0.270598;0.923880;-0.270598;,
   0.000000;0.923880;-0.382683;,
   0.000000;0.923880;-0.382683;,
   -0.270598;0.923880;-0.270598;,
   0.000000;1.000000;0.000000;,
   -0.382683;-0.923880;0.000000;,
   -0.270598;-0.923880;-0.270598;,
   0.000000;-1.000000;0.000000;,
   -0.270598;-0.923880;-0.270598;,
   -0.382683;-0.923880;0.000000;,
   -0.707107;-0.707107;0.000000;,
   -0.500000;-0.707107;-0.500000;,
   -0.500000;-0.707107;-0.500000;,
   -0.707107;-0.707107;0.000000;,
   -0.923880;-0.382683;0.000000;,
   -0.653282;-0.382683;-0.653282;,
   -0.653282;-0.382683;-0.653282;,
   -0.923880;-0.382683;0.000000;,
   -1.000000;0.000000;0.000000;,
   -0.707107;0.000000;-0.707107;,
   -0.707107;0.000000;-0.707107;,
   -1.000000;0.000000;0.000000;,
   -0.923880;0.382683;0.000000;,
   -0.653282;0.382683;-0.653282;,
   -0.653282;0.382683;-0.653282;,
   -0.923880;0.382683;0.000000;,
   -0.707107;0.707107;0.000000;,
   -0.500000;0.707107;-0.500000;,
   -0.500000;0.707107;-0.500000;,
   -0.707107;0.707107;0.000000;,
   -0.382683;0.923880;0.000000;,
   -0.270598;0.923880;-0.270598;,
   -0.270598;0.923880;-0.270598;,
   -0.382683;0.923880;0.000000;,
   0.000000;1.000000;0.000000;;
   64;
   3;0,1,2;,
   4;3,4,5,6;,
   4;7,8,9,10;,
   4;11,12,13,14;,
   4;15,16,17,18;,
   4;19,20,21,22;,
   4;23,24,25,26;,
   3;27,28,29;,
   3;30,31,32;,
   4;33,34,35,36;,
   4;37,38,39,40;,
   4;41,42,43,44;,
   4;45,46,47,48;,
   4;49,50,51,52;,
   4;53,54,55,56;,
   3;57,58,59;,
   3;60,61,62;,
   4;63,64,65,66;,
   4;67,68,69,70;,
   4;71,72,73,74;,
   4;75,76,77,78;,
   4;79,80,81,82;,
   4;83,84,85,86;,
   3;87,88,89;,
   3;90,91,92;,
   4;93,94,95,96;,
   4;97,98,99,100;,
   4;101,102,103,104;,
   4;105,106,107,108;,
   4;109,110,111,112;,
   4;113,114,115,116;,
   3;117,118,119;,
   3;120,121,122;,
   4;123,124,125,126;,
   4;127,128,129,130;,
   4;131,132,133,134;,
   4;135,136,137,138;,
   4;139,140,141,142;,
   4;143,144,145,146;,
   3;147,148,149;,
   3;150,151,152;,
   4;153,154,155,156;,
   4;157,158,159,160;,
   4;161,162,163,164;,
   4;165,166,167,168;,
   4;169,170,171,172;,
   4;173,174,175,176;,
   3;177,178,179;,
   3;180,181,182;,
   4;183,184,185,186;,
   4;187,188,189,190;,
   4;191,192,193,194;,
   4;195,196,197,198;,
   4;199,200,201,202;,
   4;203,204,205,206;,
   3;207,208,209;,
   3;210,211,212;,
   4;213,214,215,216;,
   4;217,218,219,220;,
   4;221,222,223,224;,
   4;225,226,227,228;,
   4;229,230,231,232;,
   4;233,234,235,236;,
   3;237,238,239;;

   MeshNormals {
    240;
    -0.269132;-0.924735;0.269132;,
    -0.380611;-0.924735;0.000000;,
    0.000000;-1.000000;0.000000;,
    -0.380611;-0.924735;0.000000;,
    -0.269132;-0.924735;0.269132;,
    -0.498494;-0.709230;0.498494;,
    -0.704977;-0.709230;0.000000;,
    -0.704977;-0.709230;0.000000;,
    -0.498494;-0.709230;0.498494;,
    -0.652733;-0.384551;0.652733;,
    -0.923104;-0.384551;0.000000;,
    -0.923104;-0.384551;0.000000;,
    -0.652733;-0.384551;0.652733;,
    -0.707107;0.000000;0.707107;,
    -1.000000;0.000000;0.000000;,
    -1.000000;0.000000;0.000000;,
    -0.707107;0.000000;0.707107;,
    -0.652733;0.384551;0.652733;,
    -0.923104;0.384551;0.000000;,
    -0.923104;0.384551;0.000000;,
    -0.652733;0.384551;0.652733;,
    -0.498494;0.709230;0.498494;,
    -0.704977;0.709230;0.000000;,
    -0.704977;0.709230;0.000000;,
    -0.498494;0.709230;0.498494;,
    -0.269132;0.924735;0.269132;,
    -0.380611;0.924735;0.000000;,
    -0.380611;0.924735;0.000000;,
    -0.269132;0.924735;0.269132;,
    0.000000;1.000000;0.000000;,
    0.000000;-0.924735;0.380611;,
    -0.269132;-0.924735;0.269132;,
    0.000000;-1.000000;0.000000;,
    -0.269132;-0.924735;0.269132;,
    0.000000;-0.924735;0.380611;,
    0.000000;-0.709230;0.704977;,
    -0.498494;-0.709230;0.498494;,
    -0.498494;-0.709230;0.498494;,
    0.000000;-0.709230;0.704977;,
    0.000000;-0.384551;0.923104;,
    -0.652733;-0.384551;0.652733;,
    -0.652733;-0.384551;0.652733;,
    0.000000;-0.384551;0.923104;,
    0.000000;0.000000;1.000000;,
    -0.707107;0.000000;0.707107;,
    -0.707107;0.000000;0.707107;,
    0.000000;0.000000;1.000000;,
    0.000000;0.384551;0.923104;,
    -0.652733;0.384551;0.652733;,
    -0.652733;0.384551;0.652733;,
    0.000000;0.384551;0.923104;,
    0.000000;0.709230;0.704977;,
    -0.498494;0.709230;0.498494;,
    -0.498494;0.709230;0.498494;,
    0.000000;0.709230;0.704977;,
    0.000000;0.924735;0.380611;,
    -0.269132;0.924735;0.269132;,
    -0.269132;0.924735;0.269132;,
    0.000000;0.924735;0.380611;,
    0.000000;1.000000;0.000000;,
    0.269132;-0.924735;0.269132;,
    0.000000;-0.924735;0.380611;,
    0.000000;-1.000000;0.000000;,
    0.000000;-0.924735;0.380611;,
    0.269132;-0.924735;0.269132;,
    0.498494;-0.709230;0.498494;,
    0.000000;-0.709230;0.704977;,
    0.000000;-0.709230;0.704977;,
    0.498494;-0.709230;0.498494;,
    0.652733;-0.384551;0.652733;,
    0.000000;-0.384551;0.923104;,
    0.000000;-0.384551;0.923104;,
    0.652733;-0.384551;0.652733;,
    0.707107;0.000000;0.707107;,
    0.000000;0.000000;1.000000;,
    0.000000;0.000000;1.000000;,
    0.707107;0.000000;0.707107;,
    0.652733;0.384551;0.652733;,
    0.000000;0.384551;0.923104;,
    0.000000;0.384551;0.923104;,
    0.652733;0.384551;0.652733;,
    0.498494;0.709230;0.498494;,
    0.000000;0.709230;0.704977;,
    0.000000;0.709230;0.704977;,
    0.498494;0.709230;0.498494;,
    0.269132;0.924735;0.269132;,
    0.000000;0.924735;0.380611;,
    0.000000;0.924735;0.380611;,
    0.269132;0.924735;0.269132;,
    0.000000;1.000000;0.000000;,
    0.380611;-0.924735;0.000000;,
    0.269132;-0.924735;0.269132;,
    0.000000;-1.000000;0.000000;,
    0.269132;-0.924735;0.269132;,
    0.380611;-0.924735;0.000000;,
    0.704977;-0.709230;0.000000;,
    0.498494;-0.709230;0.498494;,
    0.498494;-0.709230;0.498494;,
    0.704977;-0.709230;0.000000;,
    0.923104;-0.384551;0.000000;,
    0.652733;-0.384551;0.652733;,
    0.652733;-0.384551;0.652733;,
    0.923104;-0.384551;0.000000;,
    1.000000;0.000000;0.000000;,
    0.707107;0.000000;0.707107;,
    0.707107;0.000000;0.707107;,
    1.000000;0.000000;0.000000;,
    0.923104;0.384551;0.000000;,
    0.652733;0.384551;0.652733;,
    0.652733;0.384551;0.652733;,
    0.923104;0.384551;0.000000;,
    0.704977;0.709230;0.000000;,
    0.498494;0.709230;0.498494;,
    0.498494;0.709230;0.498494;,
    0.704977;0.709230;0.000000;,
    0.380611;0.924735;0.000000;,
    0.269132;0.924735;0.269132;,
    0.269132;0.924735;0.269132;,
    0.380611;0.924735;0.000000;,
    0.000000;1.000000;0.000000;,
    0.269132;-0.924735;-0.269132;,
    0.380611;-0.924735;0.000000;,
    0.000000;-1.000000;0.000000;,
    0.380611;-0.924735;0.000000;,
    0.269132;-0.924735;-0.269132;,
    0.498494;-0.709230;-0.498494;,
    0.704977;-0.709230;0.000000;,
    0.704977;-0.709230;0.000000;,
    0.498494;-0.709230;-0.498494;,
    0.652733;-0.384551;-0.652733;,
    0.923104;-0.384551;0.000000;,
    0.923104;-0.384551;0.000000;,
    0.652733;-0.384551;-0.652733;,
    0.707107;0.000000;-0.707107;,
    1.000000;0.000000;0.000000;,
    1.000000;0.000000;0.000000;,
    0.707107;0.000000;-0.707107;,
    0.652733;0.384551;-0.652733;,
    0.923104;0.384551;0.000000;,
    0.923104;0.384551;0.000000;,
    0.652733;0.384551;-0.652733;,
    0.498494;0.709230;-0.498494;,
    0.704977;0.709230;0.000000;,
    0.704977;0.709230;0.000000;,
    0.498494;0.709230;-0.498494;,
    0.269132;0.924735;-0.269132;,
    0.380611;0.924735;0.000000;,
    0.380611;0.924735;0.000000;,
    0.269132;0.924735;-0.269132;,
    0.000000;1.000000;0.000000;,
    0.000000;-0.924735;-0.380611;,
    0.269132;-0.924735;-0.269132;,
    0.000000;-1.000000;0.000000;,
    0.269132;-0.924735;-0.269132;,
    0.000000;-0.924735;-0.380611;,
    0.000000;-0.709230;-0.704977;,
    0.498494;-0.709230;-0.498494;,
    0.498494;-0.709230;-0.498494;,
    0.000000;-0.709230;-0.704977;,
    0.000000;-0.384551;-0.923104;,
    0.652733;-0.384551;-0.652733;,
    0.652733;-0.384551;-0.652733;,
    0.000000;-0.384551;-0.923104;,
    0.000000;0.000000;-1.000000;,
    0.707107;0.000000;-0.707107;,
    0.707107;0.000000;-0.707107;,
    0.000000;0.000000;-1.000000;,
    0.000000;0.384551;-0.923104;,
    0.652733;0.384551;-0.652733;,
    0.652733;0.384551;-0.652733;,
    0.000000;0.384551;-0.923104;,
    0.000000;0.709230;-0.704977;,
    0.498494;0.709230;-0.498494;,
    0.498494;0.709230;-0.498494;,
    0.000000;0.709230;-0.704977;,
    0.000000;0.924735;-0.380611;,
    0.269132;0.924735;-0.269132;,
    0.269132;0.924735;-0.269132;,
    0.000000;0.924735;-0.380611;,
    0.000000;1.000000;0.000000;,
    -0.269132;-0.924735;-0.269132;,
    0.000000;-0.924735;-0.380611;,
    0.000000;-1.000000;0.000000;,
    0.000000;-0.924735;-0.380611;,
    -0.269132;-0.924735;-0.269132;,
    -0.498494;-0.709230;-0.498494;,
    0.000000;-0.709230;-0.704977;,
    0.000000;-0.709230;-0.704977;,
    -0.498494;-0.709230;-0.498494;,
    -0.652733;-0.384551;-0.652733;,
    0.000000;-0.384551;-0.923104;,
    0.000000;-0.384551;-0.923104;,
    -0.652733;-0.384551;-0.652733;,
    -0.707107;0.000000;-0.707107;,
    0.000000;0.000000;-1.000000;,
    0.000000;0.000000;-1.000000;,
    -0.707107;0.000000;-0.707107;,
    -0.652733;0.384551;-0.652733;,
    0.000000;0.384551;-0.923104;,
    0.000000;0.384551;-0.923104;,
    -0.652733;0.384551;-0.652733;,
    -0.498494;0.709230;-0.498494;,
    0.000000;0.709230;-0.704977;,
    0.000000;0.709230;-0.704977;,
    -0.498494;0.709230;-0.498494;,
    -0.269132;0.924735;-0.269132;,
    0.000000;0.924735;-0.380611;,
    0.000000;0.924735;-0.380611;,
    -0.269132;0.924735;-0.269132;,
    0.000000;1.000000;0.000000;,
    -0.380611;-0.924735;0.000000;,
    -0.269132;-0.924735;-0.269132;,
    0.000000;-1.000000;0.000000;,
    -0.269132;-0.924735;-0.269132;,
    -0.380611;-0.924735;0.000000;,
    -0.704977;-0.709230;0.000000;,
    -0.498494;-0.709230;-0.498494;,
    -0.498494;-0.709230;-0.498494;,
    -0.704977;-0.709230;0.000000;,
    -0.923104;-0.384551;0.000000;,
    -0.652733;-0.384551;-0.652733;,
    -0.652733;-0.384551;-0.652733;,
    -0.923104;-0.384551;0.000000;,
    -1.000000;0.000000;0.000000;,
    -0.707107;0.000000;-0.707107;,
    -0.707107;0.000000;-0.707107;,
    -1.000000;0.000000;0.000000;,
    -0.923104;0.384551;0.000000;,
    -0.652733;0.384551;-0.652733;,
    -0.652733;0.384551;-0.652733;,
    -0.923104;0.384551;0.000000;,
    -0.704977;0.709230;0.000000;,
    -0.498494;0.709230;-0.498494;,
    -0.498494;0.709230;-0.498494;,
    -0.704977;0.709230;0.000000;,
    -0.380611;0.924735;0.000000;,
    -0.269132;0.924735;-0.269132;,
    -0.269132;0.924735;-0.269132;,
    -0.380611;0.924735;0.000000;,
    0.000000;1.000000;0.000000;;
    64;
    3;0,1,2;,
    4;3,4,5,6;,
    4;7,8,9,10;,
    4;11,12,13,14;,
    4;15,16,17,18;,
    4;19,20,21,22;,
    4;23,24,25,26;,
    3;27,28,29;,
    3;30,31,32;,
    4;33,34,35,36;,
    4;37,38,39,40;,
    4;41,42,43,44;,
    4;45,46,47,48;,
    4;49,50,51,52;,
    4;53,54,55,56;,
    3;57,58,59;,
    3;60,61,62;,
    4;63,64,65,66;,
    4;67,68,69,70;,
    4;71,72,73,74;,
    4;75,76,77,78;,
    4;79,80,81,82;,
    4;83,84,85,86;,
    3;87,88,89;,
    3;90,91,92;,
    4;93,94,95,96;,
    4;97,98,99,100;,
    4;101,102,103,104;,
    4;105,106,107,108;,
    4;109,110,111,112;,
    4;113,114,115,116;,
    3;117,118,119;,
    3;120,121,122;,
    4;123,124,125,126;,
    4;127,128,129,130;,
    4;131,132,133,134;,
    4;135,136,137,138;,
    4;139,140,141,142;,
    4;143,144,145,146;,
    3;147,148,149;,
    3;150,151,152;,
    4;153,154,155,156;,
    4;157,158,159,160;,
    4;161,162,163,164;,
    4;165,166,167,168;,
    4;169,170,171,172;,
    4;173,174,175,176;,
    3;177,178,179;,
    3;180,181,182;,
    4;183,184,185,186;,
    4;187,188,189,190;,
    4;191,192,193,194;,
    4;195,196,197,198;,
    4;199,200,201,202;,
    4;203,204,205,206;,
    3;207,208,209;,
    3;210,211,212;,
    4;213,214,215,216;,
    4;217,218,219,220;,
    4;221,222,223,224;,
    4;225,226,227,228;,
    4;229,230,231,232;,
    4;233,234,235,236;,
    3;237,238,239;;
   }

   MeshTextureCoords {
    240;
    0.000000;0.000000;,
    0.000000;0.000000;,
    0.000000;0.000000;,
    0.000000;0.000000;,
    0.000000;0.000000;,
    0.000000;0.000000;,
    0.000000;0.000000;,
    0.000000;0.000000;,
    0.000000;0.000000;,
    0.000000;0.000000;,
    0.000000;0.000000;,
    0.000000;0.000000;,
    0.000000;0.000000;,
    0.000000;0.000000;,
    0.000000;0.000000;,
    0.000000;0.000000;,
    0.000000;0.000000;,
    0.000000;0.000000;,
    0.000000;0.000000;,
    0.000000;0.000000;,
    0.000000;0.000000;,
    0.000000;0.000000;,
    0.000000;0.000000;,
    0.000000;0.000000;,
    0.000000;0.000000;,
    0.000000;0.000000;,
    0.000000;0.000000;,
    0.000000;0.000000;,
    0.000000;0.000000;,
    0.000000;0.000000;,
    0.000000;0.000000;,
    0.000000;0.000000;,
    0.000000;0.000000;,
    0.000000;0.000000;,
    0.000000;0.000000;,
    0.000000;0.000000;,
    0.000000;0.000000;,
    0.000000;0.000000;,
    0.000000;0.000000;,
    0.000000;0.000000;,
    0.000000;0.000000;,
    0.000000;0.000000;,
    0.000000;0.000000;,
    0.000000;0.000000;,
    0.000000;0.000000;,
    0.000000;0.000000;,
    0.000000;0.000000;,
    0.000000;0.000000;,
    0.000000;0.000000;,
    0.000000;0.000000;,
    0.000000;0.000000;,
    0.000000;0.000000;,
    0.000000;0.000000;,
    0.000000;0.000000;,
    0.000000;0.000000;,
    0.000000;0.000000;,
    0.000000;0.000000;,
    0.000000;0.000000;,
    0.000000;0.000000;,
    0.000000;0.000000;,
    0.000000;0.000000;,
    0.000000;0.000000;,
    0.000000;0.000000;,
    0.000000;0.000000;,
    0.000000;0.000000;,
    0.000000;0.000000;,
    0.000000;0.000000;,
    0.000000;0.000000;,
    0.000000;0.000000;,
    0.000000;0.000000;,
    0.000000;0.000000;,
    0.000000;0.000000;,
    0.000000;0.000000;,
    0.000000;0.000000;,
    0.000000;0.000000;,
    0.000000;0.000000;,
    0.000000;0.000000;,
    0.000000;0.000000;,
    0.000000;0.000000;,
    0.000000;0.000000;,
    0.000000;0.000000;,
    0.000000;0.000000;,
    0.000000;0.000000;,
    0.000000;0.000000;,
    0.000000;0.000000;,
    0.000000;0.000000;,
    0.000000;0.000000;,
    0.000000;0.000000;,
    0.000000;0.000000;,
    0.000000;0.000000;,
    0.000000;0.000000;,
    0.000000;0.000000;,
    0.000000;0.000000;,
    0.000000;0.000000;,
    0.000000;0.000000;,
    0.000000;0.000000;,
    0.000000;0.000000;,
    0.000000;0.000000;,
    0.000000;0.000000;,
    0.000000;0.000000;,
    0.000000;0.000000;,
    0.000000;0.000000;,
    0.000000;0.000000;,
    0.000000;0.000000;,
    0.000000;0.000000;,
    0.000000;0.000000;,
    0.000000;0.000000;,
    0.000000;0.000000;,
    0.000000;0.000000;,
    0.000000;0.000000;,
    0.000000;0.000000;,
    0.000000;0.000000;,
    0.000000;0.000000;,
    0.000000;0.000000;,
    0.000000;0.000000;,
    0.000000;0.000000;,
    0.000000;0.000000;,
    0.000000;0.000000;,
    0.000000;0.000000;,
    0.000000;0.000000;,
    0.000000;0.000000;,
    0.000000;0.000000;,
    0.000000;0.000000;,
    0.000000;0.000000;,
    0.000000;0.000000;,
    0.000000;0.000000;,
    0.000000;0.000000;,
    0.000000;0.000000;,
    0.000000;0.000000;,
    0.000000;0.000000;,
    0.000000;0.000000;,
    0.000000;0.000000;,
    0.000000;0.000000;,
    0.000000;0.000000;,
    0.000000;0.000000;,
    0.000000;0.000000;,
    0.000000;0.000000;,
    0.000000;0.000000;,
    0.000000;0.000000;,
    0.000000;0.000000;,
    0.000000;0.000000;,
    0.000000;0.000000;,
    0.000000;0.000000;,
    0.000000;0.000000;,
    0.000000;0.000000;,
    0.000000;0.000000;,
    0.000000;0.000000;,
    0.000000;0.000000;,
    0.000000;0.000000;,
    0.000000;0.000000;,
    0.000000;0.000000;,
    0.000000;0.000000;,
    0.000000;0.000000;,
    0.000000;0.000000;,
    0.000000;0.000000;,
    0.000000;0.000000;,
    0.000000;0.000000;,
    0.000000;0.000000;,
    0.000000;0.000000;,
    0.000000;0.000000;,
    0.000000;0.000000;,
    0.000000;0.000000;,
    0.000000;0.000000;,
    0.000000;0.000000;,
    0.000000;0.000000;,
    0.000000;0.000000;,
    0.000000;0.000000;,
    0.000000;0.000000;,
    0.000000;0.000000;,
    0.000000;0.000000;,
    0.000000;0.000000;,
    0.000000;0.000000;,
    0.000000;0.000000;,
    0.000000;0.000000;,
    0.000000;0.000000;,
    0.000000;0.000000;,
    0.000000;0.000000;,
    0.000000;0.000000;,
    0.000000;0.000000;,
    0.000000;0.000000;,
    0.000000;0.000000;,
    0.000000;0.000000;,
    0.000000;0.000000;,
    0.000000;0.000000;,
    0.000000;0.000000;,
    0.000000;0.000000;,
    0.000000;0.000000;,
    0.000000;0.000000;,
    0.000000;0.000000;,
    0.000000;0.000000;,
    0.000000;0.000000;,
    0.000000;0.000000;,
    0.000000;0.000000;,
    0.000000;0.000000;,
    0.000000;0.000000;,
    0.000000;0.000000;,
    0.000000;0.000000;,
    0.000000;0.000000;,
    0.000000;0.000000;,
    0.000000;0.000000;,
    0.000000;0.000000;,
    0.000000;0.000000;,
    0.000000;0.000000;,
    0.000000;0.000000;,
    0.000000;0.000000;,
    0.000000;0.000000;,
    0.000000;0.000000;,
    0.000000;0.000000;,
    0.000000;0.000000;,
    0.000000;0.000000;,
    0.000000;0.000000;,
    0.000000;0.000000;,
    0.000000;0.000000;,
    0.000000;0.000000;,
    0.000000;0.000000;,
    0.000000;0.000000;,
    0.000000;0.000000;,
    0.000000;0.000000;,
    0.000000;0.000000;,
    0.000000;0.000000;,
    0.000000;0.000000;,
    0.000000;0.000000;,
    0.000000;0.000000;,
    0.000000;0.000000;,
    0.000000;0.000000;,
    0.000000;0.000000;,
    0.000000;0.000000;,
    0.000000;0.000000;,
    0.000000;0.000000;,
    0.000000;0.000000;,
    0.000000;0.000000;,
    0.000000;0.000000;,
    0.000000;0.000000;,
    0.000000;0.000000;,
    0.000000;0.000000;,
    0.000000;0.000000;,
    0.000000;0.000000;,
    0.000000;0.000000;,
    0.000000;0.000000;,
    0.000000;0.000000;;
   }

   MeshMaterialList {
    1;
    64;
    0,
    0,
    0,
    0,
    0,
    0,
    0,
    0,
    0,
    0,
    0,
    0,
    0,
    0,
    0,
    0,
    0,
    0,
    0,
    0,
    0,
    0,
    0,
    0,
    0,
    0,
    0,
    0,
    0,
    0,
    0,
    0,
    0,
    0,
    0,
    0,
    0,
    0,
    0,
    0,
    0,
    0,
    0,
    0,
    0,
    0,
    0,
    0,
    0,
    0,
    0,
    0,
    0,
    0,
    0,
    0,
    0,
    0,
    0,
    0,
    0,
    0,
    0,
    0;

    Material DefaultLib_Scene_Material {
     0.698000;0.000000;0.000000;1.000000;;
     50.000000;
     1.000000;1.000000;1.000000;;
     0.000000;0.000000;0.000000;;
    }
   }
  }
 }
}