xof 0303txt 0032
template Frame {
 <3d82ab46-62da-11cf-ab39-0020af71e433>
 [...]
}

template Matrix4x4 {
 <f6f23f45-7686-11cf-8f52-0040333594a3>
 array FLOAT matrix[16];
}

template FrameTransformMatrix {
 <f6f23f41-7686-11cf-8f52-0040333594a3>
 Matrix4x4 frameMatrix;
}

template Vector {
 <3d82ab5e-62da-11cf-ab39-0020af71e433>
 FLOAT x;
 FLOAT y;
 FLOAT z;
}

template MeshFace {
 <3d82ab5f-62da-11cf-ab39-0020af71e433>
 DWORD nFaceVertexIndices;
 array DWORD faceVertexIndices[nFaceVertexIndices];
}

template Mesh {
 <3d82ab44-62da-11cf-ab39-0020af71e433>
 DWORD nVertices;
 array Vector vertices[nVertices];
 DWORD nFaces;
 array MeshFace faces[nFaces];
 [...]
}

template MeshNormals {
 <f6f23f43-7686-11cf-8f52-0040333594a3>
 DWORD nNormals;
 array Vector normals[nNormals];
 DWORD nFaceNormals;
 array MeshFace faceNormals[nFaceNormals];
}

template ColorRGBA {
 <35ff44e0-6c7c-11cf-8f52-0040333594a3>
 FLOAT red;
 FLOAT green;
 FLOAT blue;
 FLOAT alpha;
}

template ColorRGB {
 <d3e16e81-7835-11cf-8f52-0040333594a3>
 FLOAT red;
 FLOAT green;
 FLOAT blue;
}

template Material {
 <3d82ab4d-62da-11cf-ab39-0020af71e433>
 ColorRGBA faceColor;
 FLOAT power;
 ColorRGB specularColor;
 ColorRGB emissiveColor;
 [...]
}

template MeshMaterialList {
 <f6f23f42-7686-11cf-8f52-0040333594a3>
 DWORD nMaterials;
 DWORD nFaceIndexes;
 array DWORD faceIndexes[nFaceIndexes];
 [Material <3d82ab4d-62da-11cf-ab39-0020af71e433>]
}


Frame Scene_Root {
 

 Frame cone {
  

  FrameTransformMatrix {
   1.000000,0.000000,0.000000,0.000000,0.000000,1.000000,0.000000,0.000000,0.000000,0.000000,1.000000,0.000000,0.000000,0.000000,0.000000,1.000000;;
  }

  Mesh cone_obj {
   26;
   0.000000;-1.333333;0.000000;,
   0.000000;2.666667;0.000000;,
   -0.500000;-1.333333;0.000000;,
   -1.000000;-1.333333;0.000000;,
   -0.500000;0.666667;0.000000;,
   -0.353553;-1.333333;0.353553;,
   -0.707107;-1.333333;0.707107;,
   -0.353553;0.666667;0.353553;,
   0.000000;-1.333333;0.500000;,
   0.000000;-1.333333;1.000000;,
   0.000000;0.666667;0.500000;,
   0.353553;-1.333333;0.353553;,
   0.707107;-1.333333;0.707107;,
   0.353553;0.666667;0.353553;,
   0.500000;-1.333333;0.000000;,
   1.000000;-1.333333;0.000000;,
   0.500000;0.666667;0.000000;,
   0.353553;-1.333333;-0.353553;,
   0.707107;-1.333333;-0.707107;,
   0.353553;0.666667;-0.353553;,
   0.000000;-1.333333;-0.500000;,
   0.000000;-1.333333;-1.000000;,
   0.000000;0.666667;-0.500000;,
   -0.353553;-1.333333;-0.353553;,
   -0.707107;-1.333333;-0.707107;,
   -0.353553;0.666667;-0.353553;;
   32;
   3;5,2,0;,
   4;2,5,6,3;,
   4;3,6,7,4;,
   3;4,7,1;,
   3;8,5,0;,
   4;5,8,9,6;,
   4;6,9,10,7;,
   3;7,10,1;,
   3;11,8,0;,
   4;8,11,12,9;,
   4;9,12,13,10;,
   3;10,13,1;,
   3;14,11,0;,
   4;11,14,15,12;,
   4;12,15,16,13;,
   3;13,16,1;,
   3;17,14,0;,
   4;14,17,18,15;,
   4;15,18,19,16;,
   3;16,19,1;,
   3;20,17,0;,
   4;17,20,21,18;,
   4;18,21,22,19;,
   3;19,22,1;,
   3;23,20,0;,
   4;20,23,24,21;,
   4;21,24,25,22;,
   3;22,25,1;,
   3;2,23,0;,
   4;23,2,3,24;,
   4;24,3,4,25;,
   3;25,4,1;;

   MeshNormals {
    112;
    0.000000;-1.000000;0.000000;,
    0.000000;-1.000000;0.000000;,
    0.000000;-1.000000;0.000000;,
    0.000000;-1.000000;0.000000;,
    0.000000;-1.000000;0.000000;,
    0.000000;-1.000000;0.000000;,
    0.000000;-1.000000;0.000000;,
    -0.970142;0.242536;0.000000;,
    -0.685994;0.242536;0.685994;,
    -0.685994;0.242536;0.685994;,
    -0.970142;0.242536;0.000000;,
    -0.970142;0.242536;0.000000;,
    -0.685994;0.242536;0.685994;,
    0.000000;1.000000;0.000000;,
    0.000000;-1.000000;0.000000;,
    0.000000;-1.000000;0.000000;,
    0.000000;-1.000000;0.000000;,
    0.000000;-1.000000;0.000000;,
    0.000000;-1.000000;0.000000;,
    0.000000;-1.000000;0.000000;,
    0.000000;-1.000000;0.000000;,
    -0.685994;0.242536;0.685994;,
    0.000000;0.242536;0.970142;,
    0.000000;0.242536;0.970142;,
    -0.685994;0.242536;0.685994;,
    -0.685994;0.242536;0.685994;,
    0.000000;0.242536;0.970142;,
    0.000000;1.000000;0.000000;,
    0.000000;-1.000000;0.000000;,
    0.000000;-1.000000;0.000000;,
    0.000000;-1.000000;0.000000;,
    0.000000;-1.000000;0.000000;,
    0.000000;-1.000000;0.000000;,
    0.000000;-1.000000;0.000000;,
    0.000000;-1.000000;0.000000;,
    0.000000;0.242536;0.970142;,
    0.685994;0.242536;0.685994;,
    0.685994;0.242536;0.685994;,
    0.000000;0.242536;0.970142;,
    0.000000;0.242536;0.970142;,
    0.685994;0.242536;0.685994;,
    0.000000;1.000000;0.000000;,
    0.000000;-1.000000;0.000000;,
    0.000000;-1.000000;0.000000;,
    0.000000;-1.000000;0.000000;,
    0.000000;-1.000000;0.000000;,
    0.000000;-1.000000;0.000000;,
    0.000000;-1.000000;0.000000;,
    0.000000;-1.000000;0.000000;,
    0.685994;0.242536;0.685994;,
    0.970142;0.242536;0.000000;,
    0.970142;0.242536;0.000000;,
    0.685994;0.242536;0.685994;,
    0.685994;0.242536;0.685994;,
    0.970142;0.242536;0.000000;,
    0.000000;1.000000;0.000000;,
    0.000000;-1.000000;0.000000;,
    0.000000;-1.000000;0.000000;,
    0.000000;-1.000000;0.000000;,
    0.000000;-1.000000;0.000000;,
    0.000000;-1.000000;0.000000;,
    0.000000;-1.000000;0.000000;,
    0.000000;-1.000000;0.000000;,
    0.970142;0.242536;0.000000;,
    0.685994;0.242536;-0.685994;,
    0.685994;0.242536;-0.685994;,
    0.970142;0.242536;0.000000;,
    0.970142;0.242536;0.000000;,
    0.685994;0.242536;-0.685994;,
    0.000000;1.000000;0.000000;,
    0.000000;-1.000000;0.000000;,
    0.000000;-1.000000;0.000000;,
    0.000000;-1.000000;0.000000;,
    0.000000;-1.000000;0.000000;,
    0.000000;-1.000000;0.000000;,
    0.000000;-1.000000;0.000000;,
    0.000000;-1.000000;0.000000;,
    0.685994;0.242536;-0.685994;,
    0.000000;0.242536;-0.970142;,
    0.000000;0.242536;-0.970142;,
    0.685994;0.242536;-0.685994;,
    0.685994;0.242536;-0.685994;,
    0.000000;0.242536;-0.970142;,
    0.000000;1.000000;0.000000;,
    0.000000;-1.000000;0.000000;,
    0.000000;-1.000000;0.000000;,
    0.000000;-1.000000;0.000000;,
    0.000000;-1.000000;0.000000;,
    0.000000;-1.000000;0.000000;,
    0.000000;-1.000000;0.000000;,
    0.000000;-1.000000;0.000000;,
    0.000000;0.242536;-0.970142;,
    -0.685994;0.242536;-0.685994;,
    -0.685994;0.242536;-0.685994;,
    0.000000;0.242536;-0.970142;,
    0.000000;0.242536;-0.970142;,
    -0.685994;0.242536;-0.685994;,
    0.000000;1.000000;0.000000;,
    0.000000;-1.000000;0.000000;,
    0.000000;-1.000000;0.000000;,
    0.000000;-1.000000;0.000000;,
    0.000000;-1.000000;0.000000;,
    0.000000;-1.000000;0.000000;,
    0.000000;-1.000000;0.000000;,
    0.000000;-1.000000;0.000000;,
    -0.685994;0.242536;-0.685994;,
    -0.970142;0.242536;0.000000;,
    -0.970142;0.242536;0.000000;,
    -0.685994;0.242536;-0.685994;,
    -0.685994;0.242536;-0.685994;,
    -0.970142;0.242536;0.000000;,
    0.000000;1.000000;0.000000;;
    32;
    3;0,1,2;,
    4;3,4,5,6;,
    4;7,8,9,10;,
    3;11,12,13;,
    3;14,15,16;,
    4;17,18,19,20;,
    4;21,22,23,24;,
    3;25,26,27;,
    3;28,29,30;,
    4;31,32,33,34;,
    4;35,36,37,38;,
    3;39,40,41;,
    3;42,43,44;,
    4;45,46,47,48;,
    4;49,50,51,52;,
    3;53,54,55;,
    3;56,57,58;,
    4;59,60,61,62;,
    4;63,64,65,66;,
    3;67,68,69;,
    3;70,71,72;,
    4;73,74,75,76;,
    4;77,78,79,80;,
    3;81,82,83;,
    3;84,85,86;,
    4;87,88,89,90;,
    4;91,92,93,94;,
    3;95,96,97;,
    3;98,99,100;,
    4;101,102,103,104;,
    4;105,106,107,108;,
    3;109,110,111;;
   }

   MeshMaterialList {
    1;
    32;
    0,
    0,
    0,
    0,
    0,
    0,
    0,
    0,
    0,
    0,
    0,
    0,
    0,
    0,
    0,
    0,
    0,
    0,
    0,
    0,
    0,
    0,
    0,
    0,
    0,
    0,
    0,
    0,
    0,
    0,
    0,
    0;

    Material DefaultLib_Material {
     0.698000;0.000000;0.000000;1.000000;;
     50.000000;
     1.000000;1.000000;1.000000;;
     0.000000;0.000000;0.000000;;
    }
   }
  }
 }

 Frame cube {
  

  FrameTransformMatrix {
   0.500000,0.000000,0.000000,0.000000,0.000000,0.500000,0.000000,0.000000,0.000000,0.000000,0.500000,0.000000,-3.387161,0.000000,0.000000,1.000000;;
  }

  Mesh cube_obj {
   8;
   -4.000000;-4.000000;-4.000000;,
   4.000000;-4.000000;-4.000000;,
   -4.000000;4.000000;-4.000000;,
   4.000000;4.000000;-4.000000;,
   -4.000000;-4.000000;4.000000;,
   4.000000;-4.000000;4.000000;,
   -4.000000;4.000000;4.000000;,
   4.000000;4.000000;4.000000;;
   6;
   4;0,2,3,1;,
   4;0,1,5,4;,
   4;0,4,6,2;,
   4;1,3,7,5;,
   4;2,6,7,3;,
   4;4,5,7,6;;

   MeshNormals {
    24;
    0.000000;0.000000;-1.000000;,
    0.000000;0.000000;-1.000000;,
    0.000000;0.000000;-1.000000;,
    0.000000;0.000000;-1.000000;,
    0.000000;-1.000000;0.000000;,
    0.000000;-1.000000;0.000000;,
    0.000000;-1.000000;0.000000;,
    0.000000;-1.000000;0.000000;,
    -1.000000;0.000000;0.000000;,
    -1.000000;0.000000;0.000000;,
    -1.000000;0.000000;0.000000;,
    -1.000000;0.000000;0.000000;,
    1.000000;0.000000;0.000000;,
    1.000000;0.000000;0.000000;,
    1.000000;0.000000;0.000000;,
    1.000000;0.000000;0.000000;,
    0.000000;1.000000;0.000000;,
    0.000000;1.000000;0.000000;,
    0.000000;1.000000;0.000000;,
    0.000000;1.000000;0.000000;,
    0.000000;0.000000;1.000000;,
    0.000000;0.000000;1.000000;,
    0.000000;0.000000;1.000000;,
    0.000000;0.000000;1.000000;;
    6;
    4;0,1,2,3;,
    4;4,5,6,7;,
    4;8,9,10,11;,
    4;12,13,14,15;,
    4;16,17,18,19;,
    4;20,21,22,23;;
   }

   MeshMaterialList {
    1;
    6;
    0,
    0,
    0,
    0,
    0,
    0;

    Material DefaultLib_Material1 {
     0.694000;0.698000;0.000000;1.000000;;
     50.000000;
     1.000000;1.000000;1.000000;;
     0.000000;0.000000;0.000000;;
    }
   }
  }
 }

 Frame sphere {
  

  FrameTransformMatrix {
   1.000000,0.000000,0.000000,0.000000,0.000000,1.000000,0.000000,0.000000,0.000000,0.000000,1.000000,0.000000,0.000000,0.000000,-4.103127,1.000000;;
  }

  Mesh sphere_obj {
   58;
   0.000000;-2.000000;0.000000;,
   0.000000;2.000000;0.000000;,
   -0.765367;-1.847759;0.000000;,
   -1.414214;-1.414214;0.000000;,
   -1.847759;-0.765367;0.000000;,
   -2.000000;0.000000;0.000000;,
   -1.847759;0.765367;0.000000;,
   -1.414214;1.414214;0.000000;,
   -0.765367;1.847759;0.000000;,
   -0.541196;-1.847759;0.541196;,
   -1.000000;-1.414214;1.000000;,
   -1.306563;-0.765367;1.306563;,
   -1.414214;0.000000;1.414214;,
   -1.306563;0.765367;1.306563;,
   -1.000000;1.414214;1.000000;,
   -0.541196;1.847759;0.541196;,
   0.000000;-1.847759;0.765367;,
   0.000000;-1.414214;1.414214;,
   0.000000;-0.765367;1.847759;,
   0.000000;0.000000;2.000000;,
   0.000000;0.765367;1.847759;,
   0.000000;1.414214;1.414214;,
   0.000000;1.847759;0.765367;,
   0.541196;-1.847759;0.541196;,
   1.000000;-1.414214;1.000000;,
   1.306563;-0.765367;1.306563;,
   1.414214;0.000000;1.414214;,
   1.306563;0.765367;1.306563;,
   1.000000;1.414214;1.000000;,
   0.541196;1.847759;0.541196;,
   0.765367;-1.847759;0.000000;,
   1.414214;-1.414214;0.000000;,
   1.847759;-0.765367;0.000000;,
   2.000000;0.000000;0.000000;,
   1.847759;0.765367;0.000000;,
   1.414214;1.414214;0.000000;,
   0.765367;1.847759;0.000000;,
   0.541196;-1.847759;-0.541196;,
   1.000000;-1.414214;-1.000000;,
   1.306563;-0.765367;-1.306563;,
   1.414214;0.000000;-1.414214;,
   1.306563;0.765367;-1.306563;,
   1.000000;1.414214;-1.000000;,
   0.541196;1.847759;-0.541196;,
   0.000000;-1.847759;-0.765367;,
   0.000000;-1.414214;-1.414214;,
   0.000000;-0.765367;-1.847759;,
   0.000000;0.000000;-2.000000;,
   0.000000;0.765367;-1.847759;,
   0.000000;1.414214;-1.414214;,
   0.000000;1.847759;-0.765367;,
   -0.541196;-1.847759;-0.541196;,
   -1.000000;-1.414214;-1.000000;,
   -1.306563;-0.765367;-1.306563;,
   -1.414214;0.000000;-1.414214;,
   -1.306563;0.765367;-1.306563;,
   -1.000000;1.414214;-1.000000;,
   -0.541196;1.847759;-0.541196;;
   64;
   3;9,2,0;,
   4;2,9,10,3;,
   4;3,10,11,4;,
   4;4,11,12,5;,
   4;5,12,13,6;,
   4;6,13,14,7;,
   4;7,14,15,8;,
   3;8,15,1;,
   3;16,9,0;,
   4;9,16,17,10;,
   4;10,17,18,11;,
   4;11,18,19,12;,
   4;12,19,20,13;,
   4;13,20,21,14;,
   4;14,21,22,15;,
   3;15,22,1;,
   3;23,16,0;,
   4;16,23,24,17;,
   4;17,24,25,18;,
   4;18,25,26,19;,
   4;19,26,27,20;,
   4;20,27,28,21;,
   4;21,28,29,22;,
   3;22,29,1;,
   3;30,23,0;,
   4;23,30,31,24;,
   4;24,31,32,25;,
   4;25,32,33,26;,
   4;26,33,34,27;,
   4;27,34,35,28;,
   4;28,35,36,29;,
   3;29,36,1;,
   3;37,30,0;,
   4;30,37,38,31;,
   4;31,38,39,32;,
   4;32,39,40,33;,
   4;33,40,41,34;,
   4;34,41,42,35;,
   4;35,42,43,36;,
   3;36,43,1;,
   3;44,37,0;,
   4;37,44,45,38;,
   4;38,45,46,39;,
   4;39,46,47,40;,
   4;40,47,48,41;,
   4;41,48,49,42;,
   4;42,49,50,43;,
   3;43,50,1;,
   3;51,44,0;,
   4;44,51,52,45;,
   4;45,52,53,46;,
   4;46,53,54,47;,
   4;47,54,55,48;,
   4;48,55,56,49;,
   4;49,56,57,50;,
   3;50,57,1;,
   3;2,51,0;,
   4;51,2,3,52;,
   4;52,3,4,53;,
   4;53,4,5,54;,
   4;54,5,6,55;,
   4;55,6,7,56;,
   4;56,7,8,57;,
   3;57,8,1;;

   MeshNormals {
    240;
    -0.269132;-0.924735;0.269132;,
    -0.380611;-0.924735;0.000000;,
    0.000000;-1.000000;0.000000;,
    -0.380611;-0.924735;0.000000;,
    -0.269132;-0.924735;0.269132;,
    -0.498494;-0.709230;0.498494;,
    -0.704977;-0.709230;0.000000;,
    -0.704977;-0.709230;0.000000;,
    -0.498494;-0.709230;0.498494;,
    -0.652733;-0.384551;0.652733;,
    -0.923104;-0.384551;0.000000;,
    -0.923104;-0.384551;0.000000;,
    -0.652733;-0.384551;0.652733;,
    -0.707107;0.000000;0.707107;,
    -1.000000;0.000000;0.000000;,
    -1.000000;0.000000;0.000000;,
    -0.707107;0.000000;0.707107;,
    -0.652733;0.384551;0.652733;,
    -0.923104;0.384551;0.000000;,
    -0.923104;0.384551;0.000000;,
    -0.652733;0.384551;0.652733;,
    -0.498494;0.709230;0.498494;,
    -0.704977;0.709230;0.000000;,
    -0.704977;0.709230;0.000000;,
    -0.498494;0.709230;0.498494;,
    -0.269132;0.924735;0.269132;,
    -0.380611;0.924735;0.000000;,
    -0.380611;0.924735;0.000000;,
    -0.269132;0.924735;0.269132;,
    0.000000;1.000000;0.000000;,
    0.000000;-0.924735;0.380611;,
    -0.269132;-0.924735;0.269132;,
    0.000000;-1.000000;0.000000;,
    -0.269132;-0.924735;0.269132;,
    0.000000;-0.924735;0.380611;,
    0.000000;-0.709230;0.704977;,
    -0.498494;-0.709230;0.498494;,
    -0.498494;-0.709230;0.498494;,
    0.000000;-0.709230;0.704977;,
    0.000000;-0.384551;0.923104;,
    -0.652733;-0.384551;0.652733;,
    -0.652733;-0.384551;0.652733;,
    0.000000;-0.384551;0.923104;,
    0.000000;0.000000;1.000000;,
    -0.707107;0.000000;0.707107;,
    -0.707107;0.000000;0.707107;,
    0.000000;0.000000;1.000000;,
    0.000000;0.384551;0.923104;,
    -0.652733;0.384551;0.652733;,
    -0.652733;0.384551;0.652733;,
    0.000000;0.384551;0.923104;,
    0.000000;0.709230;0.704977;,
    -0.498494;0.709230;0.498494;,
    -0.498494;0.709230;0.498494;,
    0.000000;0.709230;0.704977;,
    0.000000;0.924735;0.380611;,
    -0.269132;0.924735;0.269132;,
    -0.269132;0.924735;0.269132;,
    0.000000;0.924735;0.380611;,
    0.000000;1.000000;0.000000;,
    0.269132;-0.924735;0.269132;,
    0.000000;-0.924735;0.380611;,
    0.000000;-1.000000;0.000000;,
    0.000000;-0.924735;0.380611;,
    0.269132;-0.924735;0.269132;,
    0.498494;-0.709230;0.498494;,
    0.000000;-0.709230;0.704977;,
    0.000000;-0.709230;0.704977;,
    0.498494;-0.709230;0.498494;,
    0.652733;-0.384551;0.652733;,
    0.000000;-0.384551;0.923104;,
    0.000000;-0.384551;0.923104;,
    0.652733;-0.384551;0.652733;,
    0.707107;0.000000;0.707107;,
    0.000000;0.000000;1.000000;,
    0.000000;0.000000;1.000000;,
    0.707107;0.000000;0.707107;,
    0.652733;0.384551;0.652733;,
    0.000000;0.384551;0.923104;,
    0.000000;0.384551;0.923104;,
    0.652733;0.384551;0.652733;,
    0.498494;0.709230;0.498494;,
    0.000000;0.709230;0.704977;,
    0.000000;0.709230;0.704977;,
    0.498494;0.709230;0.498494;,
    0.269132;0.924735;0.269132;,
    0.000000;0.924735;0.380611;,
    0.000000;0.924735;0.380611;,
    0.269132;0.924735;0.269132;,
    0.000000;1.000000;0.000000;,
    0.380611;-0.924735;0.000000;,
    0.269132;-0.924735;0.269132;,
    0.000000;-1.000000;0.000000;,
    0.269132;-0.924735;0.269132;,
    0.380611;-0.924735;0.000000;,
    0.704977;-0.709230;0.000000;,
    0.498494;-0.709230;0.498494;,
    0.498494;-0.709230;0.498494;,
    0.704977;-0.709230;0.000000;,
    0.923104;-0.384551;0.000000;,
    0.652733;-0.384551;0.652733;,
    0.652733;-0.384551;0.652733;,
    0.923104;-0.384551;0.000000;,
    1.000000;0.000000;0.000000;,
    0.707107;0.000000;0.707107;,
    0.707107;0.000000;0.707107;,
    1.000000;0.000000;0.000000;,
    0.923104;0.384551;0.000000;,
    0.652733;0.384551;0.652733;,
    0.652733;0.384551;0.652733;,
    0.923104;0.384551;0.000000;,
    0.704977;0.709230;0.000000;,
    0.498494;0.709230;0.498494;,
    0.498494;0.709230;0.498494;,
    0.704977;0.709230;0.000000;,
    0.380611;0.924735;0.000000;,
    0.269132;0.924735;0.269132;,
    0.269132;0.924735;0.269132;,
    0.380611;0.924735;0.000000;,
    0.000000;1.000000;0.000000;,
    0.269132;-0.924735;-0.269132;,
    0.380611;-0.924735;0.000000;,
    0.000000;-1.000000;0.000000;,
    0.380611;-0.924735;0.000000;,
    0.269132;-0.924735;-0.269132;,
    0.498494;-0.709230;-0.498494;,
    0.704977;-0.709230;0.000000;,
    0.704977;-0.709230;0.000000;,
    0.498494;-0.709230;-0.498494;,
    0.652733;-0.384551;-0.652733;,
    0.923104;-0.384551;0.000000;,
    0.923104;-0.384551;0.000000;,
    0.652733;-0.384551;-0.652733;,
    0.707107;0.000000;-0.707107;,
    1.000000;0.000000;0.000000;,
    1.000000;0.000000;0.000000;,
    0.707107;0.000000;-0.707107;,
    0.652733;0.384551;-0.652733;,
    0.923104;0.384551;0.000000;,
    0.923104;0.384551;0.000000;,
    0.652733;0.384551;-0.652733;,
    0.498494;0.709230;-0.498494;,
    0.704977;0.709230;0.000000;,
    0.704977;0.709230;0.000000;,
    0.498494;0.709230;-0.498494;,
    0.269132;0.924735;-0.269132;,
    0.380611;0.924735;0.000000;,
    0.380611;0.924735;0.000000;,
    0.269132;0.924735;-0.269132;,
    0.000000;1.000000;0.000000;,
    0.000000;-0.924735;-0.380611;,
    0.269132;-0.924735;-0.269132;,
    0.000000;-1.000000;0.000000;,
    0.269132;-0.924735;-0.269132;,
    0.000000;-0.924735;-0.380611;,
    0.000000;-0.709230;-0.704977;,
    0.498494;-0.709230;-0.498494;,
    0.498494;-0.709230;-0.498494;,
    0.000000;-0.709230;-0.704977;,
    0.000000;-0.384551;-0.923104;,
    0.652733;-0.384551;-0.652733;,
    0.652733;-0.384551;-0.652733;,
    0.000000;-0.384551;-0.923104;,
    0.000000;0.000000;-1.000000;,
    0.707107;0.000000;-0.707107;,
    0.707107;0.000000;-0.707107;,
    0.000000;0.000000;-1.000000;,
    0.000000;0.384551;-0.923104;,
    0.652733;0.384551;-0.652733;,
    0.652733;0.384551;-0.652733;,
    0.000000;0.384551;-0.923104;,
    0.000000;0.709230;-0.704977;,
    0.498494;0.709230;-0.498494;,
    0.498494;0.709230;-0.498494;,
    0.000000;0.709230;-0.704977;,
    0.000000;0.924735;-0.380611;,
    0.269132;0.924735;-0.269132;,
    0.269132;0.924735;-0.269132;,
    0.000000;0.924735;-0.380611;,
    0.000000;1.000000;0.000000;,
    -0.269132;-0.924735;-0.269132;,
    0.000000;-0.924735;-0.380611;,
    0.000000;-1.000000;0.000000;,
    0.000000;-0.924735;-0.380611;,
    -0.269132;-0.924735;-0.269132;,
    -0.498494;-0.709230;-0.498494;,
    0.000000;-0.709230;-0.704977;,
    0.000000;-0.709230;-0.704977;,
    -0.498494;-0.709230;-0.498494;,
    -0.652733;-0.384551;-0.652733;,
    0.000000;-0.384551;-0.923104;,
    0.000000;-0.384551;-0.923104;,
    -0.652733;-0.384551;-0.652733;,
    -0.707107;0.000000;-0.707107;,
    0.000000;0.000000;-1.000000;,
    0.000000;0.000000;-1.000000;,
    -0.707107;0.000000;-0.707107;,
    -0.652733;0.384551;-0.652733;,
    0.000000;0.384551;-0.923104;,
    0.000000;0.384551;-0.923104;,
    -0.652733;0.384551;-0.652733;,
    -0.498494;0.709230;-0.498494;,
    0.000000;0.709230;-0.704977;,
    0.000000;0.709230;-0.704977;,
    -0.498494;0.709230;-0.498494;,
    -0.269132;0.924735;-0.269132;,
    0.000000;0.924735;-0.380611;,
    0.000000;0.924735;-0.380611;,
    -0.269132;0.924735;-0.269132;,
    0.000000;1.000000;0.000000;,
    -0.380611;-0.924735;0.000000;,
    -0.269132;-0.924735;-0.269132;,
    0.000000;-1.000000;0.000000;,
    -0.269132;-0.924735;-0.269132;,
    -0.380611;-0.924735;0.000000;,
    -0.704977;-0.709230;0.000000;,
    -0.498494;-0.709230;-0.498494;,
    -0.498494;-0.709230;-0.498494;,
    -0.704977;-0.709230;0.000000;,
    -0.923104;-0.384551;0.000000;,
    -0.652733;-0.384551;-0.652733;,
    -0.652733;-0.384551;-0.652733;,
    -0.923104;-0.384551;0.000000;,
    -1.000000;0.000000;0.000000;,
    -0.707107;0.000000;-0.707107;,
    -0.707107;0.000000;-0.707107;,
    -1.000000;0.000000;0.000000;,
    -0.923104;0.384551;0.000000;,
    -0.652733;0.384551;-0.652733;,
    -0.652733;0.384551;-0.652733;,
    -0.923104;0.384551;0.000000;,
    -0.704977;0.709230;0.000000;,
    -0.498494;0.709230;-0.498494;,
    -0.498494;0.709230;-0.498494;,
    -0.704977;0.709230;0.000000;,
    -0.380611;0.924735;0.000000;,
    -0.269132;0.924735;-0.269132;,
    -0.269132;0.924735;-0.269132;,
    -0.380611;0.924735;0.000000;,
    0.000000;1.000000;0.000000;;
    64;
    3;0,1,2;,
    4;3,4,5,6;,
    4;7,8,9,10;,
    4;11,12,13,14;,
    4;15,16,17,18;,
    4;19,20,21,22;,
    4;23,24,25,26;,
    3;27,28,29;,
    3;30,31,32;,
    4;33,34,35,36;,
    4;37,38,39,40;,
    4;41,42,43,44;,
    4;45,46,47,48;,
    4;49,50,51,52;,
    4;53,54,55,56;,
    3;57,58,59;,
    3;60,61,62;,
    4;63,64,65,66;,
    4;67,68,69,70;,
    4;71,72,73,74;,
    4;75,76,77,78;,
    4;79,80,81,82;,
    4;83,84,85,86;,
    3;87,88,89;,
    3;90,91,92;,
    4;93,94,95,96;,
    4;97,98,99,100;,
    4;101,102,103,104;,
    4;105,106,107,108;,
    4;109,110,111,112;,
    4;113,114,115,116;,
    3;117,118,119;,
    3;120,121,122;,
    4;123,124,125,126;,
    4;127,128,129,130;,
    4;131,132,133,134;,
    4;135,136,137,138;,
    4;139,140,141,142;,
    4;143,144,145,146;,
    3;147,148,149;,
    3;150,151,152;,
    4;153,154,155,156;,
    4;157,158,159,160;,
    4;161,162,163,164;,
    4;165,166,167,168;,
    4;169,170,171,172;,
    4;173,174,175,176;,
    3;177,178,179;,
    3;180,181,182;,
    4;183,184,185,186;,
    4;187,188,189,190;,
    4;191,192,193,194;,
    4;195,196,197,198;,
    4;199,200,201,202;,
    4;203,204,205,206;,
    3;207,208,209;,
    3;210,211,212;,
    4;213,214,215,216;,
    4;217,218,219,220;,
    4;221,222,223,224;,
    4;225,226,227,228;,
    4;229,230,231,232;,
    4;233,234,235,236;,
    3;237,238,239;;
   }

   MeshMaterialList {
    1;
    64;
    0,
    0,
    0,
    0,
    0,
    0,
    0,
    0,
    0,
    0,
    0,
    0,
    0,
    0,
    0,
    0,
    0,
    0,
    0,
    0,
    0,
    0,
    0,
    0,
    0,
    0,
    0,
    0,
    0,
    0,
    0,
    0,
    0,
    0,
    0,
    0,
    0,
    0,
    0,
    0,
    0,
    0,
    0,
    0,
    0,
    0,
    0,
    0,
    0,
    0,
    0,
    0,
    0,
    0,
    0,
    0,
    0,
    0,
    0,
    0,
    0,
    0,
    0,
    0;

    Material DefaultLib_Material2 {
     0.051000;0.000000;0.698000;1.000000;;
     50.000000;
     1.000000;1.000000;1.000000;;
     0.000000;0.000000;0.000000;;
    }
   }
  }
 }
}